<?xml version="1.0" encoding="utf-8"?>
<svg id="master-artboard" viewBox="0 0 660 107" version="1.1" xmlns="http://www.w3.org/2000/svg" x="0px" y="0px" style="enable-background:new 0 0 336 235.2;" width="660px" height="107px"><rect id="ee-background" x="0" y="0" width="660" height="107" style="fill: white; fill-opacity: 0; pointer-events: none;"/><defs><style id="ee-google-fonts">@import url(https://fonts.googleapis.com/css?family=Audiowide:400);</style><clipPath id="clip-path">
      <path d="M 52.007999 0 H 607.882992 A 52.007999 52.007999 0 0 1 659.890991 52.007999 V 54.576 A 52.007999 52.007999 0 0 1 607.882992 106.584 H 52.007999 A 52.007999 52.007999 0 0 1 0 54.576 V 52.007999 A 52.007999 52.007999 0 0 1 52.007999 0 Z" id="Rectangle_85" data-name="Rectangle 85" fill="none"/>
    </clipPath><linearGradient id="linear-gradient" y1="0.5" x2="1" y2="0.5" gradientUnits="objectBoundingBox">
      <stop offset="0" stop-color="#00958e"/>
      <stop offset="0.07" stop-color="#039690"/>
      <stop offset="0.135" stop-color="#0e9c99"/>
      <stop offset="0.198" stop-color="#21a6a8"/>
      <stop offset="0.256" stop-color="#3ab3bc"/>
      <stop offset="0.533" stop-color="#cee8d7"/>
      <stop offset="0.808" stop-color="#3ab3bc"/>
      <stop offset="1" stop-color="#00958e"/>
    </linearGradient></defs>





















































































































































<g transform="matrix(1.0001650996230549, 0, 0, 1.0001650996230549, 0, 0.19921313811565255)"><g id="Group_325" data-name="Group 325" transform="translate(-1198.848 -778.326)">
    <g id="Group_127" data-name="Group 127" transform="translate(-93.999)">
      <g id="Group_126" data-name="Group 126" transform="translate(1292.847 778.326)" clip-path="url(#clip-path)">
        <path d="M 52.007999 0 H 607.882992 A 52.007999 52.007999 0 0 1 659.890991 52.007999 V 54.576 A 52.007999 52.007999 0 0 1 607.882992 106.584 H 52.007999 A 52.007999 52.007999 0 0 1 0 54.576 V 52.007999 A 52.007999 52.007999 0 0 1 52.007999 0 Z" id="Rectangle_83" data-name="Rectangle 83" fill="url(#linear-gradient)"/>
        <path d="M 52.007999 0 H 607.882992 A 52.007999 52.007999 0 0 1 659.890991 52.007999 V 54.576 A 52.007999 52.007999 0 0 1 607.882992 106.584 H 52.007999 A 52.007999 52.007999 0 0 1 0 54.576 V 52.007999 A 52.007999 52.007999 0 0 1 52.007999 0 Z" id="Rectangle_84" data-name="Rectangle 84" transform="translate(0 9.009)" fill="#00b68c"/>
      </g>
    </g>
    
  </g></g></svg>