<svg xmlns="http://www.w3.org/2000/svg" width="86.818" height="86.817" viewBox="0 0 86.818 86.817">
  <g id="Group_328" data-name="Group 328" transform="translate(15985.365 -1677.992)">
    <circle id="Ellipse_24" data-name="Ellipse 24" cx="43.409" cy="43.409" r="43.409" transform="translate(-15985.365 1677.992)" fill="#6dc3c6"/>
    <path id="Path_565" data-name="Path 565" d="M418.862,645.227a2.637,2.637,0,0,1-1.865-4.5,18.493,18.493,0,0,0,0-26.12,2.638,2.638,0,1,1,3.73-3.732,23.744,23.744,0,0,1,0,33.582A2.623,2.623,0,0,1,418.862,645.227Zm-9.373-4.975a2.639,2.639,0,0,1-1.865-4.5,11.445,11.445,0,0,0,0-16.168,2.639,2.639,0,0,1,3.731-3.732,16.728,16.728,0,0,1,0,23.63A2.627,2.627,0,0,1,409.489,640.252Zm-8.117-36.406c1.41-1.412,2.565-.934,2.565,1.062V650.42c0,1.994-1.155,2.473-2.565,1.062l-13.265-13.263h-8.795V617.111h8.795Z" transform="translate(-16345.313 1093.961)" fill="#fff"/>
  </g>
</svg>
