<svg xmlns="http://www.w3.org/2000/svg" xmlns:xlink="http://www.w3.org/1999/xlink" width="1108.549" height="435.393" viewBox="0 0 1108.549 435.393">
  <defs>
    <radialGradient id="radial-gradient" cx="0.5" cy="0.5" r="0.416" gradientTransform="translate(1.965 -0.005) scale(1.594 1.004)" gradientUnits="objectBoundingBox">
      <stop offset="0" stop-color="#a1d7c4"/>
      <stop offset="0.018" stop-color="#9bd4c2"/>
      <stop offset="0.195" stop-color="#64c1b0"/>
      <stop offset="0.36" stop-color="#38b1a2"/>
      <stop offset="0.507" stop-color="#19a698"/>
      <stop offset="0.632" stop-color="#069f92"/>
      <stop offset="0.718" stop-color="#009d90"/>
      <stop offset="0.814" stop-color="#039b8e"/>
      <stop offset="0.902" stop-color="#0e9589"/>
      <stop offset="0.987" stop-color="#218b80"/>
      <stop offset="1" stop-color="#258a7f"/>
    </radialGradient>
    <radialGradient id="radial-gradient-2" cx="0.5" cy="0.5" r="0.444" gradientTransform="translate(-0.159) scale(1.318 1)" xlink:href="#radial-gradient"/>
    <linearGradient id="linear-gradient" x1="0.5" y1="1" x2="0.5" gradientUnits="objectBoundingBox">
      <stop offset="0" stop-color="#a1d7c4"/>
      <stop offset="0.018" stop-color="#9bd4c2"/>
      <stop offset="0.195" stop-color="#64c1b0"/>
      <stop offset="0.36" stop-color="#38b1a2"/>
      <stop offset="0.507" stop-color="#19a698"/>
      <stop offset="0.632" stop-color="#069f92"/>
      <stop offset="0.718" stop-color="#009d90"/>
      <stop offset="0.814" stop-color="#009387"/>
      <stop offset="0.902" stop-color="#017e6f"/>
      <stop offset="1" stop-color="#008ea8"/>
    </linearGradient>
    <linearGradient id="linear-gradient-2" x1="0.155" y1="-0.21" x2="0.845" y2="0.726" gradientUnits="objectBoundingBox">
      <stop offset="0" stop-color="#00878d"/>
      <stop offset="0.123" stop-color="#03898f"/>
      <stop offset="0.237" stop-color="#0e9298"/>
      <stop offset="0.346" stop-color="#21a0a8"/>
      <stop offset="0.448" stop-color="#3ab3bc"/>
      <stop offset="0.505" stop-color="#cee8d7"/>
      <stop offset="0.597" stop-color="#3ab3bc"/>
      <stop offset="0.754" stop-color="#1e8392"/>
      <stop offset="0.838" stop-color="#1d7f8f"/>
      <stop offset="0.914" stop-color="#1c7488"/>
      <stop offset="0.989" stop-color="#1a617c"/>
      <stop offset="1" stop-color="#1a5e7a"/>
    </linearGradient>
    <linearGradient id="linear-gradient-3" x1="1" y1="0.5" x2="0" y2="0.5" gradientUnits="objectBoundingBox">
      <stop offset="0" stop-color="#fee8b1"/>
      <stop offset="0.15" stop-color="#f9daa0"/>
      <stop offset="0.351" stop-color="#f2c484"/>
      <stop offset="0.429" stop-color="#f2c584"/>
      <stop offset="0.457" stop-color="#f4cc86"/>
      <stop offset="0.476" stop-color="#f7d888"/>
      <stop offset="0.492" stop-color="#fbe98c"/>
      <stop offset="0.502" stop-color="#fff790"/>
      <stop offset="0.631" stop-color="#fdf18e"/>
      <stop offset="0.791" stop-color="#f9e28b"/>
      <stop offset="0.967" stop-color="#f3c985"/>
      <stop offset="1" stop-color="#f2c484"/>
    </linearGradient>
    <linearGradient id="linear-gradient-4" x1="0.139" y1="1.174" x2="0.861" y2="0.271" xlink:href="#linear-gradient-2"/>
    <linearGradient id="linear-gradient-5" y1="0.5" x2="1" y2="0.5" gradientUnits="objectBoundingBox">
      <stop offset="0" stop-color="#00878d"/>
      <stop offset="0.113" stop-color="#03898d"/>
      <stop offset="0.217" stop-color="#0e8f8f"/>
      <stop offset="0.318" stop-color="#219a92"/>
      <stop offset="0.416" stop-color="#3ba996"/>
      <stop offset="0.448" stop-color="#46b098"/>
      <stop offset="0.505" stop-color="#cee8d7"/>
      <stop offset="0.597" stop-color="#46b096"/>
      <stop offset="0.754" stop-color="#1e8392"/>
      <stop offset="0.838" stop-color="#1d7f8f"/>
      <stop offset="0.914" stop-color="#1c7488"/>
      <stop offset="0.989" stop-color="#1a617c"/>
      <stop offset="1" stop-color="#1a5e7a"/>
    </linearGradient>
    <linearGradient id="linear-gradient-6" x1="0" y1="0.5" x2="1" y2="0.5" xlink:href="#linear-gradient-3"/>
    <radialGradient id="radial-gradient-3" cx="0.5" cy="0.5" r="0.457" gradientTransform="translate(-0.154 -0.013) scale(1.307 0.96)" xlink:href="#radial-gradient"/>
    <radialGradient id="radial-gradient-4" cx="0.5" cy="0.5" r="0.433" gradientTransform="translate(-0.19 -0.009) scale(1.379 1.013)" gradientUnits="objectBoundingBox">
      <stop offset="0" stop-color="#def5b9"/>
      <stop offset="0.018" stop-color="#9bd5c2"/>
      <stop offset="0.195" stop-color="#64c7a9"/>
      <stop offset="0.36" stop-color="#38bba3"/>
      <stop offset="0.507" stop-color="#19b39a"/>
      <stop offset="0.632" stop-color="#06ae94"/>
      <stop offset="0.718" stop-color="#00ad92"/>
      <stop offset="0.814" stop-color="#02a088"/>
      <stop offset="0.902" stop-color="#00937f"/>
      <stop offset="1" stop-color="#007e79"/>
    </radialGradient>
    <linearGradient id="linear-gradient-7" y1="0.5" x2="1" y2="0.5" gradientUnits="objectBoundingBox">
      <stop offset="0" stop-color="#ffe08a"/>
      <stop offset="0.157" stop-color="#f7cf86"/>
      <stop offset="0.246" stop-color="#f2c484"/>
      <stop offset="0.378" stop-color="#f2c584"/>
      <stop offset="0.425" stop-color="#f4cc86"/>
      <stop offset="0.459" stop-color="#f7d888"/>
      <stop offset="0.486" stop-color="#fbe98c"/>
      <stop offset="0.502" stop-color="#fff790"/>
      <stop offset="0.536" stop-color="#fdde7e"/>
      <stop offset="0.576" stop-color="#fbc86e"/>
      <stop offset="0.625" stop-color="#fab762"/>
      <stop offset="0.684" stop-color="#f9ab5a"/>
      <stop offset="0.768" stop-color="#f9a455"/>
      <stop offset="1" stop-color="#f9a354"/>
    </linearGradient>
    <linearGradient id="linear-gradient-8" x1="0.057" y1="0.067" x2="0.943" y2="0.709" gradientUnits="objectBoundingBox">
      <stop offset="0" stop-color="#ffe08a"/>
      <stop offset="0.224" stop-color="#f7cf86"/>
      <stop offset="0.351" stop-color="#f2c484"/>
      <stop offset="0.429" stop-color="#f2c584"/>
      <stop offset="0.457" stop-color="#f4cc86"/>
      <stop offset="0.476" stop-color="#f7d888"/>
      <stop offset="0.492" stop-color="#fbe98c"/>
      <stop offset="0.502" stop-color="#fff790"/>
      <stop offset="0.512" stop-color="#fbe98c"/>
      <stop offset="0.53" stop-color="#f7d888"/>
      <stop offset="0.552" stop-color="#f4cc86"/>
      <stop offset="0.583" stop-color="#f2c584"/>
      <stop offset="0.669" stop-color="#f2c484"/>
      <stop offset="0.831" stop-color="#f1c282"/>
      <stop offset="0.89" stop-color="#eebd7b"/>
      <stop offset="0.931" stop-color="#eab46f"/>
      <stop offset="0.965" stop-color="#e4a75e"/>
      <stop offset="0.994" stop-color="#dc9748"/>
      <stop offset="1" stop-color="#da9343"/>
    </linearGradient>
    <linearGradient id="linear-gradient-9" x1="0.5" x2="0.5" y2="1" gradientUnits="objectBoundingBox">
      <stop offset="0" stop-color="#fbb94d"/>
      <stop offset="1" stop-color="#f9a353"/>
    </linearGradient>
    <linearGradient id="linear-gradient-12" x1="0.5" x2="0.5" y2="1" gradientUnits="objectBoundingBox">
      <stop offset="0" stop-color="#fbb64c"/>
      <stop offset="1" stop-color="#f9a951"/>
    </linearGradient>
    <linearGradient id="linear-gradient-13" x1="0.5" x2="0.5" y2="1" gradientUnits="objectBoundingBox">
      <stop offset="0" stop-color="#fce2aa"/>
      <stop offset="0.266" stop-color="#fcb94c"/>
      <stop offset="1" stop-color="#f9a354"/>
    </linearGradient>
  </defs>
  <g id="Group_330" data-name="Group 330" transform="translate(17735.566 -1082.37)">
    <g id="Group_157" data-name="Group 157" transform="translate(-17735.566 1082.37)">
      <ellipse id="Ellipse_18" data-name="Ellipse 18" cx="127.098" cy="202.611" rx="127.098" ry="202.611" transform="translate(6.703)" fill="url(#radial-gradient)"/>
      <path id="Path_339" data-name="Path 339" d="M2808.728,708.678c68.747,0,124.743-71.885,127.022-161.7a309.013,309.013,0,0,0-8.285-65.526c-18.283-62.9-64.549-107.56-118.737-107.56s-100.454,44.663-118.736,107.562a309,309,0,0,0-8.287,65.525C2683.986,636.792,2739.982,708.678,2808.728,708.678Z" transform="translate(-2674.928 -351.264)" fill="url(#radial-gradient-2)"/>
      <path id="Path_340" data-name="Path 340" d="M2906.117,446.1c-22.933-52.882-61.239-87.53-104.617-87.53s-81.685,34.647-104.621,87.53Z" transform="translate(-2667.697 -358.567)" fill="url(#linear-gradient)"/>
      <path id="Path_341" data-name="Path 341" d="M2807.852,674.794c-65.589,0-119.435-74.7-125.1-169.949,5.662,103.444,59.508,184.56,125.1,184.56s119.437-81.116,125.1-184.56C2927.289,600.1,2873.443,674.794,2807.852,674.794Z" transform="translate(-2674.427 -288.877)" fill="url(#linear-gradient-2)"/>
      <path id="Path_342" data-name="Path 342" d="M2808.591,677.973c-66.378,0-120.871-74.7-126.6-169.949,5.728,103.442,60.221,184.56,126.6,184.56s120.869-81.118,126.6-184.56C2929.46,603.278,2874.969,677.973,2808.591,677.973Z" transform="translate(-2674.791 -287.363)" fill="url(#linear-gradient-3)"/>
      <path id="Path_538" data-name="Path 538" d="M2808.752,379.118c70.038,0,126.84,81.192,127.094,181.484,0-.242,0-.483,0-.726,0-109.248-56.9-197.813-127.1-197.813s-127.1,88.564-127.1,197.813c0,.243,0,.484,0,.726C2681.907,460.31,2738.713,379.118,2808.752,379.118Z" transform="translate(-2674.952 -352.086)" fill="#05595a"/>
      <path id="Path_343" data-name="Path 343" d="M2808.752,379.532c70.038,0,126.84,83.161,127.094,185.886,0-.248,0-.495,0-.744,0-111.9-56.9-202.611-127.1-202.611s-127.1,90.713-127.1,202.611c0,.25,0,.5,0,.744C2681.907,462.693,2738.713,379.532,2808.752,379.532Z" transform="translate(-2674.952 -356.901)" fill="url(#linear-gradient-4)"/>
      <path id="Path_344" data-name="Path 344" d="M2808.752,376.036c70.038,0,126.84,83.161,127.094,185.886,0-.248,0-.5,0-.744,0-111.9-56.9-202.611-127.1-202.611s-127.1,90.711-127.1,202.611q0,.372,0,.744C2681.907,459.2,2738.713,376.036,2808.752,376.036Z" transform="translate(-2674.952 -358.567)" fill="url(#linear-gradient-5)"/>
      <path id="Path_345" data-name="Path 345" d="M2808.752,358.567c-70.2,0-127.1,90.711-127.1,202.611s56.9,202.61,127.1,202.61,127.1-90.711,127.1-202.61S2878.945,358.567,2808.752,358.567Zm0,400.06c-68.259,0-123.594-88.212-123.594-197.025s55.335-197.027,123.594-197.027,123.593,88.212,123.593,197.027S2877.01,758.627,2808.752,758.627Z" transform="translate(-2674.952 -358.567)" fill="url(#linear-gradient-6)"/>
      <path id="Path_346" data-name="Path 346" d="M2938.426,451.4c-14.377-35.344-122.635-34.985-127.463-34.953-4.829-.033-113.087-.391-127.465,34.953-.788,1.938-27.5,55.58,34.575,192.38,0,0,46.548,114.879,92.719,122.545v.057c.058-.009.114-.019.171-.03.055.01.112.021.168.03v-.057c46.173-7.666,92.722-122.545,92.722-122.545C2965.929,506.982,2939.216,453.341,2938.426,451.4Z" transform="translate(-2677.115 -330.992)" fill="url(#radial-gradient-3)"/>
      <path id="Path_347" data-name="Path 347" d="M2938.426,432.737c-14.377-37.293-122.635-36.915-127.463-36.879-4.829-.035-113.087-.413-127.465,36.879-.788,2.045-27.5,58.645,34.575,202.991,0,0,46.548,121.214,92.719,129.3v.062c.058-.01.114-.022.171-.031.055.009.112.021.168.031v-.062c46.173-8.088,92.722-129.3,92.722-129.3C2965.929,491.382,2939.216,434.782,2938.426,432.737Z" transform="translate(-2677.115 -340.803)" fill="url(#radial-gradient-4)"/>
      <path id="Path_537" data-name="Path 537" d="M2931.882,431.438c-14.018-35.98-119.566-35.616-124.272-35.581-4.707-.034-110.254-.4-124.272,35.581-.769,1.973-26.813,56.581,33.708,195.846,0,0,45.383,116.948,90.4,124.751v.06c.057-.01.111-.021.166-.03.054.009.109.02.164.03v-.06c45.018-7.8,90.4-124.751,90.4-124.751C2958.7,488.019,2932.652,433.411,2931.882,431.438ZM2884.17,621.707s-38.365,104.711-76.42,111.7v.053c-.048-.007-.094-.018-.14-.026s-.093.019-.139.026V733.4c-38.055-6.987-76.422-111.7-76.422-111.7-51.163-124.7-29.145-173.588-28.5-175.356,11.851-32.215,101.077-31.889,105.057-31.858,3.979-.031,93.206-.357,105.055,31.858C2913.315,448.119,2935.332,497.012,2884.17,621.707Z" transform="translate(-2673.364 -327.806)" fill="#016c6c"/>
      <path id="Path_348" data-name="Path 348" d="M2938.426,432.737c-14.377-37.293-122.635-36.915-127.463-36.879-4.829-.035-113.087-.413-127.465,36.879-.788,2.045-27.5,58.645,34.575,202.991,0,0,46.548,121.214,92.719,129.3v.062c.058-.01.114-.022.171-.031.055.009.112.021.168.031v-.062c46.173-8.088,92.722-129.3,92.722-129.3C2965.929,491.382,2939.216,434.782,2938.426,432.737Zm-48.937,197.21s-39.351,108.531-78.383,115.773v.055c-.049-.007-.1-.019-.143-.026s-.1.019-.143.026v-.055c-39.033-7.242-78.385-115.773-78.385-115.773-52.476-129.244-29.893-179.921-29.228-181.753,12.156-33.391,103.673-33.053,107.756-33.02,4.08-.032,95.6-.371,107.753,33.02C2919.383,450.025,2941.966,500.7,2889.489,629.947Z" transform="translate(-2677.115 -340.803)" fill="url(#linear-gradient-7)"/>
      <path id="Path_349" data-name="Path 349" d="M2938.426,432.737c-14.377-37.293-122.635-36.915-127.463-36.879-4.829-.035-113.087-.413-127.465,36.879-.788,2.045-27.5,58.645,34.575,202.991,0,0,46.548,121.214,92.719,129.3v.062c.058-.01.114-.022.171-.031.055.009.112.021.168.031v-.062c46.173-8.088,92.722-129.3,92.722-129.3C2965.929,491.382,2939.216,434.782,2938.426,432.737Zm-36.983,201.645s-45.342,118.264-90.316,126.154v.06l-.163-.03c-.056.009-.112.021-.166.03v-.06c-44.974-7.89-90.314-126.154-90.314-126.154-60.465-140.831-34.444-196.052-33.677-198.048,14.005-36.385,119.453-36.016,124.157-35.982,4.7-.034,110.15-.4,124.156,35.982C2935.887,438.329,2961.906,493.55,2901.442,634.381Z" transform="translate(-2677.115 -340.803)" fill="url(#linear-gradient-8)"/>
      <g id="Group_141" data-name="Group 141" transform="translate(36.874 146.519)" opacity="0.2">
        <path id="Path_350" data-name="Path 350" d="M2739.17,462.554c.014-1.45-.754-3.326.159-4.242s2.787-.291,4.234-.27c1.555.021,3.624-.722,4.521.326.765.9.279,2.9.256,4.416-.022,1.451.625,3.328-.269,4.24s-2.784.291-4.231.272c-1.555-.022-3.634.722-4.518-.329C2738.578,466.08,2739.17,464.069,2739.17,462.554Z" transform="translate(-2684.562 -457.806)" fill="#fff"/>
        <path id="Path_351" data-name="Path 351" d="M2753.706,462.843c.172-1.717-.569-3.586.317-4.515s2.779-.3,4.222-.288c1.558.012,3.569-.7,4.553.307.9.917.248,2.9.248,4.412,0,1.453.619,3.325-.25,4.249-.885.941-2.777.3-4.224.288-1.556-.012-3.619.709-4.529-.313C2753.262,466.106,2753.761,464.092,2753.706,462.843Z" transform="translate(-2677.56 -457.805)" fill="#fff"/>
        <path id="Path_352" data-name="Path 352" d="M2724.465,469.906c.012-1.45-.753-3.326.159-4.242s2.787-.291,4.234-.27c1.554.022,3.625-.722,4.52.326.766.9.28,2.9.257,4.416-.021,1.451.626,3.328-.269,4.24s-2.785.291-4.232.272c-1.553-.022-3.635.722-4.516-.328C2723.873,473.432,2724.465,471.421,2724.465,469.906Z" transform="translate(-2691.568 -454.303)" fill="#fff"/>
        <path id="Path_353" data-name="Path 353" d="M2736.293,474.485c-1.458,0-3.4.57-4.246-.149-1-.852-.258-2.854-.332-4.355-.059-1.181.016-2.37-.022-3.554-.023-.734.111-1.153,1-1.135q3.639.069,7.28,0c.829-.013,1.062.3,1.051,1.088-.039,2.369-.05,4.741,0,7.109.022.914-.313,1.178-1.177,1.136-1.183-.058-2.37-.013-3.554-.013Z" transform="translate(-2688.071 -454.241)" fill="#fff"/>
        <path id="Path_354" data-name="Path 354" d="M2765.945,474.725c-1.717-.171-3.586.568-4.514-.318s-.3-2.779-.286-4.224c.011-1.556-.7-3.567.307-4.549.915-.9,2.9-.25,4.41-.25,1.454,0,3.327-.619,4.251.251.941.884.3,2.777.286,4.221-.01,1.558.709,3.622-.312,4.531C2769.208,475.168,2767.2,474.67,2765.945,474.725Z" transform="translate(-2674.066 -454.303)" fill="#fff"/>
        <path id="Path_355" data-name="Path 355" d="M2773.249,465.469c1.449.025,3.327-.75,4.239.173s.288,2.789.263,4.237c-.025,1.553.726,3.624-.333,4.516-.9.763-2.9.276-4.418.249-1.451-.025-3.331.629-4.238-.275s-.289-2.788-.266-4.234c.027-1.555-.726-3.634.334-4.514C2769.728,464.877,2771.734,465.469,2773.249,465.469Z" transform="translate(-2670.564 -454.289)" fill="#fff"/>
        <path id="Path_356" data-name="Path 356" d="M2721.436,481.966c-.958,0-1.926-.074-2.875.018-1.2.117-1.72-.183-1.643-1.537.123-2.138.075-4.287.014-6.43-.027-.976.167-1.423,1.281-1.381,2.256.086,4.517.059,6.771.009.9-.021,1.323.17,1.292,1.2q-.105,3.466,0,6.939c.03,1.016-.371,1.249-1.285,1.2C2723.808,481.919,2722.621,481.966,2721.436,481.966Z" transform="translate(-2695.029 -450.742)" fill="#fff"/>
        <path id="Path_357" data-name="Path 357" d="M2728.921,482.049c-1.453-.142-3.323.595-4.252-.286s-.3-2.779-.288-4.223c.011-1.559-.7-3.567.3-4.552.918-.9,2.9-.25,4.411-.251,1.455,0,3.326-.619,4.252.25.943.883.3,2.776.289,4.22-.01,1.558.7,3.563-.3,4.553C2732.413,482.67,2730.432,481.917,2728.921,482.049Z" transform="translate(-2691.58 -450.8)" fill="#fff"/>
        <path id="Path_358" data-name="Path 358" d="M2765.656,481.9c-1.45-.015-3.325.752-4.243-.161s-.289-2.787-.268-4.234c.023-1.555-.721-3.625.328-4.519.9-.765,2.9-.28,4.416-.255,1.452.022,3.33-.628,4.24.268s.292,2.785.27,4.232c-.021,1.555.723,3.635-.328,4.516C2769.182,482.492,2767.171,481.9,2765.656,481.9Z" transform="translate(-2674.066 -450.795)" fill="#fff"/>
        <path id="Path_359" data-name="Path 359" d="M2777.588,477.373c0,1.457.57,3.4-.149,4.245-.852,1-2.854.258-4.355.332-1.183.058-2.372-.016-3.555.021-.736.024-1.151-.115-1.134-1,.047-2.426.028-4.853.007-7.279,0-.66.115-1.057.914-1.045q3.722.051,7.449,0c.755-.01.978.3.958,1-.036,1.24-.008,2.483-.008,3.724Z" transform="translate(-2670.501 -450.737)" fill="#fff"/>
        <path id="Path_360" data-name="Path 360" d="M2714.23,489.185c-1.456,0-3.4.57-4.243-.149-1-.852-.257-2.854-.331-4.355-.057-1.183.018-2.37-.021-3.554-.025-.74.125-1.147,1-1.131,2.425.046,4.853.028,7.278.007.664-.006,1.052.121,1.042.917q-.049,3.725,0,7.448c.01.76-.3.974-1.005.955-1.24-.035-2.481-.01-3.723-.01Z" transform="translate(-2698.579 -447.235)" fill="#fff"/>
        <path id="Path_361" data-name="Path 361" d="M2726.121,484.724c0,1.457.57,3.4-.149,4.245-.853,1.005-2.854.258-4.355.332-1.182.058-2.37-.016-3.555.022-.734.022-1.151-.117-1.133-1,.045-2.426.027-4.853.007-7.279-.007-.66.114-1.057.912-1.045q3.725.051,7.45,0c.756-.01.979.294.958,1-.036,1.24-.01,2.483-.01,3.724Z" transform="translate(-2695.021 -447.234)" fill="#fff"/>
        <path id="Path_362" data-name="Path 362" d="M2773.07,489.2c-1.459,0-3.393.57-4.254-.148-1.019-.849-.265-2.852-.339-4.351-.062-1.239.018-2.483-.024-3.724-.023-.738.259-.986.985-.977,2.484.029,4.966.025,7.449,0,.654-.006.894.25.888.9-.02,2.482-.028,4.965.005,7.449.008.735-.259,1-.987.976-1.24-.04-2.482-.012-3.724-.012Z" transform="translate(-2670.556 -447.234)" fill="#fff"/>
        <path id="Path_363" data-name="Path 363" d="M2780.125,489.322c-1.191-.114-3.1.629-3.985-.258-.965-.962-.239-2.888-.316-4.391-.05-1.013.065-2.038-.027-3.044-.112-1.2.184-1.721,1.539-1.643,2.135.124,4.287.074,6.43.013.975-.027,1.423.168,1.38,1.283-.085,2.254-.085,4.516,0,6.771.043,1.106-.388,1.349-1.375,1.286C2782.648,489.268,2781.515,489.322,2780.125,489.322Z" transform="translate(-2667.052 -447.243)" fill="#fff"/>
        <path id="Path_364" data-name="Path 364" d="M2706.843,496.6c-1.451-.006-3.322.753-4.242-.152s-.293-2.784-.275-4.231c.02-1.555-.719-3.625.323-4.522.89-.766,2.9-.282,4.413-.26,1.452.021,3.327-.623,4.243.264s.292,2.783.274,4.228c-.019,1.556.719,3.635-.323,4.518C2710.37,497.191,2708.359,496.6,2706.843,496.6Z" transform="translate(-2702.09 -443.789)" fill="#fff"/>
        <path id="Path_365" data-name="Path 365" d="M2714.226,496.729c-1.455-.065-3.39.416-4.244-.334-.994-.876-.252-2.863-.327-4.365-.055-1.125.033-2.259-.023-3.384-.048-.89.143-1.335,1.181-1.3,2.31.07,4.626.044,6.94.009.808-.013,1.24.131,1.215,1.094q-.089,3.552,0,7.109c.022.926-.334,1.166-1.186,1.127-1.183-.055-2.369-.013-3.552-.013Z" transform="translate(-2698.578 -443.735)" fill="#fff"/>
        <path id="Path_366" data-name="Path 366" d="M2784.944,492.076c0,1.457.572,3.4-.148,4.248-.851,1.005-2.855.258-4.355.332-1.183.059-2.373-.04-3.553.028-.917.051-1.158-.313-1.14-1.174.049-2.313.062-4.629,0-6.941-.028-.989.326-1.248,1.265-1.224q3.467.084,6.939,0c.915-.022,1.178.313,1.136,1.175-.059,1.183-.015,2.369-.015,3.555Z" transform="translate(-2667.001 -443.734)" fill="#fff"/>
        <path id="Path_367" data-name="Path 367" d="M2792.535,491.9c-.171,1.716.569,3.587-.317,4.515s-2.779.3-4.225.285c-1.558-.01-3.568.7-4.55-.306-.9-.917-.25-2.9-.247-4.412,0-1.454-.622-3.325.249-4.25s2.776-.3,4.221-.287c1.559.012,3.62-.709,4.53.313C2792.978,488.642,2792.479,490.655,2792.535,491.9Z" transform="translate(-2663.559 -443.796)" fill="#fff"/>
        <path id="Path_368" data-name="Path 368" d="M2790.636,491.962c.014-1.45-.752-3.325.16-4.242s2.788-.291,4.235-.27c1.556.022,3.626-.72,4.521.328.764.9.279,2.9.255,4.416-.022,1.451.627,3.328-.268,4.239s-2.784.292-4.23.272c-1.556-.021-3.635.722-4.519-.328C2790.045,495.487,2790.636,493.476,2790.636,491.962Z" transform="translate(-2660.042 -443.795)" fill="#fff"/>
        <path id="Path_369" data-name="Path 369" d="M2797.982,491.953c.025-1.448-.75-3.328.173-4.239s2.79-.288,4.236-.264c1.556.027,3.625-.725,4.518.332.764.905.276,2.906.249,4.42-.026,1.451.63,3.331-.275,4.237s-2.786.289-4.233.264c-1.555-.025-3.635.726-4.515-.334C2797.391,495.474,2797.982,493.468,2797.982,491.953Z" transform="translate(-2656.539 -443.795)" fill="#fff"/>
        <path id="Path_370" data-name="Path 370" d="M2805.345,491.969c.007-1.451-.753-3.325.154-4.245s2.784-.292,4.229-.274c1.558.019,3.626-.718,4.523.323.767.89.282,2.9.26,4.413-.021,1.453.624,3.328-.265,4.243s-2.781.292-4.228.275c-1.555-.019-3.634.719-4.52-.325C2804.753,495.5,2805.345,493.483,2805.345,491.969Z" transform="translate(-2653.035 -443.795)" fill="#fff"/>
        <path id="Path_371" data-name="Path 371" d="M2817.234,496.76c-1.5-.186-3.431.626-4.387-.354-.871-.892-.246-2.795-.244-4.249,0-1.51-.639-3.459.256-4.413.91-.972,2.88-.3,4.382-.3s3.434-.666,4.387.3c.875.883.249,2.792.246,4.246,0,1.51.637,3.455-.254,4.416C2820.7,497.395,2818.734,496.577,2817.234,496.76Z" transform="translate(-2649.545 -443.794)" fill="#fff"/>
        <path id="Path_372" data-name="Path 372" d="M2819.9,492.059c.192-1.5-.641-3.492.37-4.363.857-.738,2.79-.28,4.245-.26,1.51.021,3.461-.641,4.409.266s.294,2.885.289,4.388.681,3.493-.314,4.361c-.851.74-2.789.282-4.244.261-1.51-.022-3.457.639-4.411-.266C2819.266,495.525,2820.077,493.56,2819.9,492.059Z" transform="translate(-2646.034 -443.792)" fill="#fff"/>
        <path id="Path_373" data-name="Path 373" d="M2836.462,492.181c0,1.451.757,3.323-.143,4.246s-2.783.293-4.23.277c-1.555-.016-3.624.716-4.521-.32-.769-.886-.286-2.9-.267-4.41.018-1.453-.622-3.326.26-4.245s2.782-.294,4.227-.279c1.556.016,3.637-.716,4.521.322C2837.056,488.649,2836.462,490.667,2836.462,492.181Z" transform="translate(-2642.535 -443.796)" fill="#fff"/>
        <path id="Path_374" data-name="Path 374" d="M2836.538,499.713c-.112,1.191.629,3.1-.256,3.986-.962.966-2.888.239-4.391.313-1.069.053-2.147-.047-3.214.027-1.043.074-1.523-.173-1.469-1.363.1-2.2.068-4.4.007-6.6-.026-.973.164-1.425,1.282-1.382,2.254.086,4.516.086,6.769,0,1.1-.041,1.354.382,1.291,1.373C2836.484,497.19,2836.538,498.322,2836.538,499.713Z" transform="translate(-2642.483 -440.234)" fill="#fff"/>
        <path id="Path_375" data-name="Path 375" d="M2836.538,513.956c-.11,1.192.629,3.1-.256,3.986-.96.967-2.887.241-4.39.315-1.069.053-2.148-.047-3.214.027-1.042.072-1.524-.17-1.47-1.361.1-2.2.065-4.4.009-6.6-.028-.971.159-1.428,1.279-1.383,2.254.087,4.516.086,6.77,0,1.1-.041,1.354.379,1.291,1.372C2836.483,511.433,2836.538,512.565,2836.538,513.956Z" transform="translate(-2642.483 -433.447)" fill="#fff"/>
        <path id="Path_376" data-name="Path 376" d="M2794.829,525.164c-1.191-.114-3.1.628-3.985-.26-.964-.961-.237-2.888-.315-4.389-.049-1.015.066-2.039-.027-3.046-.112-1.2.184-1.72,1.538-1.642,2.135.122,4.287.074,6.429.013.977-.026,1.424.167,1.38,1.283-.085,2.255-.085,4.517,0,6.769.044,1.107-.387,1.349-1.374,1.287C2797.352,525.108,2796.219,525.164,2794.829,525.164Z" transform="translate(-2660.046 -430.167)" fill="#fff"/>
        <path id="Path_377" data-name="Path 377" d="M2807.056,520.675c0,1.451.753,3.325-.152,4.245s-2.783.292-4.231.275c-1.555-.019-3.625.718-4.521-.323-.768-.891-.282-2.9-.261-4.413.02-1.453-.625-3.328.263-4.243s2.784-.293,4.229-.275c1.555.019,3.636-.719,4.52.325C2807.649,517.146,2807.056,519.162,2807.056,520.675Z" transform="translate(-2656.547 -430.222)" fill="#fff"/>
        <path id="Path_378" data-name="Path 378" d="M2809.8,525.243c-1.452-.14-3.321.6-4.253-.286s-.3-2.777-.289-4.221c.01-1.559-.7-3.567.3-4.552.915-.9,2.9-.251,4.41-.252,1.455,0,3.325-.617,4.253.248.944.881.3,2.776.289,4.219-.008,1.558.7,3.563-.3,4.553C2813.293,525.864,2811.309,525.11,2809.8,525.243Z" transform="translate(-2653.048 -430.222)" fill="#fff"/>
        <path id="Path_379" data-name="Path 379" d="M2817.142,525.083c-1.451.006-3.324.756-4.248-.14s-.3-2.782-.28-4.227c.014-1.556-.715-3.626.319-4.525.883-.768,2.9-.287,4.409-.267,1.453.019,3.325-.62,4.246.26s.295,2.779.279,4.224c-.014,1.558.717,3.636-.319,4.521C2820.675,525.676,2818.655,525.083,2817.142,525.083Z" transform="translate(-2649.548 -430.217)" fill="#fff"/>
        <path id="Path_380" data-name="Path 380" d="M2820.046,520.452c.012-1.45-.753-3.326.16-4.242s2.787-.291,4.234-.27c1.555.022,3.626-.722,4.52.326.766.9.28,2.9.256,4.416-.023,1.452.626,3.328-.267,4.24s-2.784.291-4.231.272c-1.556-.022-3.635.722-4.519-.328C2819.454,523.978,2820.046,521.965,2820.046,520.452Z" transform="translate(-2646.03 -430.222)" fill="#fff"/>
        <path id="Path_381" data-name="Path 381" d="M2709.592,527.705c0-1.073.045-2.147-.014-3.216-.049-.892.145-1.335,1.18-1.3,2.313.068,4.628.044,6.943.007.808-.012,1.24.133,1.214,1.1-.059,2.368-.038,4.739-.007,7.109.008.743-.132,1.144-1.009,1.128q-3.639-.069-7.278,0c-.84.015-1.07-.316-1.043-1.1C2709.626,530.188,2709.592,528.947,2709.592,527.705Z" transform="translate(-2698.526 -426.659)" fill="#fff"/>
        <path id="Path_382" data-name="Path 382" d="M2721.444,532.51c-1.073,0-2.148-.046-3.216.014-.891.049-1.336-.145-1.3-1.181.069-2.31.045-4.625.01-6.939-.013-.811.133-1.241,1.094-1.217,2.369.061,4.74.039,7.109.009.742-.01,1.145.131,1.128,1.007q-.067,3.639,0,7.279c.015.84-.317,1.07-1.1,1.041C2723.927,532.474,2722.686,532.508,2721.444,532.51Z" transform="translate(-2695.023 -426.658)" fill="#fff"/>
        <path id="Path_383" data-name="Path 383" d="M2809.989,523.223c1.468.176,3.346-.6,4.256.322s.248,2.787.273,4.239c.027,1.515.515,3.515-.249,4.42-.892,1.057-2.963.306-4.518.332-1.446.024-3.329.641-4.233-.266s-.25-2.786-.275-4.236c-.027-1.515-.514-3.515.249-4.42C2806.386,522.553,2808.458,523.432,2809.989,523.223Z" transform="translate(-2653.044 -426.71)" fill="#fff"/>
        <path id="Path_384" data-name="Path 384" d="M2721.559,539.786c-1.453.007-3.326.756-4.25-.139s-.294-2.783-.279-4.228c.015-1.556-.715-3.625.318-4.524.882-.769,2.9-.286,4.409-.267,1.452.018,3.326-.62,4.246.259s.293,2.78.281,4.225c-.015,1.556.714,3.635-.319,4.521C2725.092,540.38,2723.072,539.786,2721.559,539.786Z" transform="translate(-2695.084 -423.211)" fill="#fff"/>
        <path id="Path_385" data-name="Path 385" d="M2724.447,535.2c0-1.457-.571-3.4.148-4.243.854-1,2.857-.258,4.356-.331,1.182-.057,2.371.018,3.555-.022.739-.024,1.146.124,1.13,1.005-.047,2.424-.029,4.852-.009,7.279.007.663-.121,1.053-.917,1.041q-3.721-.051-7.448,0c-.76.01-.975-.3-.956-1.006.037-1.242.012-2.483.012-3.725Z" transform="translate(-2691.54 -423.209)" fill="#fff"/>
        <path id="Path_386" data-name="Path 386" d="M2809.8,539.925c-1.455-.067-3.392.411-4.239-.34-.989-.877-.253-2.863-.325-4.366-.054-1.125.034-2.259-.024-3.384-.048-.9.152-1.33,1.187-1.3,2.313.071,4.626.047,6.941.009.816-.013,1.233.145,1.21,1.1q-.092,3.552,0,7.109c.023.932-.347,1.159-1.19,1.121-1.183-.053-2.37-.013-3.555-.013Z" transform="translate(-2653.042 -423.157)" fill="#fff"/>
        <path id="Path_387" data-name="Path 387" d="M2724.457,542.5c.026-1.448-.75-3.328.172-4.239s2.792-.288,4.238-.264c1.554.027,3.625-.725,4.518.332.764.905.277,2.906.25,4.42-.027,1.451.629,3.331-.275,4.237s-2.788.289-4.234.264c-1.554-.026-3.635.726-4.516-.334C2723.866,546.02,2724.457,544.013,2724.457,542.5Z" transform="translate(-2691.567 -419.714)" fill="#fff"/>
        <path id="Path_388" data-name="Path 388" d="M2736.009,547.222c-1.191-.115-3.1.629-3.985-.26-.962-.962-.234-2.888-.314-4.391-.05-.957.075-1.928-.029-2.876-.149-1.352.223-1.91,1.711-1.811,2.079.138,4.175.077,6.261.016.979-.03,1.421.171,1.378,1.284-.085,2.253-.085,4.515,0,6.769.043,1.11-.393,1.346-1.376,1.285C2738.531,547.167,2737.4,547.222,2736.009,547.222Z" transform="translate(-2688.069 -419.661)" fill="#fff"/>
        <path id="Path_389" data-name="Path 389" d="M2748.495,542.875c-.167,1.279.7,3.344-.348,4.242-.89.765-2.892.27-4.4.27s-3.51.494-4.4-.27c-1.041-.9-.3-2.959-.325-4.511-.023-1.5-.651-3.449.26-4.4s2.878-.239,4.38-.3c1.236-.052,2.479.04,3.715-.026.915-.049,1.174.317,1.133,1.175C2748.452,540.238,2748.495,541.422,2748.495,542.875Z" transform="translate(-2684.606 -419.739)" fill="#fff"/>
        <path id="Path_390" data-name="Path 390" d="M2802.482,547.1c-1.46,0-3.394.57-4.254-.147-1.022-.849-.267-2.853-.34-4.351-.063-1.239.017-2.483-.024-3.723-.023-.738.259-.986.985-.977,2.483.031,4.966.025,7.448,0,.655-.006.893.249.889.9-.021,2.482-.029,4.965,0,7.449.009.735-.258,1-.986.976-1.241-.04-2.483-.012-3.723-.012Z" transform="translate(-2656.545 -419.65)" fill="#fff"/>
        <path id="Path_391" data-name="Path 391" d="M2748.242,550.55c-.014,1.45.753,3.325-.16,4.242s-2.788.291-4.234.27c-1.554-.022-3.624.721-4.521-.328-.765-.9-.278-2.9-.256-4.416.023-1.451-.625-3.328.267-4.239s2.787-.292,4.232-.272c1.556.02,3.635-.722,4.519.328C2748.834,547.025,2748.242,549.036,2748.242,550.55Z" transform="translate(-2684.57 -415.993)" fill="#fff"/>
        <path id="Path_392" data-name="Path 392" d="M2794.833,555.03c-1.192-.112-3.1.627-3.988-.258-.965-.96-.239-2.886-.314-4.389-.052-1.069.048-2.148-.027-3.214-.072-1.044.174-1.522,1.363-1.471,2.2.1,4.4.069,6.6.009.974-.026,1.425.164,1.383,1.282-.087,2.253-.087,4.514,0,6.769.04,1.1-.384,1.352-1.373,1.289C2797.354,554.974,2796.222,555.03,2794.833,555.03Z" transform="translate(-2660.047 -415.935)" fill="#fff"/>
        <path id="Path_393" data-name="Path 393" d="M2743.6,562.312c-1.448-.013-3.325.753-4.242-.159s-.29-2.786-.27-4.233c.023-1.556-.72-3.626.328-4.521.9-.765,2.9-.279,4.416-.255,1.452.022,3.329-.626,4.239.267s.293,2.784.274,4.232c-.024,1.556.72,3.635-.331,4.516C2747.126,562.9,2745.114,562.312,2743.6,562.312Z" transform="translate(-2684.576 -412.484)" fill="#fff"/>
        <path id="Path_394" data-name="Path 394" d="M2790.487,557.782c.187-1.5-.625-3.433.355-4.39.892-.871,2.794-.245,4.248-.242,1.51,0,3.46-.641,4.414.254.97.911.3,2.882.295,4.383s.668,3.434-.3,4.388c-.883.873-2.792.247-4.246.244-1.51,0-3.455.639-4.416-.254C2789.851,561.252,2790.67,559.282,2790.487,557.782Z" transform="translate(-2660.045 -412.488)" fill="#fff"/>
        <path id="Path_395" data-name="Path 395" d="M2748.309,565.256c-.106,1.245.645,3.226-.263,4.147-.989,1-2.994.237-4.554.319-1.011.053-2.032-.047-3.045.026-1.042.075-1.52-.173-1.468-1.363.094-2.2.067-4.4.009-6.6-.026-.972.16-1.427,1.28-1.382,2.254.087,4.516.086,6.77,0,1.1-.041,1.356.381,1.289,1.371C2748.252,562.842,2748.309,563.918,2748.309,565.256Z" transform="translate(-2684.518 -408.929)" fill="#fff"/>
        <path id="Path_396" data-name="Path 396" d="M2750.712,569.738c-1.191-.115-3.1.629-3.984-.26-.961-.963-.234-2.888-.313-4.391-.05-.957.075-1.928-.03-2.876-.149-1.353.223-1.911,1.711-1.812,2.079.137,4.175.077,6.261.015.98-.028,1.421.173,1.379,1.286-.086,2.253-.086,4.515,0,6.77.042,1.109-.394,1.347-1.377,1.285C2753.236,569.683,2752.1,569.738,2750.712,569.738Z" transform="translate(-2681.063 -408.934)" fill="#fff"/>
        <path id="Path_397" data-name="Path 397" d="M2787.757,569.6c-1.457,0-3.4.572-4.244-.148-1-.852-.259-2.855-.333-4.355-.057-1.182.016-2.371-.02-3.555-.024-.735.114-1.15,1-1.134,2.426.047,4.853.028,7.28.008.661,0,1.057.115,1.046.914q-.051,3.723,0,7.449c.011.756-.295.979-1,.958-1.24-.035-2.482-.01-3.724-.01Z" transform="translate(-2663.55 -408.924)" fill="#fff"/>
        <path id="Path_398" data-name="Path 398" d="M2751.064,577.174c-1.5-.186-3.431.625-4.391-.353-.872-.892-.246-2.793-.245-4.248,0-1.51-.637-3.459.255-4.414.91-.975,2.881-.3,4.384-.3s3.431-.666,4.387.3c.876.883.248,2.792.246,4.246,0,1.511.637,3.453-.253,4.416C2754.533,577.81,2752.563,576.989,2751.064,577.174Z" transform="translate(-2681.07 -405.483)" fill="#fff"/>
        <path id="Path_399" data-name="Path 399" d="M2775.915,572.417c0-1.457-.572-3.4.148-4.243.852-1,2.855-.258,4.357-.331,1.181-.058,2.37.018,3.554-.021.739-.025,1.148.122,1.131,1-.045,2.426-.028,4.853-.008,7.279.006.663-.121,1.053-.916,1.042q-3.726-.051-7.449,0c-.76.01-.976-.3-.956-1.006.035-1.24.009-2.483.009-3.725Z" transform="translate(-2667.021 -405.477)" fill="#fff"/>
        <path id="Path_400" data-name="Path 400" d="M2750.979,584.52c-1.451-.142-3.324.595-4.251-.288s-.3-2.779-.29-4.223c.011-1.557-.7-3.567.306-4.552.915-.9,2.9-.25,4.41-.25,1.454,0,3.326-.619,4.252.248.942.883.3,2.776.288,4.221-.011,1.558.7,3.563-.3,4.553C2754.47,585.14,2752.489,584.387,2750.979,584.52Z" transform="translate(-2681.072 -401.982)" fill="#fff"/>
        <path id="Path_401" data-name="Path 401" d="M2762.883,579.843c0,1.457.572,3.4-.147,4.246-.852,1.005-2.854.258-4.355.332-1.183.059-2.372-.016-3.556.022-.733.024-1.153-.111-1.135-1,.048-2.426.043-4.853,0-7.279-.015-.828.3-1.063,1.086-1.05,2.37.037,4.741.05,7.11-.006.915-.021,1.179.313,1.136,1.177-.057,1.183-.015,2.369-.015,3.555Z" transform="translate(-2677.506 -401.92)" fill="#fff"/>
        <path id="Path_402" data-name="Path 402" d="M2770.37,580.128c-.113,1.192.63,3.1-.257,3.987-.963.963-2.889.237-4.391.313-1.015.05-2.039-.065-3.046.028-1.2.112-1.719-.184-1.643-1.538.124-2.137.076-4.288.015-6.43-.028-.976.167-1.423,1.283-1.38,2.255.087,4.516.085,6.77,0,1.107-.042,1.35.388,1.286,1.374C2770.315,577.6,2770.37,578.737,2770.37,580.128Z" transform="translate(-2674.012 -401.923)" fill="#fff"/>
        <path id="Path_403" data-name="Path 403" d="M2773.04,584.5c-1.456-.067-3.393.412-4.241-.34-.989-.877-.251-2.863-.322-4.364-.055-1.127.033-2.259-.026-3.386-.046-.9.152-1.33,1.188-1.3,2.31.071,4.626.045,6.939.009.818-.015,1.235.145,1.211,1.1q-.088,3.553,0,7.109c.021.933-.349,1.159-1.193,1.121-1.182-.053-2.369-.013-3.554-.013Z" transform="translate(-2670.557 -401.921)" fill="#fff"/>
        <path id="Path_404" data-name="Path 404" d="M2784.992,579.942c.008,1.453.756,3.325-.139,4.249s-2.783.294-4.228.281c-1.556-.016-3.626.713-4.525-.319-.769-.883-.287-2.9-.267-4.409.017-1.454-.621-3.326.26-4.246s2.779-.3,4.224-.282c1.557.015,3.637-.715,4.522.32C2785.588,576.411,2784.992,578.43,2784.992,579.942Z" transform="translate(-2667.055 -401.982)" fill="#fff"/>
      </g>
      <g id="Group_142" data-name="Group 142" transform="translate(36.794 146.442)" opacity="0.4">
        <path id="Path_405" data-name="Path 405" d="M2755.846,462.92c-.165,1.279.7,3.344-.347,4.242-.889.765-2.891.27-4.4.272s-3.511.494-4.4-.27c-1.042-.895-.3-2.959-.326-4.51-.023-1.5-.652-3.45.262-4.4s2.876-.239,4.378-.3c1.236-.05,2.479.04,3.714-.025.915-.05,1.176.314,1.135,1.174C2755.805,460.283,2755.846,461.467,2755.846,462.92Z" transform="translate(-2681.023 -457.754)" fill="#fff"/>
        <path id="Path_406" data-name="Path 406" d="M2743.736,474.857c-1.508-.066-3.509.431-4.395-.345-1.033-.905-.3-2.963-.32-4.516-.021-1.5-.654-3.45.265-4.392s2.879-.235,4.382-.3c1.181-.049,2.37.062,3.545-.031,1.09-.086,1.329.359,1.3,1.357-.064,2.306-.059,4.617,0,6.924.024.941-.246,1.317-1.227,1.255-1.178-.074-2.364-.018-3.546-.018Z" transform="translate(-2684.527 -454.251)" fill="#fff"/>
        <path id="Path_407" data-name="Path 407" d="M2751.491,465.289c1.229.168,3.217-.676,4.083.35.734.87.271,2.789.252,4.242-.021,1.565.667,3.614-.258,4.566-1.014,1.041-3.091.292-4.7.316-1.444.022-3.315.635-4.229-.261s-.232-2.776-.287-4.223c-.047-1.236.062-2.482-.03-3.713-.083-1.1.37-1.354,1.362-1.293C2748.859,465.345,2750.047,465.289,2751.491,465.289Z" transform="translate(-2681.014 -454.245)" fill="#fff"/>
        <path id="Path_408" data-name="Path 408" d="M2758.155,474.736c-1.23-.108-3.2.644-4.127-.266-1.005-.989-.245-2.987-.318-4.541-.059-1.236.016-2.478-.022-3.715-.022-.723.238-1,.974-.986q3.8.047,7.6,0c.768-.009.949.331.94,1.017-.023,2.478-.031,4.955.007,7.432.011.8-.251,1.1-1.064,1.07C2760.91,474.7,2759.67,474.736,2758.155,474.736Z" transform="translate(-2677.516 -454.194)" fill="#fff"/>
        <path id="Path_409" data-name="Path 409" d="M2741.142,477.615c-.16,1.28.68,3.285-.334,4.267-.924.893-2.9.235-4.4.252s-3.509.5-4.406-.26c-1.053-.893-.3-2.956-.332-4.508-.027-1.5-.647-3.449.256-4.4.914-.967,2.873-.244,4.374-.307,1.237-.053,2.481.038,3.714-.027.9-.047,1.19.291,1.145,1.165C2741.1,474.976,2741.142,476.162,2741.142,477.615Z" transform="translate(-2688.029 -450.749)" fill="#fff"/>
        <path id="Path_410" data-name="Path 410" d="M2739.083,477.234c0-1.454-.569-3.385.147-4.237.849-1.013,2.846-.263,4.343-.337,1.236-.06,2.478.028,3.716-.026.847-.037,1.206.2,1.184,1.125q-.081,3.63,0,7.262c.02.905-.307,1.156-1.171,1.14-2.364-.047-4.73-.052-7.094,0-.922.021-1.329-.214-1.269-1.214.076-1.234.018-2.476.018-3.715Z" transform="translate(-2684.487 -450.748)" fill="#fff"/>
        <path id="Path_411" data-name="Path 411" d="M2763.062,477.344c0,1.509.591,3.518-.153,4.4-.882,1.042-2.956.3-4.508.325-1.5.022-3.45.653-4.4-.261s-.24-2.879-.3-4.381c-.051-1.237.04-2.479-.026-3.715-.049-.917.322-1.149,1.176-1.133,2.365.046,4.73.052,7.1,0,.931-.021,1.324.233,1.26,1.223-.075,1.177-.018,2.363-.018,3.545Z" transform="translate(-2677.514 -450.694)" fill="#fff"/>
        <path id="Path_412" data-name="Path 412" d="M2728.865,489.313c-1.452,0-3.387.57-4.234-.148-1.007-.85-.262-2.847-.334-4.344-.058-1.236.03-2.479-.024-3.715-.038-.856.216-1.2,1.13-1.178q3.63.08,7.263,0c.912-.021,1.149.321,1.131,1.177-.042,2.364-.051,4.731,0,7.093.025.931-.228,1.324-1.218,1.264-1.234-.075-2.478-.019-3.717-.019Z" transform="translate(-2691.524 -447.19)" fill="#fff"/>
        <path id="Path_413" data-name="Path 413" d="M2741.145,485.156c-.171,1.228.679,3.219-.354,4.081-.879.732-2.792.269-4.246.247-1.567-.025-3.616.672-4.565-.263-1.032-1.019-.29-3.095-.312-4.705-.017-1.444-.637-3.319.267-4.226s2.779-.222,4.226-.284c1.013-.043,2.043.108,3.036-.034,1.717-.244,2.162.486,1.967,2.054A27.7,27.7,0,0,0,2741.145,485.156Z" transform="translate(-2688.03 -447.244)" fill="#fff"/>
        <path id="Path_414" data-name="Path 414" d="M2743.338,489.508c-1.229-.171-3.219.679-4.081-.354-.73-.879-.268-2.792-.244-4.246.023-1.564-.673-3.616.262-4.564,1.019-1.032,3.1-.291,4.705-.31,1.444-.019,3.319-.639,4.225.267s.222,2.779.283,4.225c.045,1.011-.105,2.042.036,3.036.243,1.716-.486,2.162-2.054,1.966A27.534,27.534,0,0,0,2743.338,489.508Z" transform="translate(-2684.528 -447.254)" fill="#fff"/>
        <path id="Path_415" data-name="Path 415" d="M2758.2,489.5c-1.28-.167-3.346.7-4.241-.348-.766-.89-.27-2.891-.27-4.4s-.493-3.512.271-4.4c.895-1.039,2.959-.3,4.512-.323,1.5-.022,3.451-.652,4.395.261s.237,2.879.3,4.381c.05,1.237-.041,2.479.027,3.715.048.917-.322,1.171-1.177,1.131C2760.839,489.463,2759.655,489.5,2758.2,489.5Z" transform="translate(-2677.5 -447.253)" fill="#fff"/>
        <path id="Path_416" data-name="Path 416" d="M2765.409,489.506c-1.226-.163-3.215.675-4.082-.343-.736-.864-.277-2.786-.259-4.237.019-1.566-.664-3.613.252-4.571,1.007-1.051,3.088-.3,4.7-.323,1.446-.024,3.316-.63,4.233.257s.238,2.773.292,4.218c.051,1.293-.038,2.592.026,3.883.048.918-.321,1.169-1.177,1.131C2768.155,489.464,2766.914,489.506,2765.409,489.506Z" transform="translate(-2674.019 -447.254)" fill="#fff"/>
        <path id="Path_417" data-name="Path 417" d="M2717.029,491.933c0-1.453-.57-3.387.147-4.236.851-1.007,2.847-.261,4.344-.334,1.236-.061,2.479.029,3.715-.025.854-.038,1.2.211,1.182,1.128q-.082,3.63,0,7.263c.021.911-.315,1.151-1.173,1.135-2.366-.046-4.731-.052-7.095,0-.929.02-1.325-.226-1.266-1.218.077-1.234.021-2.477.021-3.716Z" transform="translate(-2694.994 -443.742)" fill="#fff"/>
        <path id="Path_418" data-name="Path 418" d="M2733.663,492.031c0,1.512.589,3.512-.155,4.406-.877,1.055-2.953.3-4.5.334-1.5.027-3.446.647-4.4-.254-.969-.915-.246-2.874-.309-4.375-.054-1.293.021-2.591-.021-3.884-.023-.741.267-.979.987-.971q3.8.044,7.6,0c.781-.01.944.356.927,1.029-.03,1.239-.009,2.478-.009,3.716Z" transform="translate(-2691.525 -443.685)" fill="#fff"/>
        <path id="Path_419" data-name="Path 419" d="M2740.95,492.215c0,1.454.569,3.387-.147,4.236-.851,1.007-2.847.261-4.344.334-1.237.059-2.48-.031-3.715.025-.856.038-1.2-.216-1.179-1.131q.081-3.63,0-7.263c-.02-.912.319-1.149,1.177-1.132,2.362.044,4.73.05,7.093,0,.93-.022,1.325.228,1.265,1.22-.076,1.234-.019,2.476-.019,3.715Z" transform="translate(-2687.968 -443.688)" fill="#fff"/>
        <path id="Path_420" data-name="Path 420" d="M2760.974,492.1c.067-1.507-.427-3.511.349-4.394.906-1.03,2.962-.3,4.516-.319,1.5-.018,3.451-.656,4.392.267s.233,2.882.3,4.383c.049,1.181-.062,2.37.03,3.545.087,1.094-.367,1.324-1.36,1.3-2.307-.062-4.617-.058-6.926,0-.942.024-1.312-.254-1.25-1.231.072-1.177.016-2.364.016-3.545Z" transform="translate(-2674.001 -443.75)" fill="#fff"/>
        <path id="Path_421" data-name="Path 421" d="M2768.5,491.933c0-1.453-.57-3.387.146-4.236.85-1.007,2.847-.261,4.344-.334,1.235-.061,2.478.029,3.716-.025.854-.038,1.2.211,1.18,1.128q-.081,3.63,0,7.263c.021.911-.317,1.151-1.175,1.135-2.364-.046-4.73-.052-7.094,0-.928.02-1.326-.226-1.265-1.218.077-1.234.019-2.477.019-3.716Z" transform="translate(-2670.474 -443.742)" fill="#fff"/>
        <path id="Path_422" data-name="Path 422" d="M2711.592,499.4c0,1.509.592,3.52-.153,4.4-.881,1.041-2.956.3-4.508.325-1.5.021-3.449.653-4.4-.264s-.236-2.879-.3-4.381c-.051-1.237.04-2.481-.025-3.715-.052-.921.328-1.144,1.178-1.129,2.422.043,4.842.038,7.264,0,.784-.012,1.118.223,1.083,1.048-.053,1.237-.013,2.477-.013,3.716Z" transform="translate(-2702.034 -440.184)" fill="#fff"/>
        <path id="Path_423" data-name="Path 423" d="M2719.023,499.7c-.116,1.237.638,3.179-.276,4.134s-2.877.242-4.377.307c-1.235.053-2.479-.039-3.714.025-.9.047-1.164-.292-1.146-1.163q.073-3.546,0-7.093c-.019-.917.205-1.3,1.208-1.277q3.545.1,7.094,0c.974-.025,1.286.3,1.229,1.252C2718.972,497.062,2719.023,498.248,2719.023,499.7Z" transform="translate(-2698.476 -440.187)" fill="#fff"/>
        <path id="Path_424" data-name="Path 424" d="M2716.929,499.21c.176-1.273-.7-3.34.357-4.231.905-.762,2.9-.275,4.409-.255s3.481-.644,4.4.255c1.006.983.246,2.984.32,4.54.058,1.236-.017,2.477.021,3.715.022.725-.239.994-.974.985q-3.8-.046-7.6,0c-.768.01-.958-.331-.94-1.017C2716.953,501.962,2716.929,500.724,2716.929,499.21Z" transform="translate(-2695.023 -440.245)" fill="#fff"/>
        <path id="Path_425" data-name="Path 425" d="M2733.79,499.681c-.167,1.28.7,3.346-.348,4.243-.892.764-2.892.27-4.4.269s-3.513.495-4.4-.27c-1.042-.9-.3-2.96-.325-4.512-.023-1.5-.654-3.451.261-4.4s2.878-.238,4.38-.3c1.237-.05,2.48.04,3.716-.027.916-.049,1.17.32,1.13,1.177C2733.748,497.046,2733.79,498.229,2733.79,499.681Z" transform="translate(-2691.532 -440.241)" fill="#fff"/>
        <path id="Path_426" data-name="Path 426" d="M2761.137,499.482c0-1.512-.59-3.509.153-4.409.877-1.063,2.952-.3,4.5-.337,1.5-.031,3.482-.655,4.4.248,1,.986.246,2.985.318,4.541.056,1.236-.019,2.477.021,3.715.022.731-.251.988-.981.98q-3.8-.044-7.6,0c-.774.01-.951-.342-.935-1.023.031-1.237.009-2.477.009-3.716Z" transform="translate(-2673.983 -440.249)" fill="#fff"/>
        <path id="Path_427" data-name="Path 427" d="M2777.84,499.689c-.108,1.23.643,3.2-.266,4.125-.991,1.005-2.986.247-4.541.32-1.236.059-2.478-.018-3.715.021-.723.022-.994-.238-.985-.973q.043-3.8,0-7.6c-.011-.768.329-.948,1.016-.942,2.477.025,4.956.034,7.431,0,.8-.012,1.1.251,1.073,1.062C2777.8,496.934,2777.84,498.174,2777.84,499.689Z" transform="translate(-2670.45 -440.184)" fill="#fff"/>
        <path id="Path_428" data-name="Path 428" d="M2785.2,499.718c-.129,1.238.647,3.185-.29,4.128s-2.884.232-4.387.292c-1.179.049-2.369-.062-3.545.031-1.1.087-1.323-.371-1.295-1.361q.091-3.459,0-6.924c-.024-.946.258-1.277,1.23-1.252q3.547.091,7.095,0c1-.028,1.255.359,1.207,1.277C2785.148,497.086,2785.2,498.272,2785.2,499.718Z" transform="translate(-2666.953 -440.187)" fill="#fff"/>
        <path id="Path_429" data-name="Path 429" d="M2792.544,499.689c-.107,1.23.644,3.2-.263,4.125-.991,1.005-2.987.247-4.542.32-1.235.059-2.478-.018-3.716.021-.722.022-.994-.238-.986-.973q.045-3.8,0-7.6c-.009-.768.33-.948,1.017-.942,2.477.025,4.957.034,7.433,0,.8-.012,1.1.251,1.071,1.062C2792.507,496.934,2792.544,498.174,2792.544,499.689Z" transform="translate(-2663.444 -440.184)" fill="#fff"/>
        <path id="Path_430" data-name="Path 430" d="M2795.607,494.7c1.228.167,3.217-.678,4.082.348.732.871.271,2.789.252,4.243-.021,1.563.668,3.613-.258,4.565-1.013,1.042-3.092.294-4.7.318-1.446.021-3.318.635-4.229-.263s-.231-2.776-.287-4.221c-.049-1.237.062-2.482-.031-3.715-.083-1.1.37-1.354,1.361-1.293C2792.975,494.753,2794.162,494.7,2795.607,494.7Z" transform="translate(-2659.998 -440.234)" fill="#fff"/>
        <path id="Path_431" data-name="Path 431" d="M2802.487,494.8c1.513,0,3.513-.589,4.406.153,1.058.879.3,2.953.333,4.5.028,1.5.646,3.449-.254,4.4-.914.969-2.875.245-4.374.307-1.294.055-2.592-.019-3.885.022-.741.024-.979-.267-.972-.988q.044-3.8,0-7.6c-.009-.779.357-.943,1.03-.927,1.239.03,2.478.009,3.716.009Z" transform="translate(-2656.439 -440.212)" fill="#fff"/>
        <path id="Path_432" data-name="Path 432" d="M2809.668,504.2c-1.273-.176-3.339.7-4.231-.356-.763-.905-.274-2.9-.255-4.409s-.644-3.481.255-4.4c.984-1.007,2.985-.247,4.54-.32,1.236-.059,2.478.018,3.716-.021.723-.024.993.238.984.973q-.045,3.8,0,7.6c.009.769-.332.958-1.018.941C2812.421,504.18,2811.182,504.2,2809.668,504.2Z" transform="translate(-2652.999 -440.242)" fill="#fff"/>
        <path id="Path_433" data-name="Path 433" d="M2817.264,494.65c1.239,0,2.479.028,3.716-.01.723-.024,1,.236.987.973q-.047,3.8,0,7.6c.01.768-.331.948-1.017.941-2.477-.024-4.954-.032-7.433,0-.8.013-1.085-.251-1.071-1.06q.056-3.716,0-7.432c-.014-.847.341-1.054,1.1-1.028C2814.788,494.681,2816.025,494.648,2817.264,494.65Z" transform="translate(-2649.435 -440.183)" fill="#fff"/>
        <path id="Path_434" data-name="Path 434" d="M2819.959,499.3c0-1.453-.568-3.383.149-4.239.848-1.014,2.846-.309,4.34-.326,1.561-.019,3.579-.675,4.565.26,1,.951.239,2.984.309,4.54.056,1.18-.037,2.367.028,3.546.05.9-.3,1.16-1.167,1.143-2.364-.047-4.73-.074-7.093.01-1.121.041-1.323-.425-1.269-1.386.064-1.18.014-2.364.014-3.546Z" transform="translate(-2645.956 -440.25)" fill="#fff"/>
        <path id="Path_435" data-name="Path 435" d="M2750.853,511.561c-1.28-.167-3.346.7-4.243-.347-.765-.89-.271-2.891-.271-4.4s-.5-3.511.269-4.4c.9-1.042,2.959-.3,4.511-.326,1.5-.022,3.45-.651,4.4.26s.24,2.879.3,4.379c.052,1.237-.04,2.48.026,3.716.049.912-.313,1.174-1.174,1.132C2753.489,511.518,2752.3,511.561,2750.853,511.561Z" transform="translate(-2681.003 -436.744)" fill="#fff"/>
        <path id="Path_436" data-name="Path 436" d="M2777.907,507.213c-.171,1.229.679,3.219-.353,4.079-.879.732-2.793.269-4.248.246-1.563-.023-3.615.672-4.562-.263-1.034-1.019-.293-3.095-.311-4.706-.019-1.444-.64-3.317.267-4.224s2.779-.221,4.226-.284c1.012-.044,2.043.106,3.037-.034,1.715-.245,2.16.486,1.967,2.052A26.882,26.882,0,0,0,2777.907,507.213Z" transform="translate(-2670.516 -436.735)" fill="#fff"/>
        <path id="Path_437" data-name="Path 437" d="M2785.255,507.024c-.155,1.274.68,3.278-.33,4.263-.919.9-2.894.236-4.4.255s-3.506.506-4.407-.254c-1.06-.893-.3-2.957-.335-4.507-.029-1.5-.645-3.446.251-4.4.913-.973,2.875-.246,4.374-.31,1.293-.055,2.591.018,3.884-.022.735-.022,1,.258.976.985C2785.227,504.269,2785.255,505.508,2785.255,507.024Z" transform="translate(-2667.011 -436.738)" fill="#fff"/>
        <path id="Path_438" data-name="Path 438" d="M2706.687,518.389c-1.23-.108-3.2.644-4.125-.266-1-.989-.246-2.985-.321-4.54-.058-1.236.017-2.479-.021-3.716-.023-.723.238-.994.973-.985q3.8.045,7.6,0c.767-.01.948.329.94,1.016-.023,2.477-.032,4.955,0,7.432.012.8-.25,1.1-1.061,1.072C2709.442,518.352,2708.2,518.389,2706.687,518.389Z" transform="translate(-2702.035 -433.396)" fill="#fff"/>
        <path id="Path_439" data-name="Path 439" d="M2714.332,518.315c-1.509,0-3.518.591-4.4-.153-1.041-.881-.3-2.956-.326-4.508-.021-1.5-.652-3.45.262-4.4s2.88-.237,4.382-.3c1.237-.052,2.48.04,3.714-.027.92-.05,1.148.326,1.132,1.178-.045,2.42-.038,4.841,0,7.263.012.782-.22,1.119-1.048,1.085-1.236-.052-2.476-.013-3.714-.013Z" transform="translate(-2698.538 -433.454)" fill="#fff"/>
        <path id="Path_440" data-name="Path 440" d="M2721.439,518.448c-1.273-.176-3.341.7-4.233-.357-.76-.9-.275-2.9-.255-4.407s-.645-3.481.255-4.4c.985-1.005,2.986-.247,4.54-.319,1.237-.059,2.479.016,3.717-.022.724-.022.994.239.984.974q-.046,3.8,0,7.6c.01.768-.333.958-1.019.941C2724.191,518.425,2722.951,518.448,2721.439,518.448Z" transform="translate(-2695.034 -433.456)" fill="#fff"/>
        <path id="Path_441" data-name="Path 441" d="M2733.6,513.812c0,1.454.569,3.387-.147,4.236-.851,1.005-2.847.261-4.344.332-1.236.061-2.479-.029-3.716.027-.855.039-1.2-.216-1.177-1.131q.081-3.63,0-7.263c-.021-.912.32-1.15,1.177-1.134,2.364.046,4.73.052,7.094,0,.929-.022,1.322.227,1.262,1.219-.075,1.234-.019,2.476-.019,3.715Z" transform="translate(-2691.47 -433.399)" fill="#fff"/>
        <path id="Path_442" data-name="Path 442" d="M2751.356,508.947c1.235.129,3.182-.647,4.128.288s.231,2.883.293,4.387c.049,1.18-.062,2.37.032,3.545.086,1.094-.368,1.324-1.361,1.3q-3.461-.093-6.927,0c-.943.023-1.277-.255-1.252-1.23q.093-3.545,0-7.094c-.026-1,.356-1.256,1.276-1.208C2748.724,508.994,2749.908,508.947,2751.356,508.947Z" transform="translate(-2680.963 -433.451)" fill="#fff"/>
        <path id="Path_443" data-name="Path 443" d="M2753.693,513.486c.157-1.274-.679-3.277.33-4.262.918-.9,2.894-.238,4.4-.257s3.5-.5,4.407.255c1.059.892.3,2.956.335,4.508.03,1.5.645,3.446-.251,4.4-.911.973-2.872.247-4.372.31-1.294.054-2.592-.019-3.885.021-.736.022-1-.258-.976-.984C2753.72,516.241,2753.693,515,2753.693,513.486Z" transform="translate(-2677.509 -433.459)" fill="#fff"/>
        <path id="Path_444" data-name="Path 444" d="M2777.907,514.105c-.171,1.229.679,3.219-.353,4.081-.879.733-2.793.269-4.248.247-1.563-.025-3.615.672-4.562-.262-1.034-1.019-.293-3.095-.311-4.706-.019-1.444-.64-3.319.267-4.226s2.779-.221,4.226-.283c1.012-.043,2.043.108,3.037-.034,1.715-.244,2.16.486,1.967,2.054A26.851,26.851,0,0,0,2777.907,514.105Z" transform="translate(-2670.516 -433.452)" fill="#fff"/>
        <path id="Path_445" data-name="Path 445" d="M2780.333,518.261c-1.454,0-3.388.57-4.236-.146-1.008-.852-.261-2.848-.333-4.345-.059-1.236.03-2.479-.025-3.715-.039-.856.216-1.2,1.131-1.178q3.63.08,7.262,0c.914-.021,1.15.319,1.135,1.177-.046,2.364-.052,4.729,0,7.093.02.93-.229,1.324-1.22,1.264-1.235-.075-2.476-.019-3.715-.019Z" transform="translate(-2667.004 -433.399)" fill="#fff"/>
        <path id="Path_446" data-name="Path 446" d="M2799.962,513.919c-.159,1.274.679,3.279-.332,4.262-.924.9-2.9.236-4.4.254s-3.506.5-4.408-.258c-1.053-.892-.3-2.956-.331-4.507-.026-1.5-.647-3.448.254-4.4s2.875-.244,4.375-.307c1.293-.053,2.591.021,3.885-.021.741-.023.993.266.971.986C2799.934,511.165,2799.962,512.4,2799.962,513.919Z" transform="translate(-2660.006 -433.454)" fill="#fff"/>
        <path id="Path_447" data-name="Path 447" d="M2807.316,514.105c-.171,1.229.68,3.219-.352,4.081-.877.733-2.793.269-4.249.247-1.562-.025-3.615.672-4.561-.262-1.033-1.019-.291-3.095-.312-4.706-.018-1.444-.638-3.319.269-4.226s2.778-.221,4.225-.283c1.011-.043,2.044.108,3.035-.034,1.718-.244,2.162.486,1.969,2.054A27.019,27.019,0,0,0,2807.316,514.105Z" transform="translate(-2656.505 -433.452)" fill="#fff"/>
        <path id="Path_448" data-name="Path 448" d="M2810.023,509.046c1.454,0,3.385-.57,4.236.146,1.01.851.263,2.846.335,4.344.06,1.236-.028,2.479.025,3.715.038.852-.208,1.2-1.126,1.183q-3.631-.082-7.263,0c-.909.021-1.152-.313-1.136-1.174.046-2.364.05-4.729,0-7.093-.02-.926.223-1.327,1.218-1.265,1.233.075,2.477.018,3.716.018Z" transform="translate(-2652.939 -433.421)" fill="#fff"/>
        <path id="Path_449" data-name="Path 449" d="M2817.375,509.045c1.454,0,3.386-.568,4.237.148,1.008.85.262,2.847.334,4.344.059,1.236-.029,2.479.025,3.715.039.853-.211,1.2-1.128,1.181q-3.632-.082-7.264,0c-.911.021-1.151-.316-1.134-1.174.045-2.364.051-4.73,0-7.094-.021-.927.226-1.326,1.219-1.264,1.234.075,2.476.018,3.714.018Z" transform="translate(-2649.435 -433.42)" fill="#fff"/>
        <path id="Path_450" data-name="Path 450" d="M2824.808,508.947c1.272.174,3.339-.7,4.233.356.76.9.274,2.9.256,4.407s.643,3.483-.256,4.4c-.985,1.006-2.986.247-4.542.321-1.235.058-2.477-.018-3.714.021-.726.022-.994-.239-.986-.974q.048-3.8,0-7.6c-.01-.768.331-.958,1.018-.94C2822.056,508.969,2823.294,508.947,2824.808,508.947Z" transform="translate(-2645.93 -433.45)" fill="#fff"/>
        <path id="Path_451" data-name="Path 451" d="M2709.669,520.619c0-1.511-.587-3.508.153-4.407.878-1.065,2.951-.306,4.5-.337,1.5-.031,3.483-.657,4.4.247,1,.988.246,2.987.317,4.541.056,1.237-.019,2.479.021,3.716.023.731-.251.988-.979.979q-3.8-.044-7.6,0c-.772.01-.951-.341-.935-1.023.031-1.237.009-2.476.009-3.714Z" transform="translate(-2698.505 -430.179)" fill="#fff"/>
        <path id="Path_452" data-name="Path 452" d="M2721.469,525.345c-1.273-.157-3.278.679-4.263-.329-.9-.92-.236-2.894-.255-4.4s-.506-3.5.255-4.407c.892-1.059,2.956-.3,4.505-.335,1.506-.028,3.449-.645,4.4.251.974.912.247,2.873.311,4.373.055,1.293-.019,2.591.02,3.885.023.735-.259,1-.983.974C2724.225,525.317,2722.984,525.345,2721.469,525.345Z" transform="translate(-2695.034 -430.177)" fill="#fff"/>
        <path id="Path_453" data-name="Path 453" d="M2729.262,515.84c1.28.165,3.345-.7,4.242.347.764.89.271,2.891.271,4.4s.5,3.511-.27,4.4c-.9,1.041-2.96.3-4.513.325-1.5.022-3.449.651-4.395-.26s-.24-2.879-.3-4.38c-.051-1.236.04-2.479-.027-3.715-.048-.914.318-1.174,1.175-1.132C2726.625,515.881,2727.809,515.84,2729.262,515.84Z" transform="translate(-2691.525 -430.166)" fill="#fff"/>
        <path id="Path_454" data-name="Path 454" d="M2741.077,520.828c-.109,1.228.644,3.2-.265,4.124-.991,1-2.987.246-4.543.319-1.235.059-2.478-.016-3.714.022-.726.022-.994-.242-.985-.976q.047-3.8,0-7.6c-.01-.768.331-.946,1.017-.939,2.477.024,4.955.033,7.433,0,.8-.012,1.1.252,1.07,1.063C2741.04,518.072,2741.077,519.312,2741.077,520.828Z" transform="translate(-2687.965 -430.113)" fill="#fff"/>
        <path id="Path_455" data-name="Path 455" d="M2755.784,520.835c-.115,1.237.639,3.18-.275,4.135s-2.876.241-4.377.306c-1.237.053-2.48-.038-3.716.026-.9.048-1.162-.292-1.144-1.165q.071-3.545,0-7.092c-.021-.917.2-1.305,1.208-1.277,2.362.067,4.73.062,7.093,0,.973-.025,1.285.3,1.232,1.253C2755.732,518.2,2755.784,519.386,2755.784,520.835Z" transform="translate(-2680.96 -430.116)" fill="#fff"/>
        <path id="Path_456" data-name="Path 456" d="M2753.792,520.423c0-1.454-.568-3.388.147-4.236.851-1.007,2.846-.261,4.344-.334,1.237-.059,2.48.031,3.718-.025.855-.038,1.2.216,1.178,1.131q-.082,3.63,0,7.262c.021.912-.322,1.148-1.177,1.133-2.364-.044-4.731-.05-7.094,0-.93.022-1.323-.229-1.263-1.219.077-1.234.019-2.476.019-3.715Z" transform="translate(-2677.479 -430.169)" fill="#fff"/>
        <path id="Path_457" data-name="Path 457" d="M2733.651,527.891c0,1.509.592,3.518-.152,4.4-.883,1.041-2.955.3-4.509.325-1.5.021-3.451.653-4.4-.262s-.238-2.879-.3-4.381c-.05-1.236.04-2.479-.026-3.715-.049-.918.326-1.145,1.178-1.13,2.42.044,4.843.038,7.262,0,.782-.012,1.121.221,1.086,1.048-.052,1.236-.015,2.477-.015,3.716Z" transform="translate(-2691.526 -426.612)" fill="#fff"/>
        <path id="Path_458" data-name="Path 458" d="M2736,532.7c-1.226-.162-3.215.675-4.081-.343-.736-.863-.276-2.786-.259-4.239.018-1.565-.665-3.613.252-4.57,1.007-1.051,3.087-.3,4.7-.323,1.448-.023,3.317-.63,4.234.257s.237,2.773.293,4.218c.049,1.292-.04,2.591.025,3.883.047.918-.323,1.168-1.177,1.131C2738.746,532.658,2737.5,532.7,2736,532.7Z" transform="translate(-2688.03 -426.675)" fill="#fff"/>
        <path id="Path_459" data-name="Path 459" d="M2751.047,523.122c1.509.065,3.51-.431,4.4.345,1.033.905.3,2.962.32,4.515.02,1.5.655,3.452-.263,4.394s-2.882.234-4.385.3c-1.18.049-2.369-.062-3.544.029-1.09.086-1.329-.359-1.3-1.355.061-2.307.057-4.618,0-6.924-.024-.94.247-1.317,1.228-1.255,1.177.074,2.363.018,3.544.018Z" transform="translate(-2680.964 -426.658)" fill="#fff"/>
        <path id="Path_460" data-name="Path 460" d="M2763.137,528.187c-.117,1.239.637,3.18-.276,4.136s-2.877.24-4.377.305c-1.235.053-2.479-.038-3.714.027-.9.047-1.164-.292-1.146-1.163q.071-3.545,0-7.094c-.019-.917.2-1.3,1.207-1.277q3.545.1,7.094,0c.972-.025,1.286.306,1.229,1.253C2763.085,525.553,2763.137,526.738,2763.137,528.187Z" transform="translate(-2677.458 -426.614)" fill="#fff"/>
        <path id="Path_461" data-name="Path 461" d="M2787.46,532.7c-1.227-.167-3.216.678-4.081-.348-.734-.871-.273-2.789-.254-4.242.021-1.565-.667-3.614.258-4.567,1.013-1.041,3.093-.294,4.7-.318,1.444-.02,3.317-.635,4.229.263s.233,2.776.287,4.221c.049,1.237-.063,2.483.03,3.714.084,1.1-.368,1.354-1.36,1.294C2790.093,532.645,2788.907,532.7,2787.46,532.7Z" transform="translate(-2663.511 -426.676)" fill="#fff"/>
        <path id="Path_462" data-name="Path 462" d="M2799.962,528.169c-.167,1.28.7,3.346-.347,4.243-.889.765-2.89.271-4.4.271s-3.511.495-4.4-.271c-1.043-.9-.3-2.959-.327-4.512-.022-1.5-.651-3.449.262-4.4s2.876-.238,4.378-.3c1.238-.051,2.481.041,3.715-.025.914-.049,1.174.316,1.135,1.175C2799.919,525.534,2799.962,526.718,2799.962,528.169Z" transform="translate(-2660.006 -426.668)" fill="#fff"/>
        <path id="Path_463" data-name="Path 463" d="M2802.316,532.693c-1.272-.176-3.34.7-4.234-.357-.759-.9-.273-2.9-.254-4.407s-.642-3.483.256-4.4c.983-1.005,2.984-.247,4.542-.32,1.236-.058,2.476.018,3.714-.021.725-.022.994.239.986.974q-.047,3.8,0,7.6c.009.768-.331.958-1.018.94C2805.067,532.67,2803.829,532.693,2802.316,532.693Z" transform="translate(-2656.502 -426.669)" fill="#fff"/>
        <path id="Path_464" data-name="Path 464" d="M2741.142,535.521c-.167,1.28.7,3.345-.347,4.243-.892.765-2.891.271-4.4.271s-3.511.494-4.4-.271c-1.043-.9-.3-2.959-.326-4.51-.022-1.5-.65-3.45.261-4.4s2.878-.239,4.378-.3c1.238-.052,2.481.04,3.717-.027.914-.049,1.174.316,1.133,1.175C2741.1,532.886,2741.142,534.07,2741.142,535.521Z" transform="translate(-2688.029 -423.165)" fill="#fff"/>
        <path id="Path_465" data-name="Path 465" d="M2743.576,539.863c-1.453,0-3.385.568-4.237-.148-1.014-.849-.263-2.845-.338-4.342-.059-1.236.029-2.479-.025-3.714-.036-.847.2-1.206,1.124-1.184q3.63.082,7.264,0c.905-.021,1.157.305,1.138,1.171-.046,2.364-.05,4.729,0,7.093.02.923-.216,1.332-1.215,1.27-1.234-.077-2.475-.019-3.714-.019Z" transform="translate(-2684.518 -423.11)" fill="#fff"/>
        <path id="Path_466" data-name="Path 466" d="M2755.711,535.242c0,1.509.591,3.518-.154,4.4-.883,1.042-2.955.3-4.508.325-1.5.022-3.449.652-4.4-.261s-.238-2.879-.3-4.381c-.051-1.236.041-2.479-.025-3.714-.05-.917.322-1.148,1.176-1.133,2.364.046,4.73.052,7.093,0,.933-.021,1.324.233,1.262,1.223-.075,1.177-.019,2.363-.019,3.546Z" transform="translate(-2681.016 -423.11)" fill="#fff"/>
        <path id="Path_467" data-name="Path 467" d="M2758.293,539.925c-1.454,0-3.382.568-4.239-.148-1.016-.849-.307-2.846-.327-4.342-.019-1.559-.676-3.578.26-4.564s2.985-.239,4.54-.31c1.18-.055,2.367.038,3.546-.026.9-.05,1.163.3,1.145,1.165-.046,2.364-.075,4.732.009,7.094.041,1.122-.426,1.323-1.387,1.27-1.179-.065-2.364-.015-3.546-.015Z" transform="translate(-2677.523 -423.168)" fill="#fff"/>
        <path id="Path_468" data-name="Path 468" d="M2761.147,535.3c0-1.509-.591-3.518.153-4.4.882-1.042,2.955-.3,4.508-.325,1.5-.022,3.451-.653,4.4.261s.24,2.879.3,4.381c.05,1.236-.042,2.479.024,3.715.052.917-.321,1.149-1.176,1.132-2.364-.046-4.73-.052-7.093,0-.933.021-1.324-.233-1.261-1.222.075-1.177.018-2.364.018-3.547Z" transform="translate(-2673.979 -423.172)" fill="#fff"/>
        <path id="Path_469" data-name="Path 469" d="M2785.121,535.242c0,1.509.591,3.518-.154,4.4-.882,1.042-2.956.3-4.508.325-1.5.022-3.45.652-4.4-.261s-.237-2.878-.3-4.379c-.049-1.237.041-2.48-.024-3.715-.051-.917.32-1.149,1.175-1.134,2.364.046,4.73.052,7.094,0,.932-.021,1.325.232,1.261,1.223-.075,1.177-.018,2.363-.018,3.545Z" transform="translate(-2667.005 -423.11)" fill="#fff"/>
        <path id="Path_470" data-name="Path 470" d="M2783.2,535.126c0-1.454-.568-3.388.147-4.236.852-1.005,2.849-.261,4.346-.332,1.236-.059,2.476.03,3.714-.027.856-.038,1.2.217,1.178,1.131q-.082,3.63,0,7.263c.02.914-.32,1.15-1.177,1.134-2.365-.046-4.73-.051-7.094,0-.929.021-1.323-.23-1.262-1.221.076-1.234.018-2.476.018-3.715Z" transform="translate(-2663.468 -423.164)" fill="#fff"/>
        <path id="Path_471" data-name="Path 471" d="M2795.614,530.539c1.228.173,3.219-.679,4.082.354.73.878.268,2.792.246,4.246-.024,1.563.671,3.616-.263,4.564-1.02,1.032-3.094.291-4.7.312-1.445.018-3.32.638-4.227-.269s-.222-2.777-.283-4.224c-.045-1.013.105-2.043-.035-3.037-.245-1.716.486-2.162,2.053-1.967A27.513,27.513,0,0,0,2795.614,530.539Z" transform="translate(-2659.998 -423.158)" fill="#fff"/>
        <path id="Path_472" data-name="Path 472" d="M2807.125,535.406c0,1.454.567,3.387-.147,4.235-.851,1.01-2.847.263-4.344.335-1.234.06-2.479-.028-3.714.027-.852.037-1.2-.21-1.181-1.128q.081-3.63,0-7.263c-.021-.909.313-1.153,1.173-1.137,2.364.046,4.73.052,7.094,0,.926-.022,1.328.222,1.265,1.217-.075,1.234-.018,2.476-.018,3.715Z" transform="translate(-2656.441 -423.11)" fill="#fff"/>
        <path id="Path_473" data-name="Path 473" d="M2746.27,542.645c.067-1.508-.429-3.509.346-4.4.906-1.034,2.961-.3,4.516-.32,1.5-.019,3.45-.656,4.393.266s.235,2.881.3,4.382c.049,1.18-.061,2.37.031,3.545.084,1.089-.359,1.329-1.357,1.3-2.308-.062-4.618-.058-6.924,0-.94.023-1.317-.246-1.255-1.228.074-1.177.017-2.364.017-3.545Z" transform="translate(-2681.007 -419.669)" fill="#fff"/>
        <path id="Path_474" data-name="Path 474" d="M2758.2,547.4c-1.273-.176-3.34.7-4.234-.357-.76-.9-.275-2.9-.256-4.407s-.642-3.483.257-4.4c.985-1.006,2.986-.247,4.541-.319,1.235-.059,2.478.016,3.714-.022.727-.022.994.242.986.976q-.048,3.8,0,7.6c.01.768-.333.957-1.02.939C2760.953,547.374,2759.715,547.4,2758.2,547.4Z" transform="translate(-2677.519 -419.664)" fill="#fff"/>
        <path id="Path_475" data-name="Path 475" d="M2765.5,547.342c-1.239-.118-3.18.638-4.134-.276s-.243-2.878-.307-4.378c-.052-1.237.037-2.48-.025-3.715-.048-.9.292-1.163,1.164-1.145q3.546.071,7.094,0c.916-.021,1.3.2,1.276,1.207q-.1,3.546,0,7.094c.025.972-.306,1.285-1.254,1.23C2768.133,547.289,2766.949,547.342,2765.5,547.342Z" transform="translate(-2674.011 -419.607)" fill="#fff"/>
        <path id="Path_476" data-name="Path 476" d="M2780.692,537.9c1.273.174,3.339-.7,4.234.355.76.9.274,2.9.255,4.407s.643,3.483-.255,4.4c-.985,1.005-2.986.246-4.542.32-1.235.058-2.477-.018-3.714.021-.726.022-.994-.239-.986-.974q.048-3.8,0-7.6c-.009-.768.331-.958,1.018-.94C2777.94,537.918,2779.179,537.9,2780.692,537.9Z" transform="translate(-2666.948 -419.658)" fill="#fff"/>
        <path id="Path_477" data-name="Path 477" d="M2792.472,542.594c0,1.509.591,3.518-.154,4.4-.883,1.042-2.955.3-4.506.327-1.5.021-3.452.651-4.4-.263s-.239-2.879-.3-4.38c-.052-1.236.04-2.479-.026-3.715-.05-.915.321-1.147,1.176-1.131,2.364.044,4.73.051,7.094,0,.933-.022,1.325.232,1.262,1.221-.077,1.178-.018,2.364-.018,3.546Z" transform="translate(-2663.502 -419.607)" fill="#fff"/>
        <path id="Path_478" data-name="Path 478" d="M2794.966,547.4c-1.279-.167-3.345.7-4.244-.349-.762-.89-.269-2.891-.268-4.4s-.495-3.513.27-4.4c.9-1.041,2.962-.3,4.513-.325,1.5-.022,3.45-.652,4.4.261s.237,2.879.3,4.381c.052,1.237-.04,2.48.026,3.714.049.917-.32,1.171-1.176,1.131C2797.6,547.361,2796.417,547.4,2794.966,547.4Z" transform="translate(-2659.985 -419.669)" fill="#fff"/>
        <path id="Path_479" data-name="Path 479" d="M2746.34,550.246c.157-1.274-.68-3.278.329-4.262.921-.9,2.894-.236,4.4-.255s3.5-.506,4.409.255c1.058.892.3,2.956.333,4.506.03,1.5.646,3.447-.25,4.4-.914.971-2.875.246-4.375.31-1.292.054-2.589-.019-3.883.021-.735.022-1-.259-.976-.984C2746.369,553,2746.34,551.762,2746.34,550.246Z" transform="translate(-2681.012 -415.945)" fill="#fff"/>
        <path id="Path_480" data-name="Path 480" d="M2763.062,550.406c0,1.509.591,3.518-.153,4.4-.882,1.042-2.956.3-4.508.325-1.5.022-3.45.652-4.4-.262s-.24-2.879-.3-4.38c-.051-1.236.04-2.479-.026-3.715-.049-.917.322-1.149,1.176-1.132,2.365.044,4.73.052,7.1,0,.931-.021,1.324.233,1.26,1.223-.075,1.177-.018,2.364-.018,3.545Z" transform="translate(-2677.514 -415.886)" fill="#fff"/>
        <path id="Path_481" data-name="Path 481" d="M2770.488,550.716c-.121,1.23.642,3.175-.281,4.125s-2.88.238-4.381.3c-1.237.051-2.48-.04-3.714.026-.915.049-1.152-.316-1.136-1.174.045-2.42.039-4.842,0-7.262-.011-.778.213-1.1,1.043-1.091q3.716.062,7.433,0c.825-.013,1.074.3,1.045,1.088C2770.455,547.966,2770.488,549.2,2770.488,550.716Z" transform="translate(-2673.955 -415.884)" fill="#fff"/>
        <path id="Path_482" data-name="Path 482" d="M2775.847,550.292c0-1.453-.568-3.385.147-4.236.851-1.008,2.848-.261,4.345-.334,1.234-.06,2.479.028,3.714-.026.852-.037,1.2.21,1.181,1.128q-.079,3.63,0,7.263c.021.909-.313,1.153-1.174,1.137-2.365-.046-4.73-.052-7.093,0-.927.021-1.327-.222-1.266-1.217.076-1.234.017-2.476.017-3.714Z" transform="translate(-2666.972 -415.939)" fill="#fff"/>
        <path id="Path_483" data-name="Path 483" d="M2787.962,545.8c1.454,0,3.383-.568,4.238.148,1.016.849.31,2.847.328,4.341.019,1.561.675,3.579-.261,4.565s-2.983.239-4.541.31c-1.179.055-2.366-.038-3.544.027-.9.05-1.162-.3-1.144-1.166.047-2.364.075-4.73-.01-7.093-.041-1.122.425-1.323,1.387-1.27,1.178.065,2.365.015,3.547.015Z" transform="translate(-2663.451 -415.909)" fill="#fff"/>
        <path id="Path_484" data-name="Path 484" d="M2750.85,562.566c-1.28-.167-3.345.7-4.243-.349-.764-.89-.269-2.891-.269-4.4s-.5-3.511.271-4.4c.9-1.039,2.959-.3,4.511-.323,1.5-.022,3.45-.653,4.4.261s.237,2.879.3,4.38c.05,1.236-.041,2.479.026,3.715.05.915-.321,1.171-1.178,1.131C2753.487,562.525,2752.3,562.566,2750.85,562.566Z" transform="translate(-2681.003 -412.444)" fill="#fff"/>
        <path id="Path_485" data-name="Path 485" d="M2763.2,558.03c-.158,1.276.682,3.281-.332,4.264-.921.9-2.894.236-4.4.254s-3.506.5-4.405-.258c-1.056-.893-.305-2.956-.333-4.507-.027-1.5-.648-3.447.252-4.4.916-.967,2.876-.245,4.375-.307,1.293-.053,2.591.019,3.886-.021.741-.024.993.266.97.986C2763.171,555.277,2763.2,556.517,2763.2,558.03Z" transform="translate(-2677.52 -412.438)" fill="#fff"/>
        <path id="Path_486" data-name="Path 486" d="M2761.147,557.815c0-1.509-.591-3.52.153-4.4.882-1.042,2.956-.3,4.509-.325,1.5-.022,3.45-.654,4.395.263s.237,2.879.3,4.381c.051,1.236-.041,2.479.025,3.715.051.919-.324,1.146-1.178,1.13-2.419-.043-4.841-.038-7.261,0-.783.01-1.121-.221-1.086-1.048.052-1.237.014-2.477.014-3.716Z" transform="translate(-2673.977 -412.445)" fill="#fff"/>
        <path id="Path_487" data-name="Path 487" d="M2768.4,557.6c.156-1.273-.679-3.276.329-4.262.919-.9,2.894-.236,4.4-.255s3.505-.507,4.408.255c1.059.892.3,2.956.335,4.506.028,1.5.645,3.447-.251,4.4-.913.971-2.874.246-4.374.31-1.292.055-2.59-.019-3.883.021-.735.022-1-.258-.976-.983C2768.425,560.354,2768.4,559.114,2768.4,557.6Z" transform="translate(-2670.504 -412.443)" fill="#fff"/>
        <path id="Path_488" data-name="Path 488" d="M2775.749,557.6c.157-1.273-.678-3.276.33-4.262.921-.9,2.894-.236,4.4-.255s3.5-.507,4.408.255c1.059.892.3,2.956.334,4.506.03,1.5.647,3.447-.251,4.4-.912.971-2.873.246-4.373.31-1.292.055-2.589-.019-3.884.021-.735.022-1-.258-.975-.983C2775.778,560.354,2775.749,559.114,2775.749,557.6Z" transform="translate(-2667.001 -412.443)" fill="#fff"/>
        <path id="Path_489" data-name="Path 489" d="M2783.2,557.658c0-1.454-.57-3.385.147-4.237.85-1.013,2.848-.308,4.342-.326,1.561-.016,3.579-.676,4.562.263,1,.952.24,2.984.31,4.541.055,1.18-.04,2.367.026,3.545.051.908-.3,1.158-1.169,1.141-2.363-.047-4.73-.051-7.094,0-.922.021-1.33-.214-1.269-1.214.075-1.233.017-2.476.017-3.715Z" transform="translate(-2663.469 -412.447)" fill="#fff"/>
        <path id="Path_490" data-name="Path 490" d="M2763.137,565.406c-.117,1.239.637,3.18-.276,4.135s-2.877.242-4.377.306c-1.235.053-2.479-.039-3.714.027-.9.047-1.164-.293-1.146-1.164q.071-3.545,0-7.094c-.019-.915.205-1.3,1.207-1.275q3.545.1,7.094,0c.972-.025,1.286.305,1.229,1.253C2763.085,562.772,2763.137,563.958,2763.137,565.406Z" transform="translate(-2677.458 -408.881)" fill="#fff"/>
        <path id="Path_491" data-name="Path 491" d="M2770.488,565.422c-.121,1.23.642,3.173-.281,4.124s-2.88.238-4.381.3c-1.237.05-2.48-.041-3.714.025-.915.048-1.152-.316-1.136-1.174.045-2.42.039-4.843,0-7.263-.011-.778.213-1.1,1.043-1.091q3.716.062,7.433,0c.825-.014,1.074.3,1.045,1.087C2770.455,562.669,2770.488,563.909,2770.488,565.422Z" transform="translate(-2673.955 -408.879)" fill="#fff"/>
        <path id="Path_492" data-name="Path 492" d="M2777.9,565.383c-.158,1.274.68,3.279-.333,4.262-.92.9-2.894.236-4.4.254s-3.507.5-4.405-.259c-1.055-.892-.3-2.956-.333-4.507-.028-1.5-.648-3.447.253-4.4s2.875-.244,4.376-.307c1.291-.053,2.588.019,3.883-.021.742-.023.994.266.971.986C2777.875,562.629,2777.9,563.869,2777.9,565.383Z" transform="translate(-2670.516 -408.935)" fill="#fff"/>
        <path id="Path_493" data-name="Path 493" d="M2780.506,569.78c-1.51,0-3.521.591-4.4-.153-1.041-.882-.3-2.956-.325-4.508-.021-1.5-.652-3.45.262-4.4s2.88-.238,4.381-.3c1.238-.052,2.479.04,3.716-.026.919-.05,1.146.326,1.131,1.178-.043,2.42-.039,4.841,0,7.262.009.783-.222,1.12-1.049,1.085-1.237-.052-2.478-.013-3.716-.013Z" transform="translate(-2667.011 -408.935)" fill="#fff"/>
        <path id="Path_494" data-name="Path 494" d="M2753.692,572.272c.176-1.273-.7-3.34.357-4.233.9-.761,2.9-.275,4.408-.256s3.481-.642,4.4.257c1.008.983.247,2.984.321,4.54.059,1.236-.018,2.477.02,3.715.024.725-.237.994-.973.985q-3.8-.047-7.6,0c-.767.009-.957-.331-.939-1.019C2753.715,575.024,2753.692,573.786,2753.692,572.272Z" transform="translate(-2677.509 -405.437)" fill="#fff"/>
        <path id="Path_495" data-name="Path 495" d="M2761.042,572.134c.156-1.225-.66-3.153.327-4.106.9-.865,2.789-.232,4.241-.247,1.565-.015,3.642-.525,4.568.266,1.075.923.31,3.064.337,4.672.027,1.447.627,3.313-.249,4.237s-2.768.242-4.212.3c-1.294.052-2.593-.037-3.885.027-.9.046-1.186-.292-1.142-1.165C2761.085,574.882,2761.042,573.642,2761.042,572.134Z" transform="translate(-2674.004 -405.435)" fill="#fff"/>
        <path id="Path_496" data-name="Path 496" d="M2772.761,577.271c-1.225-.162-3.214.675-4.081-.342-.735-.862-.276-2.784-.26-4.237.018-1.567-.665-3.613.253-4.57,1.007-1.053,3.088-.3,4.7-.323,1.446-.025,3.315-.632,4.232.255s.237,2.773.293,4.218c.051,1.293-.04,2.592.027,3.883.047.918-.325,1.169-1.178,1.131C2775.508,577.23,2774.267,577.271,2772.761,577.271Z" transform="translate(-2670.516 -405.44)" fill="#fff"/>
      </g>
      <g id="Group_145" data-name="Group 145" transform="translate(36.773 168.138)">
        <path id="Path_497" data-name="Path 497" d="M2746.417,477.4c0-1.518-.6-3.557.157-4.418.877-1,2.962-.269,4.52-.313,1.517-.041,3.553-.548,4.417.217,1,.886.27,2.965.314,4.522.041,1.517.548,3.552-.217,4.417-.886,1-2.965.269-4.523.312-1.515.043-3.546.548-4.42-.215C2745.652,481.033,2746.489,478.953,2746.417,477.4Z" transform="translate(-2680.992 -472.449)" fill="#fff"/>
        <path id="Path_498" data-name="Path 498" d="M2746.415,484.594c.062-1.5-.737-3.5.241-4.36.841-.735,2.8-.255,4.254-.21,1.615.05,3.772-.725,4.687.316.792.9.265,3.009.223,4.581-.04,1.5.667,3.5-.307,4.36-.835.737-2.794.257-4.253.21-1.615-.05-3.775.725-4.683-.316C2745.8,488.281,2746.415,486.168,2746.415,484.594Z" transform="translate(-2680.989 -468.95)" fill="#fff"/>
        <path id="Path_499" data-name="Path 499" d="M2743.9,487.432c1.5.071,3.5-.756,4.364.229.735.84.258,2.793.215,4.252-.048,1.615.72,3.769-.312,4.689-.892.793-3.006.267-4.579.229-1.5-.038-3.5.663-4.361-.3-.738-.828-.259-2.792-.217-4.249.048-1.617-.719-3.777.312-4.688C2740.212,486.814,2742.33,487.432,2743.9,487.432Z" transform="translate(-2684.507 -465.434)" fill="#fff"/>
        <path id="Path_500" data-name="Path 500" d="M2746.423,491.955c.068-1.5-.758-3.5.226-4.363.842-.735,2.8-.258,4.252-.216,1.617.047,3.771-.72,4.691.312.793.89.267,3.006.227,4.577-.037,1.5.664,3.5-.3,4.363-.827.738-2.791.26-4.25.217-1.615-.049-3.775.721-4.686-.313C2745.8,495.646,2746.423,493.529,2746.423,491.955Z" transform="translate(-2680.99 -465.447)" fill="#fff"/>
        <path id="Path_501" data-name="Path 501" d="M2763.082,492c0,1.569.605,3.647-.167,4.567-.808.961-2.962.254-4.524.279-1.512.024-3.511.5-4.4-.26-.933-.8-.247-2.86-.273-4.367-.025-1.567-.524-3.644.267-4.565.825-.961,2.967-.254,4.53-.279,1.509-.023,3.5-.5,4.405.259C2763.876,488.439,2763.04,490.5,2763.082,492Z" transform="translate(-2677.498 -465.447)" fill="#fff"/>
        <path id="Path_502" data-name="Path 502" d="M2741.05,499.313c0,1.572.618,3.694-.162,4.574-.912,1.028-3.07.264-4.687.31-1.459.041-3.425.518-4.248-.221-.96-.859-.263-2.86-.3-4.363-.038-1.571-.563-3.689.233-4.575.919-1.026,3.073-.263,4.69-.309,1.459-.041,3.413-.517,4.252.22C2741.808,495.812,2740.986,497.813,2741.05,499.313Z" transform="translate(-2688.004 -461.945)" fill="#fff"/>
        <path id="Path_503" data-name="Path 503" d="M2743.915,494.776c1.5.064,3.5-.737,4.359.244.735.843.255,2.8.208,4.256-.052,1.614.726,3.769-.318,4.685-.9.793-3.011.263-4.583.222-1.5-.042-3.5.666-4.358-.307-.736-.839-.258-2.8-.21-4.255.053-1.615-.726-3.775.321-4.683C2740.228,494.157,2742.34,494.776,2743.915,494.776Z" transform="translate(-2684.507 -461.93)" fill="#fff"/>
        <path id="Path_504" data-name="Path 504" d="M2751.116,494.791c1.516,0,3.564-.6,4.41.155.991.881.267,2.964.306,4.525.037,1.515.54,3.558-.228,4.41-.89.989-2.968.266-4.529.3-1.513.037-3.558.54-4.409-.227-.99-.89-.266-2.966-.3-4.527-.037-1.515-.538-3.554.227-4.412C2747.48,494.02,2749.56,494.845,2751.116,494.791Z" transform="translate(-2681 -461.933)" fill="#fff"/>
        <path id="Path_505" data-name="Path 505" d="M2763.116,499.624c-.06,1.5.738,3.5-.239,4.36-.839.737-2.795.257-4.253.213-1.616-.051-3.77.724-4.688-.316-.791-.9-.264-3.009-.223-4.581.038-1.5-.666-3.5.305-4.36.833-.735,2.793-.257,4.252-.211,1.616.05,3.776-.723,4.685.316C2763.734,495.936,2763.116,498.05,2763.116,499.624Z" transform="translate(-2677.494 -461.944)" fill="#fff"/>
        <path id="Path_506" data-name="Path 506" d="M2706.842,511.466c-1.5-.059-3.5.76-4.367-.216-.738-.831-.263-2.79-.222-4.248.044-1.617-.717-3.769.3-4.692.883-.8,3-.272,4.575-.237,1.5.034,3.5-.66,4.366.3.739.818.264,2.787.222,4.245-.044,1.616.718,3.777-.306,4.689C2710.538,512.084,2708.415,511.466,2706.842,511.466Z" transform="translate(-2702.021 -458.436)" fill="#fff"/>
        <path id="Path_507" data-name="Path 507" d="M2719.023,506.84c0,1.243-.043,2.488.016,3.728.036.753-.218.96-.955.948q-3.815-.062-7.629,0c-.751.013-.958-.219-.946-.955q.062-3.813,0-7.629c-.013-.751.22-.958.956-.946q3.813.062,7.629,0c.751-.013.976.216.946.955C2718.983,504.238,2719.023,505.539,2719.023,506.84Z" transform="translate(-2698.455 -458.378)" fill="#fff"/>
        <path id="Path_508" data-name="Path 508" d="M2726.359,506.983c-.066,1.5.733,3.5-.248,4.357-.842.735-2.8.255-4.255.208-1.615-.053-3.771.725-4.686-.319-.791-.9-.263-3.01-.218-4.583.04-1.5-.669-3.5.307-4.358.838-.735,2.8-.255,4.255-.208,1.616.053,3.776-.726,4.683.319C2726.976,503.3,2726.359,505.408,2726.359,506.983Z" transform="translate(-2695.009 -458.442)" fill="#fff"/>
        <path id="Path_509" data-name="Path 509" d="M2729.08,502.158c1.513,0,3.575-.6,4.4.155.972.887.263,2.969.295,4.531.03,1.513.529,3.567-.242,4.4-.9.97-2.971.261-4.533.294-1.514.03-3.567.529-4.4-.242-.969-.9-.261-2.972-.293-4.534-.031-1.513-.527-3.554.24-4.406C2725.447,501.36,2727.522,502.225,2729.08,502.158Z" transform="translate(-2691.509 -458.431)" fill="#fff"/>
        <path id="Path_510" data-name="Path 510" d="M2736.31,511.366c-1.51,0-3.522.586-4.394-.16-.916-.785-.219-2.86-.265-4.369-.04-1.3.031-2.6-.024-3.9-.031-.741.2-.967.948-.954q3.811.064,7.628,0c.739-.012.968.2.955.948q-.067,3.814,0,7.629c.012.74-.2.988-.95.954-1.3-.058-2.6-.016-3.9-.016Z" transform="translate(-2688.005 -458.378)" fill="#fff"/>
        <path id="Path_511" data-name="Path 511" d="M2739.067,506.973c0-1.574-.619-3.69.162-4.578.91-1.036,3.07-.266,4.687-.315,1.456-.044,3.419-.523,4.251.214.967.858.263,2.858.3,4.361.04,1.572.567,3.685-.225,4.58-.919,1.035-3.074.264-4.688.313-1.46.044-3.411.521-4.255-.214C2738.312,510.474,2739.142,508.472,2739.067,506.973Z" transform="translate(-2684.493 -458.442)" fill="#fff"/>
        <path id="Path_512" data-name="Path 512" d="M2763.006,506.832c0,1.51.585,3.521-.16,4.392-.785.917-2.86.22-4.369.266-1.3.04-2.6-.031-3.9.023-.741.032-.968-.2-.956-.946q.067-3.814,0-7.629c-.011-.74.2-.967.948-.954q3.814.064,7.629,0c.74-.012.988.2.954.948-.059,1.3-.017,2.6-.017,3.9Z" transform="translate(-2677.438 -458.378)" fill="#fff"/>
        <path id="Path_513" data-name="Path 513" d="M2761.146,506.685c.04-1.5-.765-3.5.195-4.37.818-.741,2.784-.27,4.242-.235,1.619.04,3.77-.709,4.7.3.8.867.279,3,.248,4.566-.03,1.5.654,3.5-.287,4.37-.806.742-2.783.27-4.239.235-1.618-.04-3.777.709-4.7-.3C2760.526,510.391,2761.146,508.256,2761.146,506.685Z" transform="translate(-2673.985 -458.442)" fill="#fff"/>
        <path id="Path_514" data-name="Path 514" d="M2788,511.46c-1.571,0-3.7.62-4.568-.162-1.017-.914-.26-3.074-.3-4.692-.039-1.456-.512-3.428.229-4.24.865-.948,2.864-.26,4.368-.291,1.57-.034,3.695-.555,4.57.242,1.012.924.259,3.077.3,4.7.039,1.456.512,3.418-.228,4.243C2791.5,512.224,2789.5,511.412,2788,511.46Z" transform="translate(-2663.49 -458.436)" fill="#fff"/>
        <path id="Path_515" data-name="Path 515" d="M2799.882,506.979c-.063,1.5.736,3.5-.244,4.36-.84.735-2.795.255-4.254.21-1.615-.052-3.77.723-4.687-.316-.793-.9-.263-3.01-.222-4.583.04-1.5-.666-3.5.305-4.358.838-.737,2.794-.257,4.252-.211,1.616.052,3.777-.725,4.685.317C2800.5,503.292,2799.882,505.405,2799.882,506.979Z" transform="translate(-2659.98 -458.442)" fill="#fff"/>
        <path id="Path_516" data-name="Path 516" d="M2802.726,502.135c1.5.074,3.5-.756,4.362.232.734.845.258,2.795.214,4.254-.05,1.617.722,3.771-.313,4.689-.895.793-3.006.266-4.58.226-1.5-.038-3.5.664-4.36-.3-.738-.831-.26-2.792-.215-4.251.048-1.617-.721-3.777.313-4.686C2799.037,501.516,2801.153,502.135,2802.726,502.135Z" transform="translate(-2656.484 -458.428)" fill="#fff"/>
        <path id="Path_517" data-name="Path 517" d="M2809.942,502.146c1.514,0,3.565-.6,4.408.157.985.883.265,2.966.3,4.527.036,1.513.537,3.559-.232,4.407-.891.985-2.967.264-4.528.3-1.514.037-3.561.538-4.408-.23-.984-.892-.263-2.969-.3-4.529-.036-1.513-.538-3.555.231-4.409C2806.306,501.374,2808.383,502.195,2809.942,502.146Z" transform="translate(-2652.978 -458.431)" fill="#fff"/>
        <path id="Path_518" data-name="Path 518" d="M2812.594,506.97c0-1.574-.617-3.693.163-4.577.91-1.034,3.07-.264,4.686-.313,1.458-.043,3.421-.521,4.25.217.964.858.264,2.86.3,4.361.039,1.572.566,3.687-.229,4.578-.92,1.032-3.074.263-4.689.312-1.459.043-3.411.52-4.254-.216C2811.838,510.471,2812.666,508.469,2812.594,506.97Z" transform="translate(-2649.464 -458.442)" fill="#fff"/>
        <path id="Path_519" data-name="Path 519" d="M2829.178,506.832c0,1.51.585,3.521-.162,4.392-.784.917-2.859.22-4.366.266-1.3.04-2.6-.031-3.9.023-.741.032-.968-.2-.954-.946q.065-3.814,0-7.629c-.012-.74.2-.967.948-.954q3.814.064,7.629,0c.739-.012.988.2.953.948-.057,1.3-.016,2.6-.016,3.9Z" transform="translate(-2645.911 -458.378)" fill="#fff"/>
        <path id="Path_520" data-name="Path 520" d="M2831.816,511.5c-1.244,0-2.488-.044-3.729.016-.767.039-.947-.244-.937-.965.041-2.543.044-5.085,0-7.627-.013-.766.245-.948.966-.936,2.543.038,5.087.043,7.628,0,.768-.013.949.245.937.967-.039,2.542-.043,5.086,0,7.627.013.765-.242.966-.966.936C2834.415,511.463,2833.115,511.5,2831.816,511.5Z" transform="translate(-2642.408 -458.378)" fill="#fff"/>
        <path id="Path_521" data-name="Path 521" d="M2741.054,513.862c-.071,1.5.757,3.5-.229,4.363-.84.737-2.8.26-4.252.215-1.616-.047-3.77.721-4.69-.31-.794-.892-.268-3.007-.229-4.578.038-1.5-.663-3.5.3-4.362.828-.738,2.792-.261,4.248-.217,1.617.047,3.777-.72,4.688.312C2741.673,510.171,2741.054,512.29,2741.054,513.862Z" transform="translate(-2688.004 -455.158)" fill="#fff"/>
        <path id="Path_522" data-name="Path 522" d="M2743.662,518.26c-1.511,0-3.521.585-4.393-.161-.918-.784-.219-2.858-.267-4.369-.039-1.3.032-2.6-.024-3.9-.03-.741.2-.967.948-.955q3.814.066,7.629,0c.74-.013.967.2.954.948q-.065,3.813,0,7.629c.011.74-.2.986-.948.952-1.3-.057-2.6-.015-3.9-.015Z" transform="translate(-2684.502 -455.094)" fill="#fff"/>
        <path id="Path_523" data-name="Path 523" d="M2765.935,518.348c-1.572,0-3.707.62-4.566-.162-1.007-.916-.258-3.075-.3-4.693-.037-1.456-.506-3.433.235-4.237.866-.942,2.865-.258,4.37-.288,1.569-.03,3.7-.551,4.566.248,1.007.927.258,3.078.3,4.7.034,1.456.506,3.422-.235,4.24C2769.435,519.114,2767.437,518.308,2765.935,518.348Z" transform="translate(-2673.998 -455.153)" fill="#fff"/>
        <path id="Path_524" data-name="Path 524" d="M2783.2,513.571c.048-1.5-.763-3.5.2-4.369.826-.74,2.787-.267,4.244-.229,1.617.043,3.77-.713,4.694.3.8.874.274,3,.242,4.569-.032,1.5.657,3.5-.29,4.367-.812.741-2.786.269-4.243.23-1.616-.043-3.776.712-4.691-.3C2782.577,517.271,2783.2,515.142,2783.2,513.571Z" transform="translate(-2663.475 -455.158)" fill="#fff"/>
        <path id="Path_525" data-name="Path 525" d="M2748.378,520.49c0,1.568.606,3.647-.167,4.565-.81.961-2.961.254-4.526.279-1.511.024-3.511.5-4.4-.26-.934-.8-.248-2.858-.272-4.366-.026-1.568-.526-3.645.265-4.567.825-.961,2.966-.254,4.531-.279,1.512-.024,3.5-.5,4.405.26C2749.163,516.926,2748.361,518.985,2748.378,520.49Z" transform="translate(-2684.504 -451.874)" fill="#fff"/>
        <path id="Path_526" data-name="Path 526" d="M2765.81,515.917c1.516,0,3.555-.6,4.415.157,1,.877.266,2.961.311,4.521.042,1.515.547,3.552-.219,4.416-.885,1-2.964.267-4.524.31-1.516.042-3.551.548-4.416-.217-1-.887-.269-2.965-.311-4.524-.042-1.516-.546-3.546.218-4.419C2762.173,515.148,2764.255,516.006,2765.81,515.917Z" transform="translate(-2673.995 -451.862)" fill="#fff"/>
        <path id="Path_527" data-name="Path 527" d="M2777.843,520.625c0,1.243-.043,2.488.017,3.729.034.753-.22.958-.956.946q-3.814-.062-7.63,0c-.751.012-.957-.22-.946-.957q.062-3.813,0-7.629c-.013-.751.219-.958.956-.946q3.815.064,7.629,0c.749-.013.977.217.944.957C2777.8,518.024,2777.843,519.326,2777.843,520.625Z" transform="translate(-2670.431 -451.811)" fill="#fff"/>
        <path id="Path_528" data-name="Path 528" d="M2775.7,520.42c0-1.131.05-2.264-.016-3.39-.052-.889.114-1.3,1.156-1.265,2.427.081,4.861.075,7.29,0,.958-.03,1.1.341,1.085,1.165-.044,2.429-.065,4.86.009,7.289.029.957-.34,1.1-1.164,1.085-2.429-.044-4.861-.066-7.289.009-.958.029-1.122-.338-1.085-1.165C2775.74,522.908,2775.7,521.663,2775.7,520.42Z" transform="translate(-2666.931 -451.814)" fill="#fff"/>
        <path id="Path_529" data-name="Path 529" d="M2792.518,520.749c-.064,1.5.758,3.5-.222,4.364-.836.737-2.792.261-4.249.22-1.617-.046-3.771.718-4.692-.309-.794-.886-.268-3-.232-4.575.036-1.5-.661-3.5.3-4.363.825-.74,2.791-.263,4.248-.221,1.616.046,3.777-.718,4.689.31C2793.136,517.055,2792.518,519.177,2792.518,520.749Z" transform="translate(-2663.484 -451.875)" fill="#fff"/>
        <path id="Path_530" data-name="Path 530" d="M2743.785,523.295c1.514,0,3.575-.6,4.4.157.971.886.263,2.967.3,4.529.029,1.513.529,3.569-.242,4.4-.9.97-2.971.263-4.534.294-1.514.031-3.568.528-4.4-.242-.97-.9-.261-2.972-.294-4.532-.031-1.513-.527-3.554.242-4.405C2740.152,522.5,2742.227,523.364,2743.785,523.295Z" transform="translate(-2684.504 -448.36)" fill="#fff"/>
        <path id="Path_531" data-name="Path 531" d="M2765.637,532.619c-1.5-.065-3.5.735-4.359-.247-.735-.843-.255-2.8-.206-4.255.051-1.615-.726-3.771.316-4.686.9-.791,3.01-.261,4.584-.218,1.5.04,3.5-.667,4.359.307.735.839.255,2.8.206,4.255-.051,1.615.726,3.777-.318,4.683C2769.322,533.238,2767.211,532.619,2765.637,532.619Z" transform="translate(-2673.998 -448.366)" fill="#fff"/>
        <path id="Path_532" data-name="Path 532" d="M2772.994,532.615c-1.5-.061-3.5.737-4.36-.239-.736-.839-.257-2.8-.211-4.254.051-1.616-.724-3.771.314-4.688.9-.793,3.009-.264,4.582-.223,1.5.038,3.5-.666,4.361.3.735.834.259,2.793.211,4.252-.049,1.615.725,3.776-.315,4.685C2776.683,533.233,2774.569,532.615,2772.994,532.615Z" transform="translate(-2670.494 -448.365)" fill="#fff"/>
        <path id="Path_533" data-name="Path 533" d="M2775.824,527.947c0-1.518-.6-3.554.155-4.419.878-1.009,2.962-.269,4.52-.314,1.517-.043,3.55-.549,4.42.214,1.007.884.268,2.964.313,4.522.044,1.516.551,3.549-.213,4.419-.885,1.007-2.964.269-4.522.313-1.517.044-3.547.549-4.421-.213C2775.06,531.583,2775.9,529.5,2775.824,527.947Z" transform="translate(-2666.981 -448.368)" fill="#fff"/>
        <path id="Path_534" data-name="Path 534" d="M2772.989,539.971c-1.5-.065-3.5.735-4.359-.247-.734-.841-.254-2.8-.207-4.255.052-1.615-.727-3.771.319-4.686.9-.791,3.01-.261,4.583-.218,1.5.041,3.5-.667,4.358.307.734.84.256,2.8.208,4.255-.051,1.615.726,3.776-.319,4.683C2776.673,540.59,2774.564,539.971,2772.989,539.971Z" transform="translate(-2670.494 -444.863)" fill="#fff"/>
        <path id="Path_535" data-name="Path 535" d="M2768.475,542.648c0-1.518-.6-3.556.155-4.417.878-1,2.962-.269,4.522-.312,1.516-.043,3.551-.548,4.416.216,1.005.886.268,2.965.312,4.523.043,1.515.548,3.551-.218,4.418-.885,1-2.964.267-4.522.312-1.517.041-3.548.546-4.419-.217C2767.71,546.283,2768.547,544.2,2768.475,542.648Z" transform="translate(-2670.483 -441.363)" fill="#fff"/>
        <path id="Path_536" data-name="Path 536" d="M2777.843,550.493c0,1.243-.043,2.488.017,3.73.034.753-.22.958-.956.946q-3.814-.061-7.63,0c-.751.013-.957-.22-.946-.957q.062-3.814,0-7.627c-.013-.752.22-.96.956-.947q3.815.062,7.629,0c.75-.013.977.217.944.955C2777.8,547.891,2777.843,549.194,2777.843,550.493Z" transform="translate(-2670.431 -437.581)" fill="#fff"/>
      </g>
    </g>
    <g id="Group_161" data-name="Group 161" transform="translate(-17394.426 1228.339)">
      <g id="Group_158" data-name="Group 158" transform="translate(0 9.067)">
        <path id="Path_551" data-name="Path 551" d="M2903.178,445.074h27.674v33.845l28.989-33.845h36.8l-32.681,33.806,34.148,55.754h-34.081L2945.15,497.8l-14.3,14.976v21.855h-27.674Z" transform="translate(-2903.178 -443.547)" fill="#fff"/>
        <path id="Path_552" data-name="Path 552" d="M2959.331,445.074h27.737v89.56h-27.737Z" transform="translate(-2854.134 -443.547)" fill="#fff"/>
        <path id="Path_553" data-name="Path 553" d="M3037.789,505.716l26.331-1.649q.854,6.413,3.482,9.774,4.275,5.438,12.218,5.439,5.926,0,9.135-2.78a8.331,8.331,0,0,0,3.205-6.445,8.223,8.223,0,0,0-3.054-6.233q-3.053-2.748-14.172-5.191-18.208-4.094-25.963-10.875a21.864,21.864,0,0,1-7.82-17.29,23.472,23.472,0,0,1,4-13.043,26.545,26.545,0,0,1,12.035-9.652q8.033-3.513,22.022-3.513,17.168,0,26.179,6.385t10.721,20.313l-26.085,1.527q-1.04-6.05-4.367-8.8t-9.195-2.75q-4.828,0-7.272,2.048a6.276,6.276,0,0,0-2.442,4.979,4.988,4.988,0,0,0,2.015,3.848q1.956,1.773,9.286,3.3,18.143,3.909,25.994,7.911t11.424,9.927a25.171,25.171,0,0,1,3.573,13.256,28.39,28.39,0,0,1-4.765,15.884,29.811,29.811,0,0,1-13.317,11.027q-8.554,3.757-21.564,3.756-22.849,0-31.646-8.8T3037.789,505.716Z" transform="translate(-2785.606 -444.259)" fill="#fff"/>
        <path id="Path_554" data-name="Path 554" d="M3088.66,445.074h27.675v33.845l28.989-33.845h36.807l-32.683,33.806,34.147,55.754h-34.08L3130.633,497.8l-14.3,14.976v21.855H3088.66Z" transform="translate(-2741.175 -443.547)" fill="#fff"/>
      </g>
      <g id="Group_159" data-name="Group 159" transform="translate(196.257 117.44)">
        <path id="Path_555" data-name="Path 555" d="M3014.161,572.448,3027.67,562.2q5.588-4.192,8.268-6.056,11.3-8.267,16.364-12.868t6-9.258a10.693,10.693,0,0,0,.347-2.563q0-6.52-9.781-6.521a37.594,37.594,0,0,0-11.878,2.1,49.591,49.591,0,0,0-11.88,5.824L3030,510.026a54.039,54.039,0,0,1,13.974-5.823,61.224,61.224,0,0,1,15.955-2.1,31.233,31.233,0,0,1,13.392,2.679,20.761,20.761,0,0,1,8.8,7.394,19.076,19.076,0,0,1,3.083,10.656,26.609,26.609,0,0,1-.581,5.126,38.711,38.711,0,0,1-7.277,16.186q-5.3,6.756-15.548,14.442l-10.365,7.8h27.484l-3.961,18.865h-63.471Z" transform="translate(-3011.481 -502.107)" fill="url(#linear-gradient-9)"/>
        <path id="Path_556" data-name="Path 556" d="M3066.326,503.04h59.046l-4.308,20.263h-34.94l-2.328,11.18h25.154L3104.992,553h-25.154l-2.448,11.181h34.938l-4.194,20.263H3049.09Z" transform="translate(-2971.993 -501.292)" fill="url(#linear-gradient-9)"/>
        <path id="Path_557" data-name="Path 557" d="M3091.361,503.04h24.576l8.037,49.029,28.88-49.029h26.783l-49.726,81.4h-23.177Z" transform="translate(-2935.073 -501.292)" fill="url(#linear-gradient-9)"/>
      </g>
      <path id="Path_558" data-name="Path 558" d="M3063.576,456.264q-12.1-12-34.455-12-21.809,0-34.026,12.218t-12.218,34.15q0,15.7,6.167,26.147a37.769,37.769,0,0,0,16.1,15.272q9.924,4.827,25.078,4.826,14.9,0,24.9-5.59a37.684,37.684,0,0,0,15.271-15.637q5.284-10.052,5.286-25.752Q3075.673,468.27,3063.576,456.264Zm-19.542,47.193-22.454,6.709-8-22.027a10.925,10.925,0,0,1,7.226-14.367,12.567,12.567,0,0,1,15.229,7.658,12.565,12.565,0,0,1,15.226,7.658A10.925,10.925,0,0,1,3044.034,503.457Z" transform="translate(-2833.57 -435.192)" fill="#fff"/>
      <path id="Path_559" data-name="Path 559" d="M3024.469,473.29a6.98,6.98,0,0,0-8.459-4.254v0a6.983,6.983,0,0,0-8.46-4.257,6.071,6.071,0,0,0-4.015,7.983L3007.978,485l12.476-3.726h0A6.07,6.07,0,0,0,3024.469,473.29Z" transform="translate(-2815.861 -417.513)" fill="#ff9bc2"/>
      <g id="Group_160" data-name="Group 160" transform="translate(475.243 0)">
        <path id="Path_560" data-name="Path 560" d="M3306.088,478.341c-4.646,0-9.289,6.609-11.078,6.609-1.428,0-1.784-2.143-1.784-3.215-32.161,18.045-46.275,43.414-47.347,61.817-.177,3.395.536,13.756,5.538,13.756,5.361,0,16.794-6.789,20.9-10.542l17.51-16.079c7.86-8.755,23.048-30.014,23.048-41.805C3312.878,485.13,3311.091,478.341,3306.088,478.341Z" transform="translate(-3079.125 -405.425)" fill="url(#linear-gradient-12)"/>
        <path id="Path_561" data-name="Path 561" d="M3393.177,439.419H3212.7a55.844,55.844,0,0,0-55.844,55.844v97.458a55.843,55.843,0,0,0,55.844,55.845h180.477a55.843,55.843,0,0,0,55.844-55.845V495.263A55.844,55.844,0,0,0,3393.177,439.419ZM3228.389,608.277a2.26,2.26,0,0,1-2.5,2.5,11.4,11.4,0,0,1-3.753-1.607c-6.79-3.753-14.469-5-14.469-14.292,0-8.934,7.68-28.766,12.506-36.805,13.041-21.619,23.4-40.1,28.584-46.886l13.825-17.673-16.972,6.433a26.46,26.46,0,0,1-4.824,1.785c-1.963,0-1.607-3.037-1.428-4.108.357-5.182,3.93-6.789,8.218-9.292,5.9-3.395,26.083-15.364,31.087-15.364,4.646,0,13.844,11.079,13.844,13.758,0,5.182-15.7,19.892-43.75,67.595-6.254,10.542-20.9,35.731-20.9,47.7C3227.853,604.168,3228.389,606.132,3228.389,608.277Zm45.376-2.681c-4.824-.536-11.256-1.427-11.256-7.5,0-6.431,7.861-21.262,18.045-19.116,2.5.536,8.756.536,8.756,5.718C3289.311,584.872,3284.843,606.847,3273.765,605.6Zm55.74,1.431c-16.437,1.25-26.083-15.008-26.083-30.2,0-20.188,12.863-42.343,26.083-56.993,15.722-17.331,43.06-31.265,54.67-31.265,7.327,0,16.08,8.576,16.08,12.505,0,1.967-4.289,1.967-5.536,3.216,8.038,2.5,8.934,11.435,8.934,18.582C3403.652,557.179,3372.565,603.988,3329.505,607.027Z" transform="translate(-3156.856 -439.419)" fill="url(#linear-gradient-13)"/>
      </g>
    </g>
  </g>
</svg>
