<?xml version="1.0" encoding="utf-8"?>
<svg id="master-artboard" viewBox="0 0 236 107" version="1.1" xmlns="http://www.w3.org/2000/svg" x="0px" y="0px" style="enable-background:new 0 0 1400 980;" width="236px" height="107px" xmlns:xlink="http://www.w3.org/1999/xlink"><rect id="ee-background" x="0" y="0" width="236" height="107" style="fill: white; fill-opacity: 0; pointer-events: none;"/><defs><style id="ee-google-fonts">@import url(https://fonts.googleapis.com/css?family=Fjalla+One:400|Roboto:100,100italic,300,300italic,400,400italic,500,500italic,700,700italic,900,900italic);</style><radialGradient id="radial-gradient" cx="0.5" cy="0.5" r="0.416" gradientTransform="translate(1.965 -0.005) scale(1.594 1.004)" gradientUnits="objectBoundingBox">
      <stop offset="0" stop-color="#a1d7c4"/>
      <stop offset="0.018" stop-color="#9bd4c2"/>
      <stop offset="0.195" stop-color="#64c1b0"/>
      <stop offset="0.36" stop-color="#38b1a2"/>
      <stop offset="0.507" stop-color="#19a698"/>
      <stop offset="0.632" stop-color="#069f92"/>
      <stop offset="0.718" stop-color="#009d90"/>
      <stop offset="0.814" stop-color="#039b8e"/>
      <stop offset="0.902" stop-color="#0e9589"/>
      <stop offset="0.987" stop-color="#218b80"/>
      <stop offset="1" stop-color="#258a7f"/>
    </radialGradient><radialGradient id="radial-gradient-2" cx="0.5" cy="0.5" r="0.444" gradientTransform="translate(-0.159) scale(1.318 1)" xlink:href="#radial-gradient"/><linearGradient id="linear-gradient" x1="0.5" y1="1" x2="0.5" gradientUnits="objectBoundingBox">
      <stop offset="0" stop-color="#a1d7c4"/>
      <stop offset="0.018" stop-color="#9bd4c2"/>
      <stop offset="0.195" stop-color="#64c1b0"/>
      <stop offset="0.36" stop-color="#38b1a2"/>
      <stop offset="0.507" stop-color="#19a698"/>
      <stop offset="0.632" stop-color="#069f92"/>
      <stop offset="0.718" stop-color="#009d90"/>
      <stop offset="0.814" stop-color="#009387"/>
      <stop offset="0.902" stop-color="#017e6f"/>
      <stop offset="1" stop-color="#008ea8"/>
    </linearGradient><linearGradient id="linear-gradient-2" x1="0.155" y1="-0.21" x2="0.845" y2="0.726" gradientUnits="objectBoundingBox">
      <stop offset="0" stop-color="#00878d"/>
      <stop offset="0.123" stop-color="#03898f"/>
      <stop offset="0.237" stop-color="#0e9298"/>
      <stop offset="0.346" stop-color="#21a0a8"/>
      <stop offset="0.448" stop-color="#3ab3bc"/>
      <stop offset="0.505" stop-color="#cee8d7"/>
      <stop offset="0.597" stop-color="#3ab3bc"/>
      <stop offset="0.754" stop-color="#1e8392"/>
      <stop offset="0.838" stop-color="#1d7f8f"/>
      <stop offset="0.914" stop-color="#1c7488"/>
      <stop offset="0.989" stop-color="#1a617c"/>
      <stop offset="1" stop-color="#1a5e7a"/>
    </linearGradient><linearGradient id="linear-gradient-3" x1="1" y1="0.5" x2="0" y2="0.5" gradientUnits="objectBoundingBox">
      <stop offset="0" stop-color="#fee8b1"/>
      <stop offset="0.15" stop-color="#f9daa0"/>
      <stop offset="0.351" stop-color="#f2c484"/>
      <stop offset="0.429" stop-color="#f2c584"/>
      <stop offset="0.457" stop-color="#f4cc86"/>
      <stop offset="0.476" stop-color="#f7d888"/>
      <stop offset="0.492" stop-color="#fbe98c"/>
      <stop offset="0.502" stop-color="#fff790"/>
      <stop offset="0.631" stop-color="#fdf18e"/>
      <stop offset="0.791" stop-color="#f9e28b"/>
      <stop offset="0.967" stop-color="#f3c985"/>
      <stop offset="1" stop-color="#f2c484"/>
    </linearGradient><linearGradient id="linear-gradient-4" x1="0.139" y1="1.174" x2="0.861" y2="0.271" xlink:href="#linear-gradient-2"/><linearGradient id="linear-gradient-5" y1="0.5" x2="1" y2="0.5" gradientUnits="objectBoundingBox">
      <stop offset="0" stop-color="#00878d"/>
      <stop offset="0.113" stop-color="#03898d"/>
      <stop offset="0.217" stop-color="#0e8f8f"/>
      <stop offset="0.318" stop-color="#219a92"/>
      <stop offset="0.416" stop-color="#3ba996"/>
      <stop offset="0.448" stop-color="#46b098"/>
      <stop offset="0.505" stop-color="#cee8d7"/>
      <stop offset="0.597" stop-color="#46b096"/>
      <stop offset="0.754" stop-color="#1e8392"/>
      <stop offset="0.838" stop-color="#1d7f8f"/>
      <stop offset="0.914" stop-color="#1c7488"/>
      <stop offset="0.989" stop-color="#1a617c"/>
      <stop offset="1" stop-color="#1a5e7a"/>
    </linearGradient><linearGradient id="linear-gradient-6" x1="0" y1="0.5" x2="1" y2="0.5" xlink:href="#linear-gradient-3"/><radialGradient id="radial-gradient-3" cx="0.5" cy="0.5" r="0.457" gradientTransform="translate(-0.154 -0.013) scale(1.307 0.96)" xlink:href="#radial-gradient"/><radialGradient id="radial-gradient-4" cx="0.5" cy="0.5" r="0.433" gradientTransform="translate(-0.19 -0.009) scale(1.379 1.013)" gradientUnits="objectBoundingBox">
      <stop offset="0" stop-color="#def5b9"/>
      <stop offset="0.018" stop-color="#9bd5c2"/>
      <stop offset="0.195" stop-color="#64c7a9"/>
      <stop offset="0.36" stop-color="#38bba3"/>
      <stop offset="0.507" stop-color="#19b39a"/>
      <stop offset="0.632" stop-color="#06ae94"/>
      <stop offset="0.718" stop-color="#00ad92"/>
      <stop offset="0.814" stop-color="#02a088"/>
      <stop offset="0.902" stop-color="#00937f"/>
      <stop offset="1" stop-color="#007e79"/>
    </radialGradient><linearGradient id="linear-gradient-7" y1="0.5" x2="1" y2="0.5" gradientUnits="objectBoundingBox">
      <stop offset="0" stop-color="#ffe08a"/>
      <stop offset="0.157" stop-color="#f7cf86"/>
      <stop offset="0.246" stop-color="#f2c484"/>
      <stop offset="0.378" stop-color="#f2c584"/>
      <stop offset="0.425" stop-color="#f4cc86"/>
      <stop offset="0.459" stop-color="#f7d888"/>
      <stop offset="0.486" stop-color="#fbe98c"/>
      <stop offset="0.502" stop-color="#fff790"/>
      <stop offset="0.536" stop-color="#fdde7e"/>
      <stop offset="0.576" stop-color="#fbc86e"/>
      <stop offset="0.625" stop-color="#fab762"/>
      <stop offset="0.684" stop-color="#f9ab5a"/>
      <stop offset="0.768" stop-color="#f9a455"/>
      <stop offset="1" stop-color="#f9a354"/>
    </linearGradient><linearGradient id="linear-gradient-8" x1="0.057" y1="0.067" x2="0.943" y2="0.709" gradientUnits="objectBoundingBox">
      <stop offset="0" stop-color="#ffe08a"/>
      <stop offset="0.224" stop-color="#f7cf86"/>
      <stop offset="0.351" stop-color="#f2c484"/>
      <stop offset="0.429" stop-color="#f2c584"/>
      <stop offset="0.457" stop-color="#f4cc86"/>
      <stop offset="0.476" stop-color="#f7d888"/>
      <stop offset="0.492" stop-color="#fbe98c"/>
      <stop offset="0.502" stop-color="#fff790"/>
      <stop offset="0.512" stop-color="#fbe98c"/>
      <stop offset="0.53" stop-color="#f7d888"/>
      <stop offset="0.552" stop-color="#f4cc86"/>
      <stop offset="0.583" stop-color="#f2c584"/>
      <stop offset="0.669" stop-color="#f2c484"/>
      <stop offset="0.831" stop-color="#f1c282"/>
      <stop offset="0.89" stop-color="#eebd7b"/>
      <stop offset="0.931" stop-color="#eab46f"/>
      <stop offset="0.965" stop-color="#e4a75e"/>
      <stop offset="0.994" stop-color="#dc9748"/>
      <stop offset="1" stop-color="#da9343"/>
    </linearGradient><linearGradient id="linear-gradient-9" x1="0.5" x2="0.5" y2="1" gradientUnits="objectBoundingBox">
      <stop offset="0" stop-color="#fbb94d"/>
      <stop offset="1" stop-color="#f9a353"/>
    </linearGradient><linearGradient id="linear-gradient-12" x1="0.5" x2="0.5" y2="1" gradientUnits="objectBoundingBox">
      <stop offset="0" stop-color="#fbb64c"/>
      <stop offset="1" stop-color="#f9a951"/>
    </linearGradient><linearGradient id="linear-gradient-13" x1="0.5" x2="0.5" y2="1" gradientUnits="objectBoundingBox">
      <stop offset="0" stop-color="#fce2aa"/>
      <stop offset="0.266" stop-color="#fcb94c"/>
      <stop offset="1" stop-color="#f9a354"/>
    </linearGradient></defs>

































































































<g transform="matrix(4.112168522594731, 0, 0, 4.112168522594731, -0.00002149807187379338, 215.06862128950098)"><g id="Group_236" data-name="Group 236" transform="translate(17735.566 -1082.37)">
    <g id="Group_157" data-name="Group 157" transform="matrix(0.1685674637556076, 0, 0, 0.19459397722518917, -17735.568359375, 1029.9871826171875)">
      <path d="M 78.068001 62.224998 A 39.034 62.224998 0 0 1 39.034 124.449997 A 39.034 62.224998 0 0 1 0 62.224998 A 39.034 62.224998 0 0 1 39.034 0 A 39.034 62.224998 0 0 1 78.068001 62.224998 Z" id="Ellipse_18" data-name="Ellipse 18" transform="translate(2.059)" fill="url(#radial-gradient)"/>
      <path id="Path_339" data-name="Path 339" d="M2720.716,476.712c21.113,0,38.311-22.077,39.011-49.66a94.881,94.881,0,0,0-2.545-20.124c-5.615-19.317-19.824-33.033-36.466-33.033s-30.851,13.717-36.466,33.034a94.9,94.9,0,0,0-2.545,20.124C2682.406,454.635,2699.6,476.712,2720.716,476.712Z" transform="translate(-2679.624 -366.945)" fill="url(#radial-gradient-2)"/>
      <path id="Path_340" data-name="Path 340" d="M2761.139,385.449c-7.043-16.241-18.807-26.882-32.13-26.882s-25.086,10.641-32.13,26.882Z" transform="translate(-2687.917 -358.567)" fill="url(#linear-gradient)"/>
      <path id="Path_341" data-name="Path 341" d="M2721.175,557.039c-20.144,0-36.68-22.94-38.419-52.194,1.739,31.769,18.276,56.681,38.419,56.681s36.681-24.912,38.419-56.681C2757.855,534.1,2741.319,557.039,2721.175,557.039Z" transform="translate(-2680.197 -438.518)" fill="url(#linear-gradient-2)"/>
      <path id="Path_342" data-name="Path 342" d="M2720.873,560.218c-20.386,0-37.122-22.94-38.881-52.194,1.759,31.769,18.495,56.681,38.881,56.681s37.121-24.912,38.881-56.681C2757.993,537.278,2741.258,560.218,2720.873,560.218Z" transform="translate(-2679.78 -440.255)" fill="url(#linear-gradient-3)"/>
      <path id="Path_538" data-name="Path 538" d="M2720.688,367.3c21.51,0,38.955,24.935,39.033,55.737,0-.074,0-.148,0-.223,0-33.552-17.476-60.751-39.033-60.751s-39.034,27.2-39.034,60.751c0,.075,0,.149,0,.223C2681.732,392.236,2699.178,367.3,2720.688,367.3Z" transform="translate(-2679.596 -358.999)" fill="#05595a"/>
      <path id="Path_343" data-name="Path 343" d="M2720.688,367.428c21.51,0,38.955,25.54,39.033,57.089,0-.076,0-.152,0-.229,0-34.366-17.476-62.225-39.033-62.225s-39.034,27.859-39.034,62.225c0,.077,0,.152,0,.229C2681.732,392.968,2699.178,367.428,2720.688,367.428Z" transform="translate(-2679.596 -360.478)" fill="url(#linear-gradient-4)"/>
      <path id="Path_344" data-name="Path 344" d="M2720.688,363.932c21.51,0,38.955,25.54,39.033,57.089,0-.076,0-.152,0-.228,0-34.366-17.476-62.225-39.033-62.225s-39.034,27.859-39.034,62.225q0,.114,0,.228C2681.732,389.472,2699.178,363.932,2720.688,363.932Z" transform="translate(-2679.596 -358.567)" fill="url(#linear-gradient-5)"/>
      <path id="Path_345" data-name="Path 345" d="M2720.688,358.567c-21.558,0-39.034,27.859-39.034,62.225s17.476,62.225,39.034,62.225,39.033-27.859,39.033-62.225S2742.246,358.567,2720.688,358.567Zm0,122.865c-20.964,0-37.958-27.091-37.958-60.51s16.994-60.51,37.958-60.51,37.958,27.091,37.958,60.51S2741.651,481.432,2720.688,481.432Z" transform="translate(-2679.596 -358.567)" fill="url(#linear-gradient-6)"/>
      <path id="Path_346" data-name="Path 346" d="M2757.367,427.182c-4.416-10.855-37.663-10.745-39.146-10.735-1.483-.01-34.731-.12-39.147,10.735-.242.6-8.446,17.069,10.619,59.083,0,0,14.3,35.281,28.475,37.635v.018l.053-.009.052.009V523.9c14.18-2.354,28.477-37.635,28.477-37.635C2765.814,444.252,2757.61,427.778,2757.367,427.182Z" transform="translate(-2677.115 -390.202)" fill="url(#radial-gradient-3)"/>
      <path id="Path_347" data-name="Path 347" d="M2757.367,407.181c-4.416-11.453-37.663-11.337-39.146-11.326-1.483-.011-34.731-.127-39.147,11.326-.242.628-8.446,18.011,10.619,62.342,0,0,14.3,37.227,28.475,39.711v.019l.053-.009.052.009v-.019c14.18-2.484,28.477-39.711,28.477-39.711C2765.814,425.192,2757.61,407.809,2757.367,407.181Z" transform="translate(-2677.115 -378.947)" fill="url(#radial-gradient-4)"/>
      <path id="Path_537" data-name="Path 537" d="M2755.358,406.782c-4.305-11.05-36.721-10.938-38.166-10.928-1.446-.011-33.861-.123-38.166,10.928-.236.606-8.235,17.377,10.352,60.147,0,0,13.938,35.916,27.763,38.313v.018l.051-.009.05.009v-.018c13.825-2.4,27.763-38.313,27.763-38.313C2763.593,424.159,2755.594,407.388,2755.358,406.782ZM2740.7,465.217s-11.782,32.158-23.47,34.3v.016l-.043-.008-.043.008v-.016c-11.687-2.146-23.47-34.3-23.47-34.3-15.713-38.3-8.951-53.312-8.751-53.855,3.639-9.894,31.042-9.794,32.265-9.784,1.222-.01,28.625-.11,32.264,9.784C2749.656,411.905,2756.417,426.921,2740.7,465.217Z" transform="translate(-2675.963 -374.955)" fill="#016c6c"/>
      <path id="Path_348" data-name="Path 348" d="M2757.367,407.181c-4.416-11.453-37.663-11.337-39.146-11.326-1.483-.011-34.731-.127-39.147,11.326-.242.628-8.446,18.011,10.619,62.342,0,0,14.3,37.227,28.475,39.711v.019l.053-.009.052.009v-.019c14.18-2.484,28.477-39.711,28.477-39.711C2765.814,425.192,2757.61,407.809,2757.367,407.181Zm-15.029,60.566s-12.086,33.332-24.073,35.556v.017l-.044-.008-.044.008V503.3c-11.988-2.224-24.073-35.556-24.073-35.556-16.116-39.693-9.181-55.257-8.976-55.819,3.733-10.255,31.84-10.151,33.094-10.141,1.253-.01,29.36-.114,33.093,10.141C2751.519,412.491,2758.455,428.054,2742.338,467.747Z" transform="translate(-2677.115 -378.947)" fill="url(#linear-gradient-7)"/>
      <path id="Path_349" data-name="Path 349" d="M2757.367,407.181c-4.416-11.453-37.663-11.337-39.146-11.326-1.483-.011-34.731-.127-39.147,11.326-.242.628-8.446,18.011,10.619,62.342,0,0,14.3,37.227,28.475,39.711v.019l.053-.009.052.009v-.019c14.18-2.484,28.477-39.711,28.477-39.711C2765.814,425.192,2757.61,407.809,2757.367,407.181Zm-11.358,61.928s-13.925,36.321-27.738,38.744v.019l-.05-.009-.051.009v-.019c-13.812-2.423-27.737-38.744-27.737-38.744-18.57-43.251-10.578-60.211-10.343-60.824,4.3-11.174,36.686-11.061,38.131-11.051,1.444-.01,33.829-.124,38.13,11.051C2756.588,408.9,2764.579,425.858,2746.009,469.109Z" transform="translate(-2677.115 -378.947)" fill="url(#linear-gradient-8)"/>
      <g id="Group_141" data-name="Group 141" transform="translate(11.325 44.998)" opacity="0.2">
        <path id="Path_350" data-name="Path 350" d="M2738.97,459.264c0-.445-.232-1.022.049-1.3s.856-.089,1.3-.083c.478.006,1.113-.222,1.388.1.235.275.085.892.079,1.356-.007.446.192,1.022-.083,1.3s-.855.089-1.3.083c-.477-.007-1.116.222-1.388-.1C2738.788,460.347,2738.97,459.73,2738.97,459.264Z" transform="translate(-2722.198 -457.806)" fill="#fff"/>
        <path id="Path_351" data-name="Path 351" d="M2753.617,459.354c.053-.527-.175-1.1.1-1.387s.854-.091,1.3-.088c.478,0,1.1-.214,1.4.094.275.282.076.891.076,1.355,0,.446.19,1.021-.077,1.3s-.853.092-1.3.088c-.478,0-1.112.218-1.391-.1C2753.481,460.356,2753.634,459.738,2753.617,459.354Z" transform="translate(-2730.231 -457.807)" fill="#fff"/>
        <path id="Path_352" data-name="Path 352" d="M2724.265,466.616c0-.445-.231-1.022.049-1.3s.856-.089,1.3-.083c.477.007,1.113-.222,1.388.1.235.275.086.891.079,1.356-.007.446.192,1.022-.083,1.3s-.855.089-1.3.083c-.477-.007-1.116.222-1.387-.1C2724.083,467.7,2724.265,467.082,2724.265,466.616Z" transform="translate(-2714.162 -461.825)" fill="#fff"/>
        <path id="Path_353" data-name="Path 353" d="M2732.983,468.114c-.448,0-1.043.175-1.3-.046-.309-.262-.079-.876-.1-1.338-.018-.363,0-.728-.007-1.091-.007-.225.034-.354.307-.349q1.118.021,2.236,0c.254,0,.326.092.323.334-.012.728-.016,1.456,0,2.183.006.281-.1.362-.362.349-.363-.018-.728,0-1.091,0Z" transform="translate(-2718.174 -461.897)" fill="#fff"/>
        <path id="Path_354" data-name="Path 354" d="M2762.457,468.1c-.527-.053-1.1.175-1.386-.1s-.091-.853-.088-1.3c0-.478-.215-1.1.094-1.4.281-.275.891-.077,1.354-.077.447,0,1.022-.19,1.306.077s.091.853.088,1.3c0,.478.218,1.112-.1,1.392C2763.459,468.233,2762.841,468.08,2762.457,468.1Z" transform="translate(-2734.239 -461.825)" fill="#fff"/>
        <path id="Path_355" data-name="Path 355" d="M2769.794,465.274c.445.008,1.022-.23,1.3.053s.089.856.081,1.3c-.008.477.223,1.113-.1,1.387-.277.234-.892.085-1.357.077-.446-.008-1.023.193-1.3-.084s-.089-.856-.082-1.3c.008-.478-.223-1.116.1-1.386C2768.712,465.092,2769.329,465.274,2769.794,465.274Z" transform="translate(-2738.257 -461.841)" fill="#fff"/>
        <path id="Path_356" data-name="Path 356" d="M2718.3,475.5c-.294,0-.591-.023-.883.005-.369.036-.528-.056-.5-.472.038-.657.023-1.317,0-1.975-.008-.3.051-.437.394-.424.693.026,1.387.018,2.08,0,.278-.006.406.052.4.367q-.033,1.064,0,2.131c.009.312-.114.384-.395.369C2719.029,475.486,2718.664,475.5,2718.3,475.5Z" transform="translate(-2710.19 -465.911)" fill="#fff"/>
        <path id="Path_357" data-name="Path 357" d="M2725.614,475.44c-.446-.044-1.021.183-1.306-.088s-.09-.853-.088-1.3c0-.479-.214-1.1.094-1.4.282-.276.891-.077,1.354-.077.447,0,1.021-.19,1.306.077s.091.852.089,1.3c0,.478.213,1.094-.094,1.4C2726.686,475.631,2726.078,475.4,2725.614,475.44Z" transform="translate(-2714.146 -465.843)" fill="#fff"/>
        <path id="Path_358" data-name="Path 358" d="M2762.368,475.4c-.446,0-1.022.231-1.3-.049s-.089-.856-.083-1.3c.007-.478-.222-1.113.1-1.388.275-.235.891-.086,1.356-.078.446.007,1.023-.193,1.3.083s.09.855.083,1.3c-.007.478.222,1.116-.1,1.387C2763.45,475.585,2762.833,475.4,2762.368,475.4Z" transform="translate(-2734.239 -465.85)" fill="#fff"/>
        <path id="Path_359" data-name="Path 359" d="M2771.218,474.1c0,.448.175,1.044-.046,1.3-.261.308-.876.079-1.338.1-.363.018-.728,0-1.092.006-.226.007-.354-.035-.348-.307.014-.745.009-1.49,0-2.235,0-.2.035-.325.281-.321q1.143.016,2.287,0c.232,0,.3.091.294.308-.011.381,0,.763,0,1.144Z" transform="translate(-2738.33 -465.917)" fill="#fff"/>
        <path id="Path_360" data-name="Path 360" d="M2710.924,482.817c-.447,0-1.044.175-1.3-.046-.307-.262-.079-.876-.1-1.338-.018-.363.005-.728-.006-1.091-.008-.227.038-.352.308-.347.745.014,1.491.009,2.235,0,.2,0,.323.037.32.282q-.015,1.144,0,2.288c0,.233-.093.3-.309.293-.381-.011-.762,0-1.144,0Z" transform="translate(-2706.117 -469.934)" fill="#fff"/>
        <path id="Path_361" data-name="Path 361" d="M2719.751,481.449c0,.448.175,1.044-.046,1.3-.262.309-.876.079-1.337.1-.363.018-.728,0-1.092.007-.226.007-.354-.036-.348-.307.014-.745.008-1.49,0-2.235,0-.2.035-.325.28-.321q1.145.016,2.288,0c.232,0,.3.09.294.307-.011.381,0,.763,0,1.144Z" transform="translate(-2710.199 -469.935)" fill="#fff"/>
        <path id="Path_362" data-name="Path 362" d="M2769.75,482.823c-.448,0-1.042.175-1.307-.045-.313-.261-.082-.876-.1-1.336-.019-.38.005-.763-.007-1.144-.007-.227.08-.3.3-.3.763.009,1.525.008,2.288,0,.2,0,.275.077.273.275-.006.762-.008,1.525,0,2.288,0,.226-.08.307-.3.3-.381-.012-.763,0-1.144,0Z" transform="translate(-2738.266 -469.936)" fill="#fff"/>
        <path id="Path_363" data-name="Path 363" d="M2777.014,482.848c-.366-.035-.951.193-1.224-.079-.3-.3-.073-.887-.1-1.348-.015-.311.02-.626-.008-.935-.034-.37.056-.529.472-.5.656.038,1.317.023,1.975,0,.3-.008.437.052.424.394-.026.692-.026,1.387,0,2.079.013.34-.119.414-.422.395C2777.788,482.831,2777.44,482.848,2777.014,482.848Z" transform="translate(-2742.287 -469.925)" fill="#fff"/>
        <path id="Path_364" data-name="Path 364" d="M2703.55,490.106c-.445,0-1.02.231-1.3-.047s-.09-.855-.084-1.3c.006-.477-.221-1.113.1-1.389.273-.235.89-.087,1.355-.08.446.006,1.022-.191,1.3.081s.09.855.084,1.3c-.006.478.22,1.116-.1,1.388C2704.633,490.287,2704.015,490.106,2703.55,490.106Z" transform="translate(-2702.09 -473.887)" fill="#fff"/>
        <path id="Path_365" data-name="Path 365" d="M2710.923,490.225c-.447-.02-1.041.128-1.3-.1-.305-.269-.077-.879-.1-1.34-.017-.346.01-.694-.007-1.039-.015-.273.044-.41.363-.4.709.021,1.421.014,2.131,0,.248,0,.381.04.373.336q-.027,1.091,0,2.183c.007.284-.1.358-.365.346-.363-.017-.728,0-1.091,0Z" transform="translate(-2706.117 -473.949)" fill="#fff"/>
        <path id="Path_366" data-name="Path 366" d="M2778.568,488.8c0,.448.176,1.044-.045,1.3-.262.309-.877.079-1.337.1-.364.018-.729-.012-1.091.009-.282.016-.356-.1-.35-.361.015-.71.019-1.422,0-2.132-.008-.3.1-.383.389-.376q1.065.026,2.131,0c.281-.007.361.1.349.361-.018.363,0,.728,0,1.092Z" transform="translate(-2742.346 -473.951)" fill="#fff"/>
        <path id="Path_367" data-name="Path 367" d="M2785.906,488.655c-.053.527.175,1.1-.1,1.387s-.854.091-1.3.087c-.479,0-1.1.215-1.4-.094-.275-.282-.077-.891-.076-1.355,0-.447-.191-1.021.077-1.305s.852-.091,1.3-.088c.479,0,1.112-.218,1.391.1C2786.042,487.653,2785.889,488.271,2785.906,488.655Z" transform="translate(-2746.296 -473.88)" fill="#fff"/>
        <path id="Path_368" data-name="Path 368" d="M2790.437,488.673c0-.445-.231-1.021.049-1.3s.856-.089,1.3-.083c.478.007,1.114-.221,1.388.1.235.275.086.891.078,1.356-.007.446.192,1.022-.082,1.3s-.855.09-1.3.083c-.478-.006-1.117.222-1.388-.1C2790.255,489.756,2790.437,489.138,2790.437,488.673Z" transform="translate(-2750.329 -473.88)" fill="#fff"/>
        <path id="Path_369" data-name="Path 369" d="M2797.788,488.67c.008-.445-.23-1.022.053-1.3s.856-.088,1.3-.081c.478.008,1.113-.223,1.388.1.234.278.084.892.077,1.358-.008.446.193,1.023-.084,1.3s-.856.089-1.3.081c-.478-.008-1.116.223-1.387-.1C2797.606,489.752,2797.788,489.136,2797.788,488.67Z" transform="translate(-2754.348 -473.88)" fill="#fff"/>
        <path id="Path_370" data-name="Path 370" d="M2805.143,488.675c0-.446-.231-1.021.047-1.3s.855-.09,1.3-.084c.479.006,1.114-.22,1.389.1.236.273.087.89.08,1.355-.006.446.192,1.022-.081,1.3s-.854.09-1.3.084c-.478-.006-1.116.221-1.388-.1C2804.961,489.759,2805.143,489.14,2805.143,488.675Z" transform="translate(-2758.366 -473.88)" fill="#fff"/>
        <path id="Path_371" data-name="Path 371" d="M2813.872,490.149c-.46-.057-1.054.192-1.348-.109-.267-.274-.075-.858-.075-1.3,0-.464-.2-1.062.079-1.355s.885-.091,1.346-.091,1.054-.2,1.347.092c.269.271.076.858.075,1.3,0,.464.2,1.061-.078,1.356S2814.333,490.093,2813.872,490.149Z" transform="translate(-2762.372 -473.882)" fill="#fff"/>
        <path id="Path_372" data-name="Path 372" d="M2819.8,488.708c.059-.46-.2-1.072.114-1.34.263-.227.857-.086,1.3-.08.463.006,1.063-.2,1.354.082s.09.886.089,1.348.209,1.073-.1,1.339c-.261.227-.857.087-1.3.08-.464-.007-1.061.2-1.355-.082S2819.851,489.169,2819.8,488.708Z" transform="translate(-2766.399 -473.884)" fill="#fff"/>
        <path id="Path_373" data-name="Path 373" d="M2829.971,488.74c0,.446.232,1.021-.044,1.3s-.855.09-1.3.085c-.478,0-1.113.22-1.389-.1-.236-.272-.088-.89-.082-1.354.005-.446-.191-1.022.08-1.3s.855-.09,1.3-.086c.478,0,1.117-.22,1.388.1C2830.153,487.655,2829.971,488.275,2829.971,488.74Z" transform="translate(-2770.413 -473.88)" fill="#fff"/>
        <path id="Path_374" data-name="Path 374" d="M2830.071,496.233c-.034.366.193.951-.079,1.224-.3.3-.887.074-1.348.1-.328.016-.659-.014-.987.008s-.468-.053-.451-.419c.029-.675.021-1.352,0-2.027-.008-.3.05-.438.394-.424.692.026,1.387.026,2.079,0,.339-.013.416.117.4.422C2830.054,495.458,2830.071,495.806,2830.071,496.233Z" transform="translate(-2770.473 -477.966)" fill="#fff"/>
        <path id="Path_375" data-name="Path 375" d="M2830.071,510.477c-.034.366.193.951-.079,1.224-.295.3-.887.074-1.348.1-.328.016-.66-.014-.987.008s-.468-.052-.452-.418c.029-.675.02-1.352,0-2.027-.008-.3.049-.439.393-.425.692.027,1.387.026,2.079,0,.338-.013.416.116.4.421C2830.054,509.7,2830.071,510.05,2830.071,510.477Z" transform="translate(-2770.473 -485.751)" fill="#fff"/>
        <path id="Path_376" data-name="Path 376" d="M2791.718,518.69c-.366-.035-.951.193-1.224-.08-.3-.3-.073-.887-.1-1.348-.015-.312.02-.626-.008-.935-.035-.369.056-.528.472-.5.656.038,1.317.023,1.975,0,.3-.008.437.051.424.394-.027.692-.027,1.387,0,2.079.013.34-.119.414-.422.4C2792.493,518.672,2792.145,518.69,2791.718,518.69Z" transform="translate(-2750.324 -489.515)" fill="#fff"/>
        <path id="Path_377" data-name="Path 377" d="M2800.563,517.231c0,.446.231,1.021-.047,1.3s-.855.09-1.3.084c-.478-.006-1.113.22-1.389-.1-.236-.274-.087-.891-.08-1.355.006-.446-.192-1.022.081-1.3s.855-.09,1.3-.084c.478.006,1.116-.221,1.388.1C2800.745,516.147,2800.563,516.766,2800.563,517.231Z" transform="translate(-2754.339 -489.452)" fill="#fff"/>
        <path id="Path_378" data-name="Path 378" d="M2806.492,518.634c-.446-.043-1.02.183-1.306-.088s-.091-.853-.089-1.3c0-.479-.214-1.1.093-1.4.281-.277.891-.077,1.354-.078.447,0,1.021-.19,1.306.076s.091.852.089,1.3c0,.478.214,1.094-.093,1.4C2807.564,518.825,2806.955,518.594,2806.492,518.634Z" transform="translate(-2758.351 -489.452)" fill="#fff"/>
        <path id="Path_379" data-name="Path 379" d="M2813.84,518.593c-.446,0-1.021.232-1.3-.043s-.091-.854-.086-1.3c0-.478-.219-1.114.1-1.39.271-.236.89-.088,1.354-.082.446.006,1.021-.19,1.3.08s.091.853.086,1.3c0,.478.22,1.117-.1,1.388C2814.926,518.775,2814.305,518.593,2813.84,518.593Z" transform="translate(-2762.37 -489.458)" fill="#fff"/>
        <path id="Path_380" data-name="Path 380" d="M2819.846,517.163c0-.445-.231-1.022.049-1.3s.856-.089,1.3-.083c.478.007,1.114-.222,1.388.1.235.275.086.891.078,1.356-.007.446.192,1.022-.082,1.3s-.855.089-1.3.083c-.478-.007-1.117.222-1.388-.1C2819.664,518.245,2819.846,517.627,2819.846,517.163Z" transform="translate(-2766.403 -489.452)" fill="#fff"/>
        <path id="Path_381" data-name="Path 381" d="M2709.578,524.573c0-.33.014-.659,0-.988-.015-.274.044-.41.362-.4.711.021,1.421.014,2.132,0,.248,0,.381.041.373.337-.018.727-.012,1.456,0,2.183,0,.228-.041.351-.31.346q-1.118-.021-2.235,0c-.258,0-.328-.1-.32-.336C2709.588,525.335,2709.578,524.954,2709.578,524.573Z" transform="translate(-2706.179 -493.54)" fill="#fff"/>
        <path id="Path_382" data-name="Path 382" d="M2718.311,526.049c-.33,0-.66-.014-.988,0-.273.015-.41-.045-.4-.363.021-.71.014-1.421,0-2.131,0-.249.041-.381.336-.374.728.019,1.456.012,2.184,0,.228,0,.351.04.346.309q-.021,1.117,0,2.235c0,.258-.1.329-.337.32C2719.073,526.038,2718.692,526.049,2718.311,526.049Z" transform="translate(-2710.196 -493.54)" fill="#fff"/>
        <path id="Path_383" data-name="Path 383" d="M2806.558,523.123c.451.054,1.028-.185,1.307.1s.076.856.083,1.3c.009.465.158,1.079-.076,1.358-.274.325-.91.094-1.388.1-.444.007-1.022.2-1.3-.082s-.077-.856-.084-1.3c-.008-.465-.158-1.08.076-1.358C2805.452,522.917,2806.088,523.187,2806.558,523.123Z" transform="translate(-2758.358 -493.482)" fill="#fff"/>
        <path id="Path_384" data-name="Path 384" d="M2718.258,533.3c-.446,0-1.022.232-1.305-.043s-.09-.855-.085-1.3c0-.478-.22-1.113.1-1.389.271-.236.889-.088,1.354-.082.446.005,1.022-.19,1.3.079s.09.854.086,1.3c0,.478.219,1.116-.1,1.388C2719.343,533.479,2718.722,533.3,2718.258,533.3Z" transform="translate(-2710.127 -497.495)" fill="#fff"/>
        <path id="Path_385" data-name="Path 385" d="M2724.3,531.89c0-.448-.175-1.044.045-1.3.262-.308.877-.079,1.338-.1.363-.018.728.005,1.092-.007.227-.007.352.038.347.309-.014.745-.009,1.49,0,2.235,0,.2-.037.323-.282.32q-1.143-.016-2.287,0c-.233,0-.3-.093-.294-.309.012-.381,0-.763,0-1.144Z" transform="translate(-2714.192 -497.497)" fill="#fff"/>
        <path id="Path_386" data-name="Path 386" d="M2806.5,533.419c-.447-.021-1.042.126-1.3-.1-.3-.269-.077-.879-.1-1.341-.017-.346.01-.694-.008-1.039-.015-.275.047-.409.365-.4.71.022,1.421.014,2.132,0,.25,0,.379.045.372.338q-.029,1.091,0,2.183c.007.286-.107.356-.366.344-.363-.016-.727,0-1.092,0Z" transform="translate(-2758.36 -497.557)" fill="#fff"/>
        <path id="Path_387" data-name="Path 387" d="M2724.263,539.216c.008-.445-.231-1.022.053-1.3s.857-.088,1.3-.081c.477.008,1.113-.223,1.387.1.234.278.085.892.076,1.358-.008.446.193,1.023-.084,1.3s-.856.089-1.3.081c-.477-.008-1.116.223-1.387-.1C2724.081,540.3,2724.263,539.681,2724.263,539.216Z" transform="translate(-2714.161 -501.507)" fill="#fff"/>
        <path id="Path_388" data-name="Path 388" d="M2732.9,540.744c-.366-.035-.951.193-1.224-.08-.3-.3-.072-.887-.1-1.348-.015-.294.023-.592-.009-.883-.046-.415.068-.587.526-.556.638.042,1.282.024,1.923.005.3-.009.436.053.423.395-.026.692-.026,1.386,0,2.079.013.341-.121.413-.423.395C2733.674,540.727,2733.325,540.744,2732.9,540.744Z" transform="translate(-2718.176 -501.568)" fill="#fff"/>
        <path id="Path_389" data-name="Path 389" d="M2741.769,539.3c-.052.393.213,1.027-.107,1.3-.273.235-.888.083-1.351.083s-1.078.152-1.352-.083c-.32-.275-.093-.909-.1-1.385-.007-.461-.2-1.059.08-1.35s.884-.073,1.345-.092c.379-.016.761.012,1.141-.008.281-.015.36.1.348.361C2741.756,538.486,2741.769,538.85,2741.769,539.3Z" transform="translate(-2722.148 -501.479)" fill="#fff"/>
        <path id="Path_390" data-name="Path 390" d="M2799.16,540.721c-.448,0-1.042.175-1.306-.045-.314-.261-.082-.876-.1-1.336-.019-.38.005-.763-.007-1.143-.007-.227.079-.3.3-.3.763.01,1.525.008,2.288,0,.2,0,.274.077.273.275-.006.762-.009,1.525,0,2.288,0,.226-.079.307-.3.3-.381-.012-.762,0-1.143,0Z" transform="translate(-2754.34 -501.581)" fill="#fff"/>
        <path id="Path_391" data-name="Path 391" d="M2741.745,547.1c0,.445.231,1.021-.049,1.3s-.856.089-1.3.083c-.478-.007-1.113.221-1.389-.1-.235-.275-.085-.891-.079-1.356.007-.446-.192-1.022.082-1.3s.856-.09,1.3-.083c.478.006,1.116-.222,1.388.1C2741.927,546.018,2741.745,546.636,2741.745,547.1Z" transform="translate(-2722.19 -505.776)" fill="#fff"/>
        <path id="Path_392" data-name="Path 392" d="M2791.719,548.561c-.366-.035-.952.193-1.224-.079-.3-.295-.073-.886-.1-1.348-.016-.328.015-.66-.009-.987s.054-.467.419-.452c.675.029,1.352.021,2.028,0,.3-.008.438.05.425.394-.027.692-.027,1.386,0,2.079.012.339-.118.415-.422.4C2792.494,548.544,2792.146,548.561,2791.719,548.561Z" transform="translate(-2750.324 -505.842)" fill="#fff"/>
        <path id="Path_393" data-name="Path 393" d="M2740.31,555.816c-.445,0-1.021.231-1.3-.049s-.089-.856-.083-1.3c.007-.478-.221-1.114.1-1.388.275-.235.891-.086,1.356-.078.446.007,1.022-.192,1.3.082s.09.855.084,1.3c-.007.478.221,1.116-.1,1.387C2741.394,556,2740.776,555.816,2740.31,555.816Z" transform="translate(-2722.183 -509.802)" fill="#fff"/>
        <path id="Path_394" data-name="Path 394" d="M2790.385,554.419c.058-.46-.192-1.054.109-1.348.274-.267.858-.075,1.3-.074.464,0,1.063-.2,1.356.078s.091.885.09,1.346.205,1.055-.092,1.348c-.271.268-.857.076-1.3.075-.464,0-1.061.2-1.356-.078S2790.442,554.88,2790.385,554.419Z" transform="translate(-2750.325 -509.797)" fill="#fff"/>
        <path id="Path_395" data-name="Path 395" d="M2741.841,561.891c-.032.382.2.991-.081,1.274-.3.308-.92.073-1.4.1-.311.016-.624-.015-.935.008s-.467-.053-.451-.419c.029-.675.021-1.352,0-2.027-.008-.3.049-.438.393-.425.692.027,1.387.026,2.079,0,.339-.013.417.117.4.421C2741.824,561.15,2741.841,561.481,2741.841,561.891Z" transform="translate(-2722.25 -513.881)" fill="#fff"/>
        <path id="Path_396" data-name="Path 396" d="M2747.6,563.26c-.366-.035-.951.193-1.224-.08-.3-.3-.072-.887-.1-1.348-.016-.294.023-.592-.009-.883-.046-.415.069-.587.525-.556.639.042,1.282.024,1.923,0,.3-.008.436.053.423.395-.027.692-.027,1.387,0,2.079.013.341-.121.414-.423.395C2748.378,563.243,2748.03,563.26,2747.6,563.26Z" transform="translate(-2726.212 -513.874)" fill="#fff"/>
        <path id="Path_397" data-name="Path 397" d="M2784.449,563.232c-.447,0-1.044.176-1.3-.045-.308-.262-.08-.877-.1-1.338-.018-.363.005-.728-.006-1.092-.007-.226.035-.353.307-.348.745.015,1.49.009,2.236,0,.2,0,.324.035.321.281q-.015,1.143,0,2.288c0,.232-.09.3-.308.294-.381-.011-.762,0-1.144,0Z" transform="translate(-2746.304 -513.885)" fill="#fff"/>
        <path id="Path_398" data-name="Path 398" d="M2747.7,570.563c-.461-.057-1.054.192-1.349-.108-.268-.274-.076-.858-.075-1.3,0-.464-.2-1.062.078-1.356s.885-.091,1.346-.091,1.054-.2,1.348.092c.269.271.076.857.076,1.3,0,.464.2,1.061-.078,1.356S2748.161,570.506,2747.7,570.563Z" transform="translate(-2726.204 -517.834)" fill="#fff"/>
        <path id="Path_399" data-name="Path 399" d="M2775.766,569.111c0-.448-.176-1.044.045-1.3.261-.307.877-.079,1.338-.1.363-.018.728.005,1.092-.006.227-.008.353.038.347.308-.014.745-.008,1.49,0,2.235,0,.2-.037.323-.281.32q-1.144-.016-2.288,0c-.233,0-.3-.093-.294-.309.011-.381,0-.763,0-1.144Z" transform="translate(-2742.323 -517.841)" fill="#fff"/>
        <path id="Path_400" data-name="Path 400" d="M2747.672,577.911c-.446-.043-1.021.183-1.305-.088s-.092-.853-.089-1.3c0-.478-.214-1.1.094-1.4.281-.276.89-.077,1.354-.077.447,0,1.021-.19,1.306.076s.091.852.088,1.3c0,.478.214,1.094-.093,1.4C2748.744,578.1,2748.135,577.87,2747.672,577.911Z" transform="translate(-2726.202 -521.851)" fill="#fff"/>
        <path id="Path_401" data-name="Path 401" d="M2756.512,576.564c0,.447.176,1.044-.045,1.3-.261.309-.877.079-1.338.1-.364.018-.729,0-1.092.007-.225.007-.354-.034-.349-.307.014-.745.013-1.49,0-2.235,0-.254.092-.326.334-.322.728.011,1.456.015,2.184,0,.281-.006.362.1.349.361-.017.363,0,.728,0,1.092Z" transform="translate(-2730.292 -521.921)" fill="#fff"/>
        <path id="Path_402" data-name="Path 402" d="M2763.895,576.647c-.035.366.193.951-.079,1.224-.3.3-.887.073-1.348.1-.312.015-.626-.02-.935.008-.369.034-.528-.057-.5-.472.038-.656.023-1.317,0-1.975-.009-.3.052-.437.394-.424.693.027,1.387.026,2.079,0,.34-.013.415.119.4.422C2763.878,575.872,2763.895,576.22,2763.895,576.647Z" transform="translate(-2734.302 -521.918)" fill="#fff"/>
        <path id="Path_403" data-name="Path 403" d="M2769.741,577.991c-.447-.02-1.042.126-1.3-.1-.3-.269-.077-.879-.1-1.34-.017-.346.01-.694-.008-1.04-.014-.275.047-.408.365-.4.709.022,1.421.014,2.131,0,.251,0,.379.044.372.338q-.027,1.091,0,2.183c.007.287-.107.356-.366.344-.363-.016-.728,0-1.092,0Z" transform="translate(-2738.267 -521.92)" fill="#fff"/>
        <path id="Path_404" data-name="Path 404" d="M2778.5,576.5c0,.446.232,1.021-.043,1.305s-.855.09-1.3.086c-.478,0-1.114.219-1.39-.1-.236-.271-.088-.89-.082-1.354.005-.447-.191-1.022.08-1.3s.854-.091,1.3-.087c.478,0,1.117-.219,1.389.1C2778.686,575.42,2778.5,576.04,2778.5,576.5Z" transform="translate(-2742.282 -521.85)" fill="#fff"/>
      </g>
      <g id="Group_142" data-name="Group 142" transform="translate(11.3 44.975)" opacity="0.4">
        <path id="Path_405" data-name="Path 405" d="M2749.121,459.341c-.051.393.214,1.027-.106,1.3-.273.235-.888.083-1.351.083s-1.078.152-1.352-.083c-.32-.275-.093-.909-.1-1.385s-.2-1.06.08-1.35.884-.073,1.344-.093c.38-.015.761.012,1.14-.008.281-.015.361.1.349.36C2749.108,458.531,2749.121,458.895,2749.121,459.341Z" transform="translate(-2726.142 -457.754)" fill="#fff"/>
        <path id="Path_406" data-name="Path 406" d="M2740.307,468.1c-.463-.02-1.078.132-1.35-.106-.317-.278-.092-.91-.1-1.387-.006-.461-.2-1.06.082-1.349s.884-.072,1.346-.091c.363-.015.728.019,1.089-.01.334-.026.408.11.4.417-.02.708-.018,1.418,0,2.127.007.289-.076.4-.377.385-.362-.023-.726-.005-1.089-.005Z" transform="translate(-2722.123 -461.773)" fill="#fff"/>
        <path id="Path_407" data-name="Path 407" d="M2747.795,465.173c.377.052.988-.208,1.254.107.225.267.083.857.077,1.3-.006.481.2,1.11-.079,1.4-.312.32-.95.09-1.444.1-.443.007-1.018.2-1.3-.08s-.071-.853-.088-1.3c-.014-.379.019-.762-.009-1.14-.026-.337.114-.416.418-.4C2746.987,465.19,2747.352,465.173,2747.795,465.173Z" transform="translate(-2726.15 -461.781)" fill="#fff"/>
        <path id="Path_408" data-name="Path 408" d="M2754.931,468.148c-.378-.033-.984.2-1.267-.082-.309-.3-.075-.917-.1-1.395-.018-.38.005-.761-.007-1.141-.007-.222.073-.306.3-.3q1.167.014,2.334,0c.236,0,.292.1.289.312-.007.761-.01,1.522,0,2.283,0,.245-.077.339-.327.329C2755.777,468.137,2755.4,468.148,2754.931,468.148Z" transform="translate(-2730.166 -461.839)" fill="#fff"/>
        <path id="Path_409" data-name="Path 409" d="M2734.416,474.042c-.049.393.209,1.009-.1,1.31-.284.274-.889.072-1.352.078s-1.078.155-1.353-.08c-.324-.274-.094-.908-.1-1.384s-.2-1.059.079-1.351.882-.075,1.343-.094c.38-.016.762.012,1.141-.008.277-.014.365.089.352.358C2734.4,473.232,2734.416,473.6,2734.416,474.042Z" transform="translate(-2718.104 -465.792)" fill="#fff"/>
        <path id="Path_410" data-name="Path 410" d="M2738.935,473.927c0-.447-.175-1.04.045-1.3.261-.311.874-.081,1.334-.1.38-.019.761.009,1.141-.008.26-.011.37.063.364.346q-.025,1.115,0,2.23c.006.278-.094.355-.36.35-.726-.014-1.453-.016-2.179,0-.283.006-.408-.066-.389-.373.023-.379.005-.76.005-1.141Z" transform="translate(-2722.167 -465.793)" fill="#fff"/>
        <path id="Path_411" data-name="Path 411" d="M2756.441,474.039c0,.463.181,1.081-.047,1.351-.271.32-.908.093-1.384.1-.461.007-1.06.2-1.35-.08s-.074-.884-.092-1.345c-.016-.38.012-.761-.008-1.141-.015-.282.1-.353.361-.348.726.014,1.453.016,2.179,0,.286-.006.407.072.387.375-.023.361-.005.726-.005,1.089Z" transform="translate(-2730.167 -465.854)" fill="#fff"/>
        <path id="Path_412" data-name="Path 412" d="M2725.562,482.81c-.446,0-1.041.175-1.3-.045-.309-.261-.081-.874-.1-1.334-.018-.38.009-.761-.007-1.141-.012-.263.066-.368.347-.362q1.115.024,2.231,0c.28-.006.353.1.347.361-.013.726-.016,1.453,0,2.178.008.286-.07.407-.374.388-.379-.023-.761-.006-1.142-.006Z" transform="translate(-2714.094 -469.873)" fill="#fff"/>
        <path id="Path_413" data-name="Path 413" d="M2734.414,481.456c-.052.377.208.988-.109,1.253-.27.225-.858.083-1.3.076-.481-.008-1.111.206-1.4-.081-.317-.313-.089-.951-.1-1.445-.006-.443-.2-1.019.082-1.3s.854-.068,1.3-.087c.311-.013.627.033.932-.01.527-.075.664.149.6.631A8.484,8.484,0,0,0,2734.414,481.456Z" transform="translate(-2718.102 -469.813)" fill="#fff"/>
        <path id="Path_414" data-name="Path 414" d="M2740.183,482.777c-.377-.053-.989.209-1.253-.109-.224-.27-.083-.857-.075-1.3.007-.48-.207-1.11.08-1.4.313-.317.951-.089,1.445-.1.444-.006,1.02-.2,1.3.082s.068.853.087,1.3c.014.311-.033.627.011.932.075.527-.149.664-.631.6A8.463,8.463,0,0,0,2740.183,482.777Z" transform="translate(-2722.122 -469.8)" fill="#fff"/>
        <path id="Path_415" data-name="Path 415" d="M2754.968,482.779c-.393-.051-1.028.214-1.3-.107-.235-.273-.083-.888-.083-1.351s-.152-1.079.083-1.352c.275-.319.908-.092,1.386-.1.461-.007,1.06-.2,1.349.08s.073.884.093,1.345c.015.38-.012.761.008,1.141.015.281-.1.36-.361.347C2755.777,482.766,2755.414,482.779,2754.968,482.779Z" transform="translate(-2730.182 -469.803)" fill="#fff"/>
        <path id="Path_416" data-name="Path 416" d="M2762.244,482.777c-.376-.05-.987.207-1.254-.105-.226-.265-.085-.856-.079-1.3.006-.481-.2-1.11.077-1.4.309-.323.948-.091,1.442-.1.444-.007,1.019-.194,1.3.079s.073.852.09,1.3c.015.4-.011.8.008,1.192.015.282-.1.359-.361.347C2763.087,482.764,2762.707,482.777,2762.244,482.777Z" transform="translate(-2734.177 -469.801)" fill="#fff"/>
        <path id="Path_417" data-name="Path 417" d="M2716.88,488.63c0-.446-.175-1.04.045-1.3.261-.309.874-.08,1.334-.1.38-.019.762.009,1.141-.008.262-.012.369.065.363.346q-.025,1.115,0,2.23c.007.28-.1.354-.36.349-.726-.014-1.453-.016-2.179,0-.285.006-.407-.069-.389-.374.024-.379.006-.761.006-1.141Z" transform="translate(-2710.113 -473.83)" fill="#fff"/>
        <path id="Path_418" data-name="Path 418" d="M2727.034,488.742c0,.464.181,1.079-.048,1.353-.269.324-.907.093-1.383.1s-1.058.2-1.351-.078-.075-.883-.095-1.344c-.017-.4.007-.8-.006-1.193-.007-.228.082-.3.3-.3q1.167.014,2.334,0c.24,0,.29.109.285.316-.009.38,0,.761,0,1.141Z" transform="translate(-2714.092 -473.895)" fill="#fff"/>
        <path id="Path_419" data-name="Path 419" d="M2734.447,488.795c0,.447.175,1.04-.045,1.3-.261.309-.875.08-1.334.1-.38.018-.761-.01-1.141.008-.263.012-.368-.066-.362-.347q.025-1.115,0-2.23c-.007-.28.1-.353.361-.348.726.014,1.453.015,2.178,0,.285-.007.407.07.388.375-.024.379-.006.76-.006,1.141Z" transform="translate(-2718.176 -473.892)" fill="#fff"/>
        <path id="Path_420" data-name="Path 420" d="M2760.908,488.669c.02-.463-.131-1.078.107-1.349.278-.316.91-.092,1.387-.1.462-.006,1.06-.2,1.349.082s.072.885.091,1.346c.015.363-.019.728.009,1.089.027.336-.113.407-.417.4-.708-.019-1.418-.018-2.127,0-.29.007-.4-.078-.384-.378.022-.361.005-.726.005-1.089Z" transform="translate(-2734.198 -473.821)" fill="#fff"/>
        <path id="Path_421" data-name="Path 421" d="M2768.347,488.63c0-.446-.175-1.04.045-1.3.261-.309.875-.08,1.334-.1.379-.019.761.009,1.142-.008.262-.012.368.065.362.346q-.025,1.115,0,2.23c.006.28-.1.354-.361.349-.726-.014-1.453-.016-2.178,0-.285.006-.408-.069-.388-.374.023-.379.006-.761.006-1.141Z" transform="translate(-2738.243 -473.83)" fill="#fff"/>
        <path id="Path_422" data-name="Path 422" d="M2704.972,496.1c0,.463.182,1.081-.047,1.35-.271.32-.908.093-1.384.1s-1.059.2-1.35-.081-.073-.884-.091-1.345c-.016-.38.012-.762-.008-1.141-.016-.283.1-.352.362-.347.744.013,1.487.012,2.231,0,.241,0,.343.068.333.322-.016.38,0,.761,0,1.141Z" transform="translate(-2702.037 -477.911)" fill="#fff"/>
        <path id="Path_423" data-name="Path 423" d="M2712.429,496.186c-.035.38.2.976-.084,1.27s-.884.074-1.345.094c-.379.016-.761-.012-1.141.008-.276.015-.357-.09-.352-.357q.023-1.089,0-2.178c-.005-.282.063-.4.371-.392.726.02,1.453.019,2.179,0,.3-.008.4.093.377.384C2712.414,495.376,2712.429,495.741,2712.429,496.186Z" transform="translate(-2706.119 -477.909)" fill="#fff"/>
        <path id="Path_424" data-name="Path 424" d="M2716.807,495.951c.054-.391-.216-1.026.11-1.3.278-.234.889-.084,1.354-.078s1.069-.2,1.352.078c.309.3.075.916.1,1.394.018.38-.005.761.006,1.141.007.223-.073.305-.3.3q-1.167-.014-2.334,0c-.236,0-.294-.1-.288-.312C2716.814,496.8,2716.807,496.415,2716.807,495.951Z" transform="translate(-2710.079 -477.841)" fill="#fff"/>
        <path id="Path_425" data-name="Path 425" d="M2727.064,496.1c-.051.393.214,1.028-.107,1.3-.274.234-.888.083-1.352.082s-1.079.152-1.351-.083c-.32-.275-.094-.909-.1-1.386s-.2-1.06.08-1.35.884-.073,1.345-.092c.38-.015.762.012,1.141-.008.281-.015.359.1.347.361C2727.051,495.293,2727.064,495.656,2727.064,496.1Z" transform="translate(-2714.086 -477.847)" fill="#fff"/>
        <path id="Path_426" data-name="Path 426" d="M2760.983,496.029c0-.464-.181-1.078.047-1.354.269-.326.906-.093,1.382-.1s1.069-.2,1.351.076c.308.3.075.917.1,1.395.017.379-.006.761.007,1.141.007.225-.077.3-.3.3q-1.167-.014-2.334,0c-.238,0-.292-.105-.287-.314.01-.38,0-.761,0-1.141Z" transform="translate(-2734.217 -477.837)" fill="#fff"/>
        <path id="Path_427" data-name="Path 427" d="M2771.252,496.187c-.033.378.2.984-.082,1.267-.3.309-.917.076-1.395.1-.379.018-.761-.005-1.141.006-.222.007-.305-.073-.3-.3q.013-1.167,0-2.334c0-.236.1-.291.312-.289.76.008,1.522.01,2.282,0,.245,0,.339.077.329.326C2771.241,495.341,2771.252,495.722,2771.252,496.187Z" transform="translate(-2738.271 -477.912)" fill="#fff"/>
        <path id="Path_428" data-name="Path 428" d="M2778.6,496.192c-.04.38.2.978-.089,1.268s-.886.071-1.347.09c-.362.015-.728-.019-1.089.01-.336.027-.406-.114-.4-.418q.028-1.062,0-2.127c-.007-.291.079-.392.378-.384q1.089.028,2.179,0c.308-.009.385.11.37.392C2778.586,495.384,2778.6,495.748,2778.6,496.192Z" transform="translate(-2742.287 -477.909)" fill="#fff"/>
        <path id="Path_429" data-name="Path 429" d="M2785.957,496.187c-.033.378.2.984-.081,1.267-.3.309-.917.076-1.4.1-.379.018-.761-.005-1.141.006-.222.007-.305-.073-.3-.3q.014-1.167,0-2.334c0-.236.1-.291.312-.289.761.008,1.522.01,2.283,0,.244,0,.339.077.329.326C2785.945,495.341,2785.957,495.722,2785.957,496.187Z" transform="translate(-2746.308 -477.912)" fill="#fff"/>
        <path id="Path_430" data-name="Path 430" d="M2791.911,494.581c.377.051.988-.208,1.253.107.225.268.083.857.078,1.3-.006.48.205,1.11-.079,1.4-.311.32-.949.09-1.444.1-.444.006-1.019.195-1.3-.081s-.071-.853-.088-1.3c-.015-.38.019-.762-.01-1.141-.026-.336.114-.416.418-.4C2791.1,494.6,2791.467,494.581,2791.911,494.581Z" transform="translate(-2750.263 -477.854)" fill="#fff"/>
        <path id="Path_431" data-name="Path 431" d="M2799.2,494.644c.465,0,1.079-.181,1.353.047.325.27.094.907.1,1.383s.2,1.059-.078,1.352-.883.075-1.343.094c-.4.017-.8-.006-1.193.007-.228.007-.3-.082-.3-.3q.014-1.167,0-2.334c0-.239.11-.29.316-.285.38.009.761,0,1.141,0Z" transform="translate(-2754.345 -477.88)" fill="#fff"/>
        <path id="Path_432" data-name="Path 432" d="M2806.408,497.489c-.391-.054-1.026.216-1.3-.109-.234-.278-.084-.89-.078-1.354s-.2-1.069.078-1.351c.3-.309.917-.076,1.394-.1.38-.018.761.005,1.141-.006.222-.007.305.073.3.3q-.014,1.167,0,2.334c0,.236-.1.294-.313.289C2807.254,497.481,2806.873,497.489,2806.408,497.489Z" transform="translate(-2758.292 -477.845)" fill="#fff"/>
        <path id="Path_433" data-name="Path 433" d="M2813.925,494.64c.38,0,.761.009,1.141,0,.222-.007.305.073.3.3q-.014,1.167,0,2.334c0,.236-.1.291-.312.289-.76-.007-1.521-.01-2.283,0-.244,0-.333-.077-.329-.326.011-.761.012-1.522,0-2.283,0-.26.1-.324.339-.316C2813.164,494.649,2813.544,494.639,2813.925,494.64Z" transform="translate(-2762.382 -477.912)" fill="#fff"/>
        <path id="Path_434" data-name="Path 434" d="M2819.811,495.973c0-.446-.175-1.039.046-1.3.26-.312.874-.095,1.333-.1.479-.006,1.1-.207,1.4.08s.073.916.095,1.394c.017.362-.011.727.009,1.089.015.277-.091.356-.358.351-.726-.015-1.453-.023-2.178,0-.344.013-.406-.131-.39-.426.02-.362,0-.726,0-1.089Z" transform="translate(-2766.372 -477.837)" fill="#fff"/>
        <path id="Path_435" data-name="Path 435" d="M2747.616,504.836c-.393-.051-1.028.214-1.3-.107-.235-.273-.083-.888-.083-1.351s-.152-1.078.082-1.352c.276-.32.909-.093,1.386-.1.461-.007,1.06-.2,1.35.08s.074.884.093,1.345c.016.38-.012.762.008,1.141.015.28-.1.36-.36.348C2748.425,504.822,2748.062,504.836,2747.616,504.836Z" transform="translate(-2726.164 -481.858)" fill="#fff"/>
        <path id="Path_436" data-name="Path 436" d="M2771.176,503.513c-.052.377.208.988-.108,1.253-.27.225-.857.083-1.3.076-.48-.007-1.111.206-1.4-.081-.317-.313-.09-.95-.1-1.445-.005-.443-.2-1.019.082-1.3s.854-.068,1.3-.087c.311-.014.628.033.933-.01.527-.075.664.149.6.63A8.245,8.245,0,0,0,2771.176,503.513Z" transform="translate(-2738.195 -481.868)" fill="#fff"/>
        <path id="Path_437" data-name="Path 437" d="M2778.53,503.451c-.047.391.209,1.007-.1,1.309-.282.276-.889.073-1.352.078s-1.077.155-1.354-.078c-.325-.274-.093-.908-.1-1.384s-.2-1.058.077-1.352.883-.076,1.344-.1c.4-.017.8.005,1.192-.007.226-.007.307.079.3.3C2778.521,502.605,2778.53,502.986,2778.53,503.451Z" transform="translate(-2742.215 -481.865)" fill="#fff"/>
        <path id="Path_438" data-name="Path 438" d="M2703.464,511.8c-.378-.033-.983.2-1.267-.082-.309-.3-.075-.917-.1-1.394-.018-.379.005-.761-.006-1.141-.007-.222.073-.305.3-.3q1.167.014,2.335,0c.236,0,.291.1.288.312-.007.761-.01,1.522,0,2.283,0,.245-.076.339-.325.329C2704.31,511.79,2703.929,511.8,2703.464,511.8Z" transform="translate(-2702.035 -485.699)" fill="#fff"/>
        <path id="Path_439" data-name="Path 439" d="M2710.9,511.695c-.463,0-1.081.181-1.35-.047-.32-.271-.093-.908-.1-1.384s-.2-1.06.081-1.35.885-.073,1.346-.092c.38-.016.761.012,1.141-.008.282-.015.352.1.347.362-.014.743-.012,1.487,0,2.23,0,.24-.068.344-.322.333-.38-.016-.76,0-1.141,0Z" transform="translate(-2706.048 -485.632)" fill="#fff"/>
        <path id="Path_440" data-name="Path 440" d="M2718.178,511.733c-.391-.054-1.026.216-1.3-.11-.233-.277-.084-.89-.078-1.353s-.2-1.069.078-1.352c.3-.309.917-.076,1.395-.1.38-.018.761.005,1.142-.007.222-.007.3.073.3.3q-.015,1.167,0,2.334c0,.236-.1.294-.313.289C2719.023,511.726,2718.643,511.733,2718.178,511.733Z" transform="translate(-2710.069 -485.631)" fill="#fff"/>
        <path id="Path_441" data-name="Path 441" d="M2727.094,510.392c0,.447.175,1.04-.045,1.3-.261.309-.874.08-1.334.1-.38.019-.761-.009-1.141.008-.263.012-.368-.066-.362-.347q.025-1.115,0-2.23c-.006-.28.1-.353.362-.348.726.014,1.453.016,2.178,0,.286-.007.406.07.388.374-.023.379-.006.76-.006,1.141Z" transform="translate(-2714.156 -485.696)" fill="#fff"/>
        <path id="Path_442" data-name="Path 442" d="M2747.83,508.822c.379.039.977-.2,1.268.088s.071.886.09,1.347c.015.362-.019.728.01,1.089.026.336-.113.407-.418.4q-1.063-.029-2.127,0c-.289.007-.392-.078-.385-.378q.029-1.089,0-2.179c-.008-.307.109-.386.392-.371C2747.022,508.837,2747.386,508.822,2747.83,508.822Z" transform="translate(-2726.211 -485.636)" fill="#fff"/>
        <path id="Path_443" data-name="Path 443" d="M2753.57,510.2c.048-.391-.209-1.007.1-1.309.282-.276.889-.073,1.352-.079s1.076-.155,1.353.078c.325.274.094.908.1,1.384.009.462.2,1.058-.077,1.352s-.882.076-1.343.1c-.4.017-.8-.006-1.193.006-.226.007-.306-.079-.3-.3C2753.578,511.051,2753.57,510.67,2753.57,510.2Z" transform="translate(-2730.173 -485.627)" fill="#fff"/>
        <path id="Path_444" data-name="Path 444" d="M2771.176,510.405c-.052.377.208.988-.108,1.253-.27.225-.857.083-1.3.076-.48-.008-1.111.206-1.4-.081-.317-.313-.09-.95-.1-1.445-.005-.443-.2-1.019.082-1.3s.854-.068,1.3-.087c.311-.013.628.033.933-.01.527-.075.664.149.6.631A8.236,8.236,0,0,0,2771.176,510.405Z" transform="translate(-2738.195 -485.635)" fill="#fff"/>
        <path id="Path_445" data-name="Path 445" d="M2777.029,511.759c-.447,0-1.04.175-1.3-.045-.31-.262-.08-.875-.1-1.334-.018-.38.009-.761-.008-1.141-.012-.263.066-.368.347-.362q1.115.025,2.23,0c.281-.006.353.1.348.361-.014.726-.016,1.452,0,2.178.006.286-.071.407-.375.388-.379-.023-.76-.006-1.141-.006Z" transform="translate(-2742.224 -485.696)" fill="#fff"/>
        <path id="Path_446" data-name="Path 446" d="M2793.237,510.344c-.049.391.208,1.007-.1,1.309-.284.275-.89.073-1.352.078s-1.077.155-1.354-.079c-.323-.274-.092-.908-.1-1.384s-.2-1.059.078-1.352.883-.075,1.344-.094c.4-.016.8.006,1.193-.006.228-.007.3.082.3.3C2793.228,509.5,2793.237,509.879,2793.237,510.344Z" transform="translate(-2750.253 -485.632)" fill="#fff"/>
        <path id="Path_447" data-name="Path 447" d="M2800.586,510.405c-.052.377.209.988-.108,1.253-.27.225-.858.083-1.305.076-.48-.008-1.11.206-1.4-.081-.317-.313-.09-.95-.1-1.445-.006-.443-.2-1.019.082-1.3s.853-.068,1.3-.087c.311-.013.628.033.932-.01.527-.075.664.149.6.631A8.355,8.355,0,0,0,2800.586,510.405Z" transform="translate(-2754.27 -485.635)" fill="#fff"/>
        <path id="Path_448" data-name="Path 448" d="M2806.6,508.9c.447,0,1.04-.175,1.3.045.31.261.081.874.1,1.334.019.38-.009.761.008,1.141.012.262-.064.37-.346.363q-1.115-.025-2.231,0c-.279.006-.354-.1-.349-.361.014-.726.015-1.452,0-2.178-.006-.284.069-.408.374-.389.378.023.76.005,1.141.005Z" transform="translate(-2758.361 -485.671)" fill="#fff"/>
        <path id="Path_449" data-name="Path 449" d="M2813.956,508.9c.447,0,1.04-.175,1.3.045.31.261.081.874.1,1.334.018.38-.009.761.008,1.141.012.262-.065.369-.346.363q-1.115-.025-2.231,0c-.28.006-.354-.1-.348-.36.014-.726.015-1.453,0-2.179-.006-.285.069-.407.375-.388.379.023.76.006,1.141.006Z" transform="translate(-2762.379 -485.671)" fill="#fff"/>
        <path id="Path_450" data-name="Path 450" d="M2821.338,508.825c.391.053,1.025-.216,1.3.109.233.278.084.89.078,1.353s.2,1.07-.078,1.352c-.3.309-.917.076-1.4.1-.379.018-.76-.005-1.141.006-.223.007-.305-.073-.3-.3q.015-1.167,0-2.334c0-.236.1-.294.313-.289C2820.493,508.831,2820.873,508.825,2821.338,508.825Z" transform="translate(-2766.401 -485.638)" fill="#fff"/>
        <path id="Path_451" data-name="Path 451" d="M2709.516,517.166c0-.464-.181-1.077.047-1.354.27-.327.906-.094,1.382-.1s1.07-.2,1.351.076c.307.3.075.917.1,1.395.017.38-.006.761.007,1.141.007.224-.077.3-.3.3q-1.168-.014-2.335,0c-.237,0-.292-.1-.287-.314.01-.38,0-.76,0-1.141Z" transform="translate(-2706.087 -489.39)" fill="#fff"/>
        <path id="Path_452" data-name="Path 452" d="M2718.188,518.62c-.391-.048-1.007.209-1.31-.1-.276-.283-.072-.889-.078-1.352s-.156-1.076.078-1.354c.274-.325.908-.093,1.384-.1s1.059-.2,1.352.077.076.882.1,1.343c.017.4-.006.8.006,1.193.007.226-.079.307-.3.3C2719.034,518.611,2718.653,518.62,2718.188,518.62Z" transform="translate(-2710.069 -489.392)" fill="#fff"/>
        <path id="Path_453" data-name="Path 453" d="M2725.683,515.716c.393.051,1.027-.214,1.3.107.235.273.083.888.083,1.351s.152,1.078-.083,1.352c-.275.32-.909.093-1.386.1-.461.007-1.059.2-1.35-.08s-.073-.884-.092-1.345c-.016-.38.012-.761-.008-1.141-.015-.281.1-.36.361-.348C2724.873,515.729,2725.237,515.716,2725.683,515.716Z" transform="translate(-2714.093 -489.404)" fill="#fff"/>
        <path id="Path_454" data-name="Path 454" d="M2734.49,517.326c-.034.377.2.983-.082,1.266-.3.308-.917.076-1.4.1-.379.018-.761,0-1.141.007-.223.007-.305-.074-.3-.3q.014-1.167,0-2.334c0-.236.1-.291.312-.289.761.007,1.521.01,2.283,0,.245,0,.339.078.329.326C2734.478,516.479,2734.49,516.86,2734.49,517.326Z" transform="translate(-2718.178 -489.465)" fill="#fff"/>
        <path id="Path_455" data-name="Path 455" d="M2749.191,517.323c-.036.38.2.977-.084,1.27s-.883.074-1.344.094c-.38.016-.761-.012-1.141.008-.277.015-.357-.09-.352-.358q.022-1.089,0-2.178c-.007-.282.063-.4.371-.392.726.02,1.453.019,2.178,0,.3-.008.395.093.378.385C2749.176,516.514,2749.191,516.878,2749.191,517.323Z" transform="translate(-2726.212 -489.462)" fill="#fff"/>
        <path id="Path_456" data-name="Path 456" d="M2753.643,517.119c0-.447-.175-1.041.045-1.3.261-.309.874-.08,1.334-.1.38-.018.761.009,1.142-.008.262-.012.368.066.362.347q-.025,1.115,0,2.23c.006.28-.1.353-.362.348-.726-.014-1.453-.015-2.179,0-.285.007-.406-.07-.388-.374.024-.379.006-.76.006-1.141Z" transform="translate(-2730.207 -489.401)" fill="#fff"/>
        <path id="Path_457" data-name="Path 457" d="M2727.03,524.587c0,.463.182,1.081-.047,1.35-.271.32-.907.093-1.385.1-.461.006-1.06.2-1.35-.081s-.073-.884-.091-1.345c-.016-.38.012-.761-.008-1.141-.015-.282.1-.352.362-.347.743.014,1.487.012,2.23,0,.24,0,.344.068.333.322-.016.38,0,.761,0,1.141Z" transform="translate(-2714.093 -493.483)" fill="#fff"/>
        <path id="Path_458" data-name="Path 458" d="M2732.834,525.971c-.376-.05-.988.207-1.253-.105-.226-.265-.085-.856-.08-1.3.005-.481-.2-1.11.078-1.4.309-.323.948-.091,1.442-.1.445-.007,1.019-.194,1.3.079s.073.852.09,1.3c.015.4-.012.8.008,1.193.014.282-.1.359-.362.347C2733.678,525.958,2733.3,525.971,2732.834,525.971Z" transform="translate(-2718.102 -493.409)" fill="#fff"/>
        <path id="Path_459" data-name="Path 459" d="M2747.735,523.055c.464.02,1.078-.132,1.35.106.317.278.093.91.1,1.387.006.461.2,1.06-.081,1.349s-.885.072-1.346.091c-.362.015-.728-.019-1.089.009-.335.026-.408-.11-.4-.416.019-.709.018-1.418,0-2.127-.007-.289.076-.4.377-.385.362.023.726.005,1.088.005Z" transform="translate(-2726.212 -493.429)" fill="#fff"/>
        <path id="Path_460" data-name="Path 460" d="M2756.544,524.675c-.036.38.2.977-.085,1.27s-.883.074-1.344.094c-.379.016-.761-.012-1.141.008-.277.015-.357-.09-.352-.357q.022-1.089,0-2.179c-.006-.282.063-.4.371-.392q1.088.031,2.179,0c.3-.008.4.094.377.385C2756.528,523.866,2756.544,524.23,2756.544,524.675Z" transform="translate(-2730.231 -493.48)" fill="#fff"/>
        <path id="Path_461" data-name="Path 461" d="M2784.3,525.971c-.377-.051-.988.208-1.253-.107-.225-.267-.084-.857-.078-1.3.007-.481-.2-1.11.079-1.4.312-.32.95-.09,1.444-.1.444-.006,1.019-.195,1.3.081s.072.853.088,1.3c.015.38-.019.763.009,1.141.026.336-.113.416-.418.4C2785.108,525.954,2784.744,525.971,2784.3,525.971Z" transform="translate(-2746.233 -493.409)" fill="#fff"/>
        <path id="Path_462" data-name="Path 462" d="M2793.237,524.591c-.051.393.214,1.027-.107,1.3-.273.235-.887.083-1.352.083s-1.078.152-1.351-.083c-.32-.275-.093-.909-.1-1.386-.007-.461-.2-1.059.081-1.35s.883-.073,1.344-.092c.38-.015.762.013,1.141-.008.281-.015.361.1.348.361C2793.223,523.782,2793.237,524.146,2793.237,524.591Z" transform="translate(-2750.254 -493.418)" fill="#fff"/>
        <path id="Path_463" data-name="Path 463" d="M2799.056,525.978c-.391-.054-1.026.216-1.3-.11-.233-.278-.084-.89-.078-1.353s-.2-1.07.079-1.352c.3-.309.916-.076,1.395-.1.379-.018.76.005,1.14-.006.222-.007.305.074.3.3q-.014,1.167,0,2.334c0,.236-.1.294-.313.289C2799.9,525.971,2799.52,525.978,2799.056,525.978Z" transform="translate(-2754.274 -493.417)" fill="#fff"/>
        <path id="Path_464" data-name="Path 464" d="M2734.416,531.943c-.052.393.214,1.027-.107,1.3-.274.235-.888.083-1.352.083s-1.078.152-1.352-.083c-.32-.275-.093-.909-.1-1.385s-.2-1.06.08-1.35.884-.073,1.345-.093c.38-.016.762.012,1.142-.008.28-.015.36.1.348.361C2734.4,531.134,2734.416,531.5,2734.416,531.943Z" transform="translate(-2718.104 -497.437)" fill="#fff"/>
        <path id="Path_465" data-name="Path 465" d="M2740.269,533.357c-.446,0-1.04.174-1.3-.045-.311-.261-.081-.874-.1-1.334-.018-.38.009-.761-.008-1.141-.011-.26.062-.37.345-.364q1.115.025,2.231,0c.278-.006.355.094.35.36-.014.726-.015,1.452,0,2.178.006.283-.066.409-.373.39-.379-.024-.76-.006-1.14-.006Z" transform="translate(-2722.131 -497.5)" fill="#fff"/>
        <path id="Path_466" data-name="Path 466" d="M2749.088,531.937c0,.463.182,1.081-.047,1.351-.271.32-.907.093-1.384.1-.461.007-1.06.2-1.35-.08s-.074-.884-.092-1.345c-.016-.379.012-.761-.008-1.141-.016-.282.1-.352.361-.348.726.014,1.453.016,2.179,0,.287-.006.407.072.388.375-.023.361-.006.726-.006,1.089Z" transform="translate(-2726.148 -497.5)" fill="#fff"/>
        <path id="Path_467" data-name="Path 467" d="M2754.963,533.291c-.447,0-1.039.174-1.3-.045-.312-.261-.094-.874-.1-1.333-.006-.479-.208-1.1.08-1.4s.917-.074,1.395-.1c.362-.017.727.012,1.089-.008.278-.015.357.091.352.358-.014.726-.023,1.453,0,2.179.013.345-.131.406-.426.39-.362-.02-.726,0-1.089,0Z" transform="translate(-2730.156 -497.433)" fill="#fff"/>
        <path id="Path_468" data-name="Path 468" d="M2760.993,531.866c0-.463-.182-1.081.047-1.351.271-.32.908-.093,1.384-.1s1.06-.2,1.35.08.074.884.093,1.345c.015.379-.013.761.008,1.141.016.281-.1.353-.361.348-.726-.014-1.453-.016-2.178,0-.287.006-.407-.072-.387-.375.023-.362.005-.726.005-1.089Z" transform="translate(-2734.222 -497.429)" fill="#fff"/>
        <path id="Path_469" data-name="Path 469" d="M2778.5,531.937c0,.463.181,1.081-.047,1.351-.271.32-.907.093-1.384.1-.461.007-1.06.2-1.35-.08s-.073-.884-.092-1.345c-.015-.38.012-.762-.008-1.141-.016-.282.1-.353.361-.348.726.014,1.453.016,2.179,0,.286-.006.407.071.387.375-.023.361-.006.726-.006,1.089Z" transform="translate(-2742.223 -497.5)" fill="#fff"/>
        <path id="Path_470" data-name="Path 470" d="M2783.053,531.823c0-.446-.174-1.04.045-1.3.261-.309.875-.08,1.335-.1.379-.018.76.009,1.141-.008.263-.012.368.067.362.347q-.025,1.115,0,2.23c.006.281-.1.353-.361.348-.726-.014-1.453-.016-2.179,0-.285.006-.406-.071-.388-.375.023-.379.005-.76.005-1.141Z" transform="translate(-2746.281 -497.438)" fill="#fff"/>
        <path id="Path_471" data-name="Path 471" d="M2791.914,530.423c.377.053.989-.209,1.254.109.224.27.083.857.076,1.3-.008.48.206,1.11-.081,1.4-.313.317-.95.089-1.445.1-.444.005-1.02.2-1.3-.083s-.068-.853-.087-1.3c-.014-.311.032-.628-.011-.933-.075-.527.149-.664.63-.6A8.468,8.468,0,0,0,2791.914,530.423Z" transform="translate(-2750.264 -497.445)" fill="#fff"/>
        <path id="Path_472" data-name="Path 472" d="M2800.62,531.988c0,.447.174,1.04-.045,1.3-.261.31-.874.081-1.334.1-.379.019-.761-.009-1.141.008-.262.011-.369-.064-.363-.346q.025-1.115,0-2.23c-.006-.279.1-.354.36-.349.726.014,1.453.016,2.179,0,.284-.007.408.068.388.374-.023.379-.005.76-.005,1.141Z" transform="translate(-2754.343 -497.5)" fill="#fff"/>
        <path id="Path_473" data-name="Path 473" d="M2746.2,539.216c.021-.463-.132-1.078.106-1.35.278-.318.91-.093,1.387-.1.461-.006,1.059-.2,1.349.082s.072.885.091,1.346c.015.362-.019.728.01,1.089.026.335-.111.408-.417.4-.709-.019-1.418-.018-2.126,0-.289.007-.4-.076-.385-.377.022-.362,0-.726,0-1.089Z" transform="translate(-2726.16 -501.448)" fill="#fff"/>
        <path id="Path_474" data-name="Path 474" d="M2754.941,540.682c-.391-.054-1.026.216-1.3-.11-.234-.278-.084-.89-.079-1.354s-.2-1.07.079-1.352c.3-.309.917-.076,1.395-.1.379-.018.761,0,1.141-.007.223-.007.305.074.3.3q-.015,1.167,0,2.334c0,.236-.1.294-.313.288C2755.786,540.675,2755.406,540.682,2754.941,540.682Z" transform="translate(-2730.162 -501.453)" fill="#fff"/>
        <path id="Path_475" data-name="Path 475" d="M2762.284,540.748c-.38-.036-.977.2-1.27-.085s-.075-.884-.094-1.344c-.016-.38.011-.762-.008-1.141-.015-.277.09-.357.357-.352q1.089.022,2.179,0c.281-.006.4.063.392.371q-.03,1.089,0,2.179c.008.3-.094.395-.385.378C2763.093,540.732,2762.729,540.748,2762.284,540.748Z" transform="translate(-2734.187 -501.519)" fill="#fff"/>
        <path id="Path_476" data-name="Path 476" d="M2777.222,537.773c.391.054,1.025-.216,1.3.109.234.278.084.89.078,1.354s.2,1.07-.078,1.352c-.3.309-.917.076-1.395.1-.379.018-.761-.005-1.141.006-.223.007-.305-.074-.3-.3q.015-1.167,0-2.334c0-.236.1-.294.313-.289C2776.377,537.78,2776.757,537.773,2777.222,537.773Z" transform="translate(-2742.289 -501.46)" fill="#fff"/>
        <path id="Path_477" data-name="Path 477" d="M2785.85,539.29c0,.463.181,1.081-.048,1.351-.271.32-.907.093-1.384.1s-1.06.2-1.35-.081-.073-.884-.092-1.345c-.016-.379.012-.761-.008-1.141-.015-.281.1-.352.362-.347.726.014,1.453.016,2.178,0,.286-.007.407.071.388.375-.024.362-.006.726-.006,1.089Z" transform="translate(-2746.241 -501.519)" fill="#fff"/>
        <path id="Path_478" data-name="Path 478" d="M2791.73,540.677c-.393-.051-1.027.214-1.3-.107-.234-.273-.083-.888-.082-1.351s-.152-1.079.083-1.351c.275-.32.91-.093,1.386-.1s1.06-.2,1.35.08.073.884.092,1.345c.016.38-.012.762.008,1.141.015.282-.1.36-.361.347C2792.54,540.664,2792.176,540.677,2791.73,540.677Z" transform="translate(-2750.275 -501.448)" fill="#fff"/>
        <path id="Path_479" data-name="Path 479" d="M2746.217,546.965c.048-.391-.208-1.007.1-1.309.283-.276.889-.073,1.352-.078s1.076-.156,1.354.078c.325.274.093.908.1,1.384s.2,1.059-.077,1.352-.883.076-1.343.1c-.4.017-.8-.006-1.193.006-.226.007-.307-.079-.3-.3C2746.226,547.812,2746.217,547.431,2746.217,546.965Z" transform="translate(-2726.154 -505.719)" fill="#fff"/>
        <path id="Path_480" data-name="Path 480" d="M2756.441,547.1c0,.463.181,1.081-.047,1.351-.271.32-.908.093-1.384.1-.461.007-1.06.2-1.35-.08s-.074-.884-.092-1.345c-.016-.38.012-.761-.008-1.141-.015-.282.1-.353.361-.348.726.014,1.453.016,2.179,0,.286-.006.407.072.387.375-.023.361-.005.726-.005,1.089Z" transform="translate(-2730.167 -505.788)" fill="#fff"/>
        <path id="Path_481" data-name="Path 481" d="M2763.9,547.2c-.037.378.2.975-.086,1.267s-.884.073-1.345.092c-.38.016-.761-.012-1.141.008-.281.015-.354-.1-.349-.36.014-.743.012-1.487,0-2.23,0-.239.065-.339.321-.335q1.141.019,2.283,0c.253,0,.33.093.321.334C2763.887,546.354,2763.9,546.734,2763.9,547.2Z" transform="translate(-2734.25 -505.79)" fill="#fff"/>
        <path id="Path_482" data-name="Path 482" d="M2775.7,546.988c0-.446-.174-1.04.045-1.3.262-.31.875-.08,1.334-.1.379-.018.761.009,1.141-.008.262-.011.369.064.363.346q-.024,1.115,0,2.23c.006.279-.1.354-.361.349-.726-.014-1.453-.016-2.178,0-.285.006-.408-.068-.389-.374.023-.379.005-.76.005-1.141Z" transform="translate(-2742.261 -505.726)" fill="#fff"/>
        <path id="Path_483" data-name="Path 483" d="M2784.542,545.654c.447,0,1.039-.174,1.3.045.312.261.1.874.1,1.333.006.479.207,1.1-.08,1.4s-.916.073-1.395.1c-.362.017-.727-.012-1.089.008-.277.016-.357-.091-.351-.358.014-.726.023-1.453,0-2.178-.013-.345.13-.406.426-.39.362.02.726,0,1.089,0Z" transform="translate(-2746.302 -505.761)" fill="#fff"/>
        <path id="Path_484" data-name="Path 484" d="M2747.615,555.841c-.393-.051-1.027.214-1.3-.107-.234-.273-.083-.888-.083-1.352s-.152-1.078.083-1.351c.275-.319.909-.093,1.385-.1s1.06-.2,1.35.08.073.884.092,1.345c.015.38-.012.761.008,1.141.015.281-.1.36-.362.347C2748.425,555.828,2748.061,555.841,2747.615,555.841Z" transform="translate(-2726.164 -509.736)" fill="#fff"/>
        <path id="Path_485" data-name="Path 485" d="M2756.473,554.457c-.049.392.209,1.008-.1,1.31-.283.275-.888.073-1.352.078s-1.077.155-1.353-.079c-.324-.274-.094-.908-.1-1.384s-.2-1.059.077-1.352.884-.075,1.344-.094c.4-.016.8.006,1.193-.006.228-.007.3.082.3.3C2756.465,553.611,2756.473,553.992,2756.473,554.457Z" transform="translate(-2730.16 -509.743)" fill="#fff"/>
        <path id="Path_486" data-name="Path 486" d="M2760.993,554.381c0-.463-.182-1.081.047-1.35.271-.32.908-.093,1.385-.1.461-.007,1.06-.2,1.35.081s.073.884.092,1.345c.016.38-.012.761.008,1.141.016.282-.1.352-.362.347-.743-.013-1.487-.012-2.23,0-.24,0-.344-.068-.333-.322.016-.38,0-.761,0-1.141Z" transform="translate(-2734.222 -509.736)" fill="#fff"/>
        <path id="Path_487" data-name="Path 487" d="M2768.275,554.317c.048-.391-.208-1.006.1-1.309.283-.276.889-.072,1.352-.078s1.077-.156,1.354.078c.325.274.093.908.1,1.384s.2,1.059-.078,1.352-.882.076-1.343.1c-.4.017-.8-.006-1.192.006-.226.007-.307-.079-.3-.3C2768.283,555.164,2768.275,554.783,2768.275,554.317Z" transform="translate(-2738.21 -509.738)" fill="#fff"/>
        <path id="Path_488" data-name="Path 488" d="M2775.627,554.317c.048-.391-.208-1.006.1-1.309.283-.276.889-.072,1.352-.078s1.076-.156,1.354.078c.325.274.094.908.1,1.384s.2,1.059-.077,1.352-.882.076-1.343.1c-.4.017-.795-.006-1.193.006-.226.007-.306-.079-.3-.3C2775.635,555.164,2775.627,554.783,2775.627,554.317Z" transform="translate(-2742.229 -509.738)" fill="#fff"/>
        <path id="Path_489" data-name="Path 489" d="M2783.05,554.33c0-.447-.175-1.04.045-1.3.261-.311.875-.095,1.333-.1.479-.005,1.1-.208,1.4.081s.074.916.1,1.395c.017.362-.012.727.008,1.089.015.279-.094.355-.359.35-.726-.015-1.453-.016-2.179,0-.283.006-.408-.066-.389-.373.023-.379.005-.76.005-1.141Z" transform="translate(-2746.279 -509.733)" fill="#fff"/>
        <path id="Path_490" data-name="Path 490" d="M2756.544,561.9c-.036.381.2.977-.085,1.27s-.883.074-1.344.094c-.379.016-.761-.012-1.141.008-.277.014-.357-.09-.352-.357q.022-1.089,0-2.179c-.006-.281.063-.4.371-.392q1.088.03,2.179,0c.3-.008.4.094.377.385C2756.528,561.087,2756.544,561.451,2756.544,561.9Z" transform="translate(-2730.231 -513.824)" fill="#fff"/>
        <path id="Path_491" data-name="Path 491" d="M2763.9,561.9c-.037.378.2.974-.086,1.266s-.884.073-1.345.092c-.38.015-.761-.013-1.141.008-.281.015-.354-.1-.349-.36.014-.743.012-1.487,0-2.23,0-.239.065-.339.321-.335q1.141.019,2.283,0c.253,0,.33.094.321.334C2763.887,561.058,2763.9,561.439,2763.9,561.9Z" transform="translate(-2734.25 -513.826)" fill="#fff"/>
        <path id="Path_492" data-name="Path 492" d="M2771.179,561.809c-.049.391.209,1.007-.1,1.309-.283.275-.889.073-1.352.078s-1.077.155-1.353-.079c-.324-.274-.094-.908-.1-1.384s-.2-1.059.078-1.352.883-.075,1.344-.094c.4-.016.795.006,1.192-.006.228-.007.306.082.3.3C2771.17,560.963,2771.179,561.344,2771.179,561.809Z" transform="translate(-2738.198 -513.762)" fill="#fff"/>
        <path id="Path_493" data-name="Path 493" d="M2777.072,563.16c-.464,0-1.081.181-1.351-.047-.32-.271-.093-.908-.1-1.384-.006-.462-.2-1.06.08-1.35s.885-.073,1.346-.091c.38-.016.761.012,1.141-.008.282-.016.352.1.347.362-.013.743-.012,1.487,0,2.23,0,.24-.068.344-.322.333-.38-.016-.761,0-1.141,0Z" transform="translate(-2742.215 -513.761)" fill="#fff"/>
        <path id="Path_494" data-name="Path 494" d="M2753.57,569.012c.054-.391-.217-1.026.109-1.3.277-.234.889-.084,1.354-.078s1.069-.2,1.351.079c.31.3.076.916.1,1.394.018.38-.005.761.006,1.141.007.223-.073.305-.3.3q-1.167-.014-2.335,0c-.235,0-.294-.1-.288-.313C2753.577,569.858,2753.57,569.477,2753.57,569.012Z" transform="translate(-2730.173 -517.775)" fill="#fff"/>
        <path id="Path_495" data-name="Path 495" d="M2760.925,568.973c.048-.376-.2-.968.1-1.261.276-.266.856-.071,1.3-.076.481,0,1.118-.161,1.4.081.33.284.1.941.1,1.435.008.444.193,1.017-.076,1.3s-.85.074-1.293.092c-.4.016-.8-.011-1.193.008-.277.014-.364-.09-.351-.358C2760.938,569.817,2760.925,569.436,2760.925,568.973Z" transform="translate(-2734.194 -517.777)" fill="#fff"/>
        <path id="Path_496" data-name="Path 496" d="M2769.6,570.543c-.376-.05-.987.207-1.253-.105-.226-.265-.084-.855-.08-1.3.005-.481-.2-1.109.078-1.4.309-.323.948-.091,1.443-.1.444-.008,1.018-.194,1.3.078s.073.852.09,1.3c.016.4-.012.8.009,1.192.014.282-.1.359-.362.347C2770.44,570.53,2770.059,570.543,2769.6,570.543Z" transform="translate(-2738.195 -517.771)" fill="#fff"/>
      </g>
      <g id="Group_145" data-name="Group 145" transform="translate(11.293 51.638)">
        <path id="Path_497" data-name="Path 497" d="M2746.239,473.969c0-.466-.183-1.092.048-1.357.269-.308.91-.082,1.388-.1s1.091-.168,1.356.067c.309.272.083.911.1,1.389s.168,1.091-.066,1.357c-.272.308-.911.083-1.389.1s-1.089.168-1.357-.066C2746,475.085,2746.261,474.446,2746.239,473.969Z" transform="translate(-2726.146 -472.449)" fill="#fff"/>
        <path id="Path_498" data-name="Path 498" d="M2746.242,481.268c.019-.461-.226-1.076.074-1.339.258-.226.859-.078,1.307-.064.5.015,1.158-.223,1.439.1.243.276.082.924.069,1.407-.012.462.2,1.076-.094,1.339-.257.226-.858.079-1.306.064-.5-.015-1.159.223-1.438-.1C2746.053,482.4,2746.242,481.751,2746.242,481.268Z" transform="translate(-2726.149 -476.464)" fill="#fff"/>
        <path id="Path_499" data-name="Path 499" d="M2740.356,487.254c.46.022,1.075-.232,1.34.07.226.258.079.858.066,1.306-.015.5.221,1.158-.1,1.44-.274.243-.923.082-1.406.07-.461-.012-1.076.2-1.34-.093-.227-.254-.08-.857-.067-1.3.015-.5-.221-1.16.1-1.44C2739.222,487.064,2739.872,487.254,2740.356,487.254Z" transform="translate(-2722.114 -480.498)" fill="#fff"/>
        <path id="Path_500" data-name="Path 500" d="M2746.243,488.623c.021-.461-.233-1.075.07-1.34.258-.226.858-.079,1.306-.066.5.014,1.158-.221,1.441.1.243.273.082.923.07,1.406-.011.462.2,1.076-.092,1.34-.254.227-.857.08-1.306.067-.5-.015-1.159.221-1.439-.1C2746.053,489.756,2746.243,489.106,2746.243,488.623Z" transform="translate(-2726.148 -480.482)" fill="#fff"/>
        <path id="Path_501" data-name="Path 501" d="M2756.439,488.637c0,.482.186,1.12-.052,1.4s-.909.078-1.389.086c-.465.007-1.079.155-1.353-.08s-.076-.878-.084-1.341c-.008-.481-.161-1.119.082-1.4s.911-.078,1.391-.086c.463-.007,1.075-.154,1.353.079C2756.683,487.544,2756.426,488.175,2756.439,488.637Z" transform="translate(-2730.155 -480.483)" fill="#fff"/>
        <path id="Path_502" data-name="Path 502" d="M2734.394,495.977c0,.483.19,1.134-.05,1.4-.28.316-.943.081-1.439.1-.448.013-1.052.159-1.3-.068-.295-.264-.081-.878-.091-1.34-.012-.482-.173-1.133.072-1.405.282-.315.944-.081,1.44-.095.448-.013,1.048-.159,1.306.068C2734.627,494.9,2734.374,495.516,2734.394,495.977Z" transform="translate(-2718.103 -484.5)" fill="#fff"/>
        <path id="Path_503" data-name="Path 503" d="M2740.36,494.6c.46.02,1.075-.226,1.338.075.226.259.078.859.064,1.307-.016.5.223,1.158-.1,1.439-.277.243-.925.081-1.407.068-.461-.013-1.076.2-1.339-.094-.226-.258-.079-.859-.064-1.307.016-.5-.223-1.159.1-1.438C2739.227,494.414,2739.876,494.6,2740.36,494.6Z" transform="translate(-2722.115 -484.517)" fill="#fff"/>
        <path id="Path_504" data-name="Path 504" d="M2747.67,494.6c.465,0,1.094-.184,1.354.048.3.271.082.91.094,1.39s.166,1.093-.07,1.354c-.273.3-.911.082-1.391.093s-1.093.166-1.354-.07c-.3-.273-.082-.911-.093-1.39s-.165-1.091.07-1.355C2746.553,494.368,2747.192,494.621,2747.67,494.6Z" transform="translate(-2726.136 -484.514)" fill="#fff"/>
        <path id="Path_505" data-name="Path 505" d="M2756.454,496.073c-.019.461.227,1.076-.073,1.339-.258.226-.858.079-1.306.065-.5-.016-1.158.222-1.44-.1-.243-.276-.081-.924-.069-1.407.012-.461-.2-1.076.094-1.339.256-.226.858-.079,1.306-.065.5.015,1.16-.222,1.439.1C2756.644,494.94,2756.454,495.589,2756.454,496.073Z" transform="translate(-2730.158 -484.501)" fill="#fff"/>
        <path id="Path_506" data-name="Path 506" d="M2703.5,504.812c-.461-.018-1.075.233-1.341-.066-.226-.255-.081-.857-.068-1.3.014-.5-.22-1.158.093-1.441.271-.244.923-.084,1.405-.073.461.011,1.076-.2,1.341.091.227.251.081.856.068,1.3-.014.5.22,1.16-.094,1.44C2704.637,505,2703.985,504.812,2703.5,504.812Z" transform="translate(-2702.021 -488.526)" fill="#fff"/>
        <path id="Path_507" data-name="Path 507" d="M2712.43,503.476c0,.382-.013.764,0,1.145.011.231-.067.295-.293.291q-1.172-.019-2.343,0c-.231,0-.294-.067-.291-.293q.019-1.171,0-2.343c0-.231.067-.294.293-.291q1.171.019,2.343,0c.231,0,.3.066.291.293C2712.417,502.677,2712.43,503.076,2712.43,503.476Z" transform="translate(-2706.113 -488.592)" fill="#fff"/>
        <path id="Path_508" data-name="Path 508" d="M2719.692,503.427c-.02.46.225,1.076-.076,1.338-.258.226-.859.078-1.307.064-.5-.016-1.158.223-1.439-.1-.243-.277-.081-.925-.067-1.408.012-.461-.206-1.076.095-1.339.257-.226.858-.078,1.306-.064.5.016,1.16-.223,1.438.1C2719.882,502.3,2719.692,502.943,2719.692,503.427Z" transform="translate(-2710.064 -488.519)" fill="#fff"/>
        <path id="Path_509" data-name="Path 509" d="M2725.619,501.961c.465,0,1.1-.184,1.351.048.3.272.081.912.09,1.392s.163,1.1-.074,1.352c-.275.3-.913.08-1.392.09s-1.1.162-1.352-.074c-.3-.276-.08-.913-.09-1.392s-.162-1.091.074-1.353C2724.5,501.716,2725.14,501.982,2725.619,501.961Z" transform="translate(-2714.08 -488.532)" fill="#fff"/>
        <path id="Path_510" data-name="Path 510" d="M2732.936,504.866c-.464,0-1.082.18-1.349-.049s-.067-.878-.081-1.342c-.012-.4.01-.8-.008-1.2-.01-.228.061-.3.291-.293q1.17.02,2.343,0c.227,0,.3.061.293.291q-.021,1.171,0,2.343c0,.227-.061.3-.292.293-.4-.018-.8-.005-1.2-.005Z" transform="translate(-2718.101 -488.592)" fill="#fff"/>
        <path id="Path_511" data-name="Path 511" d="M2738.89,503.424c0-.483-.19-1.133.05-1.406.28-.318.943-.082,1.44-.1.447-.014,1.05-.161,1.306.066.3.263.081.878.093,1.339.012.483.174,1.132-.069,1.407-.282.318-.944.081-1.44.1-.448.014-1.048.16-1.307-.066C2738.658,504.5,2738.913,503.884,2738.89,503.424Z" transform="translate(-2722.13 -488.519)" fill="#fff"/>
        <path id="Path_512" data-name="Path 512" d="M2756.5,503.474c0,.464.18,1.081-.049,1.349s-.878.068-1.342.082c-.4.012-.8-.01-1.2.007-.227.01-.3-.061-.293-.291q.021-1.171,0-2.343c0-.227.062-.3.291-.293q1.172.02,2.343,0c.227,0,.3.061.293.291-.018.4-.005.8-.005,1.2Z" transform="translate(-2730.225 -488.592)" fill="#fff"/>
        <path id="Path_513" data-name="Path 513" d="M2760.953,503.335c.012-.462-.235-1.075.06-1.342.251-.228.855-.083,1.3-.072.5.012,1.158-.218,1.443.091.246.266.085.92.076,1.4-.01.462.2,1.076-.088,1.342-.248.228-.855.083-1.3.072-.5-.012-1.16.218-1.442-.092C2760.763,504.473,2760.953,503.817,2760.953,503.335Z" transform="translate(-2734.185 -488.519)" fill="#fff"/>
        <path id="Path_514" data-name="Path 514" d="M2784.465,504.81c-.483,0-1.137.19-1.4-.05-.312-.281-.08-.944-.093-1.441-.012-.447-.157-1.053.07-1.3.266-.291.879-.08,1.342-.089.482-.01,1.135-.171,1.4.074.311.284.079.945.092,1.442.012.447.157,1.05-.07,1.3C2785.54,505.044,2784.927,504.795,2784.465,504.81Z" transform="translate(-2746.226 -488.525)" fill="#fff"/>
        <path id="Path_515" data-name="Path 515" d="M2793.218,503.425c-.019.46.226,1.076-.075,1.339-.258.226-.858.078-1.306.064-.5-.016-1.158.222-1.44-.1-.244-.277-.081-.925-.068-1.407.012-.461-.2-1.076.094-1.339.257-.226.858-.079,1.306-.065.5.016,1.16-.223,1.439.1C2793.406,502.293,2793.218,502.942,2793.218,503.425Z" transform="translate(-2750.251 -488.519)" fill="#fff"/>
        <path id="Path_516" data-name="Path 516" d="M2799.177,501.957c.46.023,1.075-.232,1.339.071.226.259.08.858.066,1.306-.015.5.222,1.158-.1,1.44-.275.244-.923.082-1.407.069-.462-.012-1.076.2-1.339-.093-.227-.255-.08-.857-.066-1.305.015-.5-.221-1.16.1-1.439C2798.044,501.767,2798.694,501.957,2799.177,501.957Z" transform="translate(-2754.263 -488.534)" fill="#fff"/>
        <path id="Path_517" data-name="Path 517" d="M2806.491,501.957c.465,0,1.1-.183,1.354.048.3.271.082.911.093,1.39s.165,1.093-.071,1.354c-.273.3-.911.081-1.391.092s-1.094.165-1.354-.071c-.3-.274-.081-.912-.092-1.391s-.165-1.092.071-1.354C2805.375,501.72,2806.013,501.972,2806.491,501.957Z" transform="translate(-2758.286 -488.532)" fill="#fff"/>
        <path id="Path_518" data-name="Path 518" d="M2812.415,503.423c0-.483-.189-1.134.05-1.406.28-.317.943-.081,1.439-.1.448-.013,1.051-.16,1.305.067.3.263.081.878.092,1.339.012.483.174,1.132-.071,1.406-.282.317-.944.081-1.44.1-.448.013-1.047.16-1.306-.066C2812.183,504.5,2812.438,503.883,2812.415,503.423Z" transform="translate(-2762.316 -488.519)" fill="#fff"/>
        <path id="Path_519" data-name="Path 519" d="M2822.677,503.474c0,.464.18,1.081-.05,1.349s-.878.068-1.341.082c-.4.012-.8-.01-1.2.007-.228.01-.3-.061-.293-.291q.019-1.171,0-2.343c0-.227.062-.3.291-.293q1.171.02,2.343,0c.227,0,.3.061.292.291-.017.4,0,.8,0,1.2Z" transform="translate(-2766.393 -488.592)" fill="#fff"/>
        <path id="Path_520" data-name="Path 520" d="M2828.581,504.906c-.382,0-.764-.014-1.146.005-.236.012-.291-.075-.288-.3.012-.781.014-1.562,0-2.342,0-.235.075-.291.3-.287.781.012,1.562.013,2.343,0,.236,0,.292.075.288.3-.012.781-.013,1.562,0,2.342,0,.235-.074.3-.3.288C2829.379,504.895,2828.98,504.906,2828.581,504.906Z" transform="translate(-2770.41 -488.592)" fill="#fff"/>
        <path id="Path_521" data-name="Path 521" d="M2734.4,510.315c-.022.461.232,1.075-.071,1.34-.258.226-.859.08-1.306.066-.5-.014-1.158.221-1.44-.1-.244-.274-.082-.924-.07-1.406.012-.462-.2-1.076.093-1.339.254-.227.857-.08,1.3-.067.5.015,1.16-.221,1.44.1C2734.585,509.182,2734.4,509.832,2734.4,510.315Z" transform="translate(-2718.103 -492.286)" fill="#fff"/>
        <path id="Path_522" data-name="Path 522" d="M2740.288,511.759c-.464,0-1.082.18-1.349-.049s-.067-.878-.082-1.342c-.012-.4.01-.8-.007-1.2-.009-.228.062-.3.291-.293q1.171.02,2.343,0c.227,0,.3.061.293.291q-.02,1.171,0,2.343c0,.227-.06.3-.291.292-.4-.018-.8,0-1.2,0Z" transform="translate(-2722.119 -492.359)" fill="#fff"/>
        <path id="Path_523" data-name="Path 523" d="M2762.405,511.7c-.483,0-1.138.191-1.4-.05-.309-.281-.079-.944-.091-1.441-.011-.447-.156-1.054.072-1.3.266-.289.88-.079,1.342-.088.482-.009,1.137-.169,1.4.076.309.285.079.945.092,1.442.011.447.156,1.051-.072,1.3C2763.48,511.936,2762.866,511.688,2762.405,511.7Z" transform="translate(-2734.17 -492.292)" fill="#fff"/>
        <path id="Path_524" data-name="Path 524" d="M2783.01,510.226c.015-.462-.235-1.076.063-1.342.253-.227.856-.082,1.3-.07.5.013,1.158-.219,1.442.093.244.268.084.921.074,1.4-.01.462.2,1.076-.089,1.341-.249.228-.855.082-1.3.071-.5-.013-1.16.219-1.441-.093C2782.819,511.362,2783.01,510.708,2783.01,510.226Z" transform="translate(-2746.24 -492.286)" fill="#fff"/>
        <path id="Path_525" data-name="Path 525" d="M2741.734,517.127c0,.482.186,1.12-.052,1.4s-.909.078-1.39.086c-.464.007-1.078.155-1.352-.08s-.076-.878-.083-1.341c-.008-.482-.161-1.12.082-1.4s.911-.078,1.391-.086c.464-.007,1.076-.154,1.353.08C2741.975,516.032,2741.729,516.665,2741.734,517.127Z" transform="translate(-2722.117 -496.054)" fill="#fff"/>
        <path id="Path_526" data-name="Path 526" d="M2762.372,515.74c.466,0,1.092-.183,1.356.048.308.269.082.909.1,1.388s.168,1.091-.067,1.356c-.272.307-.91.082-1.389.1s-1.091.168-1.356-.067c-.308-.273-.083-.911-.1-1.389s-.167-1.089.067-1.357C2761.255,515.5,2761.894,515.768,2762.372,515.74Z" transform="translate(-2734.174 -496.068)" fill="#fff"/>
        <path id="Path_527" data-name="Path 527" d="M2771.25,517.261c0,.382-.013.764.005,1.145.01.231-.067.294-.294.291q-1.171-.019-2.343,0c-.23,0-.294-.068-.29-.294q.019-1.171,0-2.343c0-.231.067-.294.293-.291q1.172.02,2.343,0c.23,0,.3.067.29.294C2771.238,516.462,2771.25,516.862,2771.25,517.261Z" transform="translate(-2738.262 -496.127)" fill="#fff"/>
        <path id="Path_528" data-name="Path 528" d="M2775.682,517.193c0-.347.016-.7,0-1.041-.016-.273.035-.4.355-.389.745.025,1.493.023,2.239,0,.294-.009.338.1.333.358-.014.746-.021,1.493,0,2.239.009.294-.1.338-.357.333-.746-.014-1.493-.02-2.238,0-.295.009-.345-.1-.333-.358C2775.694,517.957,2775.682,517.575,2775.682,517.193Z" transform="translate(-2742.277 -496.123)" fill="#fff"/>
        <path id="Path_529" data-name="Path 529" d="M2785.862,517.206c-.02.461.233,1.075-.068,1.34-.257.226-.857.08-1.305.068-.5-.014-1.158.22-1.441-.095-.244-.272-.083-.923-.071-1.405.011-.462-.2-1.076.091-1.34.253-.227.857-.081,1.3-.068.5.014,1.16-.22,1.44.1C2786.052,516.071,2785.862,516.723,2785.862,517.206Z" transform="translate(-2746.233 -496.053)" fill="#fff"/>
        <path id="Path_530" data-name="Path 530" d="M2740.324,523.1c.465,0,1.1-.184,1.351.048.3.272.081.911.091,1.391s.162,1.1-.074,1.352c-.275.3-.913.081-1.393.09-.465.009-1.1.162-1.352-.074-.3-.275-.08-.913-.09-1.392s-.162-1.091.074-1.353C2739.208,522.853,2739.845,523.12,2740.324,523.1Z" transform="translate(-2722.118 -500.085)" fill="#fff"/>
        <path id="Path_531" data-name="Path 531" d="M2762.314,525.954c-.46-.02-1.076.226-1.339-.076-.226-.259-.078-.859-.063-1.307.015-.5-.223-1.158.1-1.439.277-.243.924-.08,1.408-.067.461.012,1.076-.2,1.339.094.226.258.078.859.063,1.307-.016.5.223,1.16-.1,1.438C2763.446,526.144,2762.8,525.954,2762.314,525.954Z" transform="translate(-2734.171 -500.078)" fill="#fff"/>
        <path id="Path_532" data-name="Path 532" d="M2769.668,525.954c-.46-.019-1.076.226-1.339-.073-.226-.258-.079-.858-.065-1.306.015-.5-.223-1.158.1-1.44.276-.243.924-.081,1.407-.068.461.012,1.076-.2,1.339.093.226.256.08.858.065,1.306-.015.5.222,1.16-.1,1.439C2770.8,526.143,2770.151,525.954,2769.668,525.954Z" transform="translate(-2738.188 -500.079)" fill="#fff"/>
        <path id="Path_533" data-name="Path 533" d="M2775.648,524.516c0-.466-.183-1.091.048-1.357.27-.31.91-.083,1.388-.1s1.09-.169,1.358.066c.309.272.082.91.1,1.389s.169,1.09-.065,1.357c-.272.309-.911.083-1.389.1s-1.089.169-1.358-.065C2775.414,525.632,2775.672,524.993,2775.648,524.516Z" transform="translate(-2742.221 -500.076)" fill="#fff"/>
        <path id="Path_534" data-name="Path 534" d="M2769.666,533.306c-.46-.02-1.076.226-1.338-.076-.226-.258-.079-.859-.063-1.307.016-.5-.224-1.158.1-1.439.277-.243.924-.08,1.408-.067.461.013,1.076-.2,1.338.094.226.258.079.859.064,1.307-.016.5.223,1.16-.1,1.438C2770.8,533.5,2770.15,533.306,2769.666,533.306Z" transform="translate(-2738.188 -504.097)" fill="#fff"/>
        <path id="Path_535" data-name="Path 535" d="M2768.3,539.219c0-.466-.183-1.092.048-1.357.27-.308.909-.083,1.388-.1s1.091-.168,1.357.066c.309.272.082.911.1,1.389s.168,1.091-.067,1.357c-.272.308-.91.082-1.389.1s-1.09.168-1.357-.067C2768.062,540.335,2768.319,539.7,2768.3,539.219Z" transform="translate(-2738.202 -508.113)" fill="#fff"/>
        <path id="Path_536" data-name="Path 536" d="M2771.25,547.129c0,.382-.013.764.005,1.145.01.231-.067.294-.294.29q-1.171-.019-2.343,0c-.23,0-.294-.068-.29-.294q.019-1.171,0-2.342c0-.231.067-.295.293-.291q1.172.019,2.343,0c.23,0,.3.067.29.293C2771.238,546.33,2771.25,546.73,2771.25,547.129Z" transform="translate(-2738.262 -512.452)" fill="#fff"/>
      </g>
    </g>
    <g id="Group_161" data-name="Group 161" transform="matrix(0.1685674637556076, 0, 0, 0.19459397834551867, -17717.90625, 1038.710944719608)">
      <g id="Group_158" data-name="Group 158" transform="translate(0 2.785)">
        <path id="Path_551" data-name="Path 551" d="M2903.178,445.074h8.5v10.394l8.9-10.394h11.3l-10.037,10.382,10.488,17.123h-10.467l-5.8-11.311-4.391,4.6v6.712h-8.5Z" transform="translate(-2903.178 -444.605)" fill="#fff" style="fill: rgb(109, 195, 198);"/>
        <path id="Path_552" data-name="Path 552" d="M2959.331,445.074h8.519v27.505h-8.519Z" transform="translate(-2927.023 -444.605)" fill="#fff" style="fill: rgb(109, 195, 198);"/>
        <path id="Path_553" data-name="Path 553" d="M3037.789,463.134l8.087-.506a6.157,6.157,0,0,0,1.07,3,4.492,4.492,0,0,0,3.752,1.67,4.158,4.158,0,0,0,2.805-.854,2.559,2.559,0,0,0,.985-1.979,2.526,2.526,0,0,0-.938-1.914q-.937-.844-4.352-1.594-5.592-1.257-7.974-3.34a6.715,6.715,0,0,1-2.4-5.31,7.208,7.208,0,0,1,1.229-4.006,8.152,8.152,0,0,1,3.7-2.964,17.255,17.255,0,0,1,6.763-1.079q5.273,0,8.04,1.961a8.463,8.463,0,0,1,3.292,6.239l-8.011.469a3.743,3.743,0,0,0-4.165-3.547,3.41,3.41,0,0,0-2.233.629,1.927,1.927,0,0,0-.75,1.529,1.532,1.532,0,0,0,.619,1.182,6.957,6.957,0,0,0,2.852,1.013,35.67,35.67,0,0,1,7.983,2.43,8.393,8.393,0,0,1,3.509,3.049,7.729,7.729,0,0,1,1.1,4.071,8.718,8.718,0,0,1-1.464,4.878,9.155,9.155,0,0,1-4.09,3.387,16.525,16.525,0,0,1-6.623,1.154q-7.017,0-9.719-2.7A10.66,10.66,0,0,1,3037.789,463.134Z" transform="translate(-2960.34 -444.259)" fill="#fff" style="fill: rgb(109, 195, 198);"/>
        <path id="Path_554" data-name="Path 554" d="M3088.66,445.074h8.5v10.394l8.9-10.394h11.3l-10.037,10.382,10.487,17.123H3107.35l-5.8-11.311-4.391,4.6v6.712h-8.5Z" transform="translate(-2981.942 -444.605)" fill="#fff" style="fill: rgb(109, 195, 198);"/>
      </g>
      <g id="Group_159" data-name="Group 159" transform="translate(60.274 36.068)">
        <path id="Path_555" data-name="Path 555" d="M3012.3,523.71l4.149-3.147q1.716-1.288,2.539-1.86,3.469-2.539,5.025-3.952a5.42,5.42,0,0,0,1.842-2.843,3.274,3.274,0,0,0,.107-.787q0-2-3-2a11.547,11.547,0,0,0-3.648.644,15.23,15.23,0,0,0-3.648,1.789l1.5-7.011a16.6,16.6,0,0,1,4.292-1.788,18.8,18.8,0,0,1,4.9-.644,9.592,9.592,0,0,1,4.113.823,6.377,6.377,0,0,1,2.7,2.271,5.858,5.858,0,0,1,.947,3.273,8.173,8.173,0,0,1-.178,1.574,11.884,11.884,0,0,1-2.235,4.971,25.66,25.66,0,0,1-4.775,4.436l-3.183,2.4h8.441l-1.217,5.794h-19.493Z" transform="translate(-3011.481 -502.107)" fill="url(#linear-gradient-9)" style="fill: rgb(249, 164, 84);"/>
        <path id="Path_556" data-name="Path 556" d="M3054.384,503.04h18.134l-1.323,6.223h-10.731l-.715,3.434h7.725l-1.216,5.687h-7.725l-.751,3.434h10.73l-1.288,6.223H3049.09Z" transform="translate(-3025.412 -502.503)" fill="url(#linear-gradient-9)" style="fill: rgb(249, 164, 84);"/>
        <path id="Path_557" data-name="Path 557" d="M3091.361,503.04h7.548l2.468,15.058,8.87-15.058h8.226l-15.272,25h-7.118Z" transform="translate(-3043.363 -502.503)" fill="url(#linear-gradient-9)" style="fill: rgb(249, 164, 84);"/>
      </g>
      <path id="Path_558" data-name="Path 558" d="M 3007.66 447.946 C 3005.1826666666666 445.488 3001.6556666666665 444.259 2997.0789999999997 444.259 C 2992.612333333333 444.259 2989.129 445.5096666666667 2986.629 448.011 C 2984.129 450.51233333333334 2982.878333333333 454.0083333333334 2982.877 458.499 C 2982.775077594316 461.29725143935735 2983.4293644111954 464.0712340954641 2984.7709999999997 466.529 C 2985.9125350691725 468.55221324280075 2987.6352376284717 470.18608079056145 2989.716 471.219 C 2992.1384187206204 472.2862150899243 2994.7705072226627 472.7928067058187 2997.4159999999997 472.701 C 3000.0696959323336 472.7933802728761 3002.702595054409 472.20213156876525 3005.062 470.98400000000004 C 3007.0649559744447 469.8821428300364 3008.6968657519733 468.2119579821102 3009.752 466.184 C 3010.9225295378897 463.7170058298837 3011.4793434911444 461.00360991538116 3011.375 458.27500000000003 C 3011.375666666667 453.847 3010.1373333333336 450.404 3007.66 447.946 Z M 3001.66 462.44000000000005 L 2994.7599999999998 464.50000000000006 L 2992.3039999999996 457.73500000000007 C 2991.6102735780833 455.89835540321036 2992.6348936125755 453.86112079791565 2994.5229999999997 453.3230000000001 C 2994.5229999999997 453.3230000000001 3000.758482638358 456.45599930191617 3003.8759999999997 458.0230000000001 C 3004.57271732706 459.86045605109035 3003.5486633754717 461.900711486386 3001.659 462.44 L 3001.66 462.44000000000005 Z" transform="translate(-2937.021 -441.474)" fill="#fff" style="fill: rgb(109, 195, 198); fill-opacity: 1;"/>
      <path id="Path_559" data-name="Path 559" d="M3009.7,467.2a2.143,2.143,0,0,0-2.6-1.307h0a2.145,2.145,0,0,0-2.6-1.307,1.865,1.865,0,0,0-1.233,2.452l1.365,3.758,3.832-1.144h0A1.864,1.864,0,0,0,3009.7,467.2Z" transform="translate(-2945.63 -450.07)" fill="#ff9bc2"/>
      <g id="Group_160" data-name="Group 160" transform="translate(145.955 0)">
        <path id="Path_560" data-name="Path 560" d="M3264.354,478.341c-1.427,0-2.853,2.03-3.4,2.03-.439,0-.548-.658-.548-.987-9.877,5.542-14.211,13.333-14.541,18.985-.055,1.043.164,4.225,1.7,4.225,1.646,0,5.158-2.085,6.42-3.238l5.377-4.938c2.414-2.689,7.078-9.218,7.078-12.839C3266.439,480.426,3265.89,478.341,3264.354,478.341Z" transform="translate(-3194.65 -455.947)" fill="url(#linear-gradient-12)" style="fill: rgb(249, 163, 84);"/>
        <path id="Path_561" data-name="Path 561" d="M3229.434,439.419h-55.427a17.151,17.151,0,0,0-17.15,17.151V486.5a17.15,17.15,0,0,0,17.15,17.151h55.427a17.151,17.151,0,0,0,17.151-17.151V456.57A17.151,17.151,0,0,0,3229.434,439.419Zm-50.609,51.859a.694.694,0,0,1-.768.768,3.5,3.5,0,0,1-1.153-.494c-2.085-1.152-4.444-1.536-4.444-4.389,0-2.744,2.359-8.835,3.841-11.3,4-6.64,7.188-12.314,8.779-14.4l4.246-5.428-5.212,1.976a8.121,8.121,0,0,1-1.481.548c-.6,0-.493-.933-.439-1.262.11-1.591,1.207-2.085,2.524-2.854,1.811-1.043,8.01-4.718,9.547-4.718,1.427,0,4.252,3.4,4.252,4.225,0,1.591-4.821,6.109-13.436,20.759-1.921,3.238-6.42,10.974-6.42,14.65C3178.66,490.016,3178.825,490.619,3178.825,491.278Zm13.936-.823c-1.481-.165-3.457-.438-3.457-2.3,0-1.975,2.414-6.53,5.542-5.871.769.165,2.689.165,2.689,1.756C3197.535,484.09,3196.163,490.839,3192.761,490.455Zm17.118.44c-5.048.384-8.01-4.609-8.01-9.274,0-6.2,3.95-13,8.01-17.5,4.829-5.323,13.225-9.6,16.79-9.6,2.251,0,4.939,2.634,4.939,3.841,0,.6-1.317.6-1.7.988,2.468.768,2.743,3.512,2.743,5.707C3232.651,475.585,3223.1,489.961,3209.879,490.894Z" transform="translate(-3156.856 -439.419)" fill="url(#linear-gradient-13)" style="fill: rgb(249, 163, 84);"/>
      </g>
    </g>
  </g></g><path class="cls-14" d="M127.1,46.69a2.65,2.65,0,0,0-3.2-1.6h0a2.63,2.63,0,0,0-3.19-1.61,2.28,2.28,0,0,0-1.51,3l1.67,4.62,4.71-1.4h0A2.3,2.3,0,0,0,127.1,46.69Z" style="fill: rgb(255, 255, 255);" transform="matrix(1.2799921035766602, 0, 0, 1.2799921035766602, -43.50961303710938, -10.947299003601074)"/><path class="cls-20" d="M125.19,47.09a1.45,1.45,0,0,0-1.77-.89h0a1.48,1.48,0,0,0-1.78-.9A1.29,1.29,0,0,0,120.8,47l.93,2.56,2.62-.78h0A1.27,1.27,0,0,0,125.19,47.09Z" style="fill: rgb(232, 169, 171);" transform="matrix(1.2799921035766602, 0, 0, 1.2799921035766602, -43.50961303710938, -10.947299003601074)"/></svg>