<svg xmlns="http://www.w3.org/2000/svg" xmlns:xlink="http://www.w3.org/1999/xlink" width="176.818" height="176.817" viewBox="0 0 176.818 176.817">
  <defs>
    <filter id="Ellipse_5" x="0" y="0" width="176.818" height="176.817" filterUnits="userSpaceOnUse">
      <feOffset input="SourceAlpha"/>
      <feGaussianBlur stdDeviation="15" result="blur"/>
      <feFlood flood-opacity="0.161"/>
      <feComposite operator="in" in2="blur"/>
      <feComposite in="SourceGraphic"/>
    </filter>
  </defs>
  <g id="icon_home" transform="translate(-1737 8.008)">
    <g transform="matrix(1, 0, 0, 1, 1737, -8.01)" filter="url(#Ellipse_5)">
      <circle id="Ellipse_5-2" data-name="Ellipse 5" cx="43.409" cy="43.409" r="43.409" transform="translate(45 45)" fill="#ffcc69"/>
    </g>
    <g id="Group_381" data-name="Group 381" transform="translate(1090.835 -277.646)">
      <path id="Path_851" data-name="Path 851" d="M751.639,363.886l-16.775-15.932-15.859,15.807v10.747c0,5.871,10.571,5.592,10.571,5.592l.1-10.341h11.589V380.1c11.551.169,10.37-5.309,10.37-5.309Z" transform="translate(-0.7 -1.055)" fill="#0f6d6e"/>
      <path id="Path_852" data-name="Path 852" d="M756.525,356.468C753.7,353.4,737.887,339,737.887,339s-3.98-3.069-7.329,0c-3.509,3.216-16.747,15.815-16.747,15.815s-4.01,3.41.491,7.056l19.817-19.381,20.627,19.447S759.353,359.539,756.525,356.468Z" fill="#0f6d6e"/>
    </g>
  </g>
</svg>
