<svg xmlns="http://www.w3.org/2000/svg" xmlns:xlink="http://www.w3.org/1999/xlink" width="133" height="133" viewBox="0 0 133 133">
  <defs>
    <filter id="Ellipse_78" x="0" y="0" width="133" height="133" filterUnits="userSpaceOnUse">
      <feOffset dy="3" input="SourceAlpha"/>
      <feGaussianBlur stdDeviation="7.5" result="blur"/>
      <feFlood flood-color="#0f6d6e" flood-opacity="0.2"/>
      <feComposite operator="in" in2="blur"/>
      <feComposite in="SourceGraphic"/>
    </filter>
  </defs>
  <g id="icon_sel_num1a" transform="translate(-211.5 -229.5)">
    <g transform="matrix(1, 0, 0, 1, 211.5, 229.5)" filter="url(#Ellipse_78)">
      <g id="Ellipse_78-2" data-name="Ellipse 78" transform="translate(22.5 19.5)" fill="#babfc4" stroke="#fff" stroke-width="10">
        <circle cx="44" cy="44" r="44" stroke="none"/>
        <circle cx="44" cy="44" r="39" fill="none"/>
      </g>
    </g>
    <text id="text_hello" transform="translate(277 307)" fill="#fff" font-size="40" font-family="Prompt-Bold, Prompt" font-weight="700"><tspan x="-7.78" y="0">1</tspan></text>
  </g>
</svg>
