<svg xmlns="http://www.w3.org/2000/svg" width="170" height="178" viewBox="0 0 170 178">
  <g id="icon_hint_rec" transform="translate(-1169 -188)">
    <path id="Polygon_2" data-name="Polygon 2" d="M64.223,35.931a24,24,0,0,1,41.553,0l43.4,75.055A24,24,0,0,1,128.4,147H41.6a24,24,0,0,1-20.777-36.014Z" transform="translate(1169 188)" fill="#f04e6b"/>
    <text id="_" data-name="!" transform="translate(1241 317)" fill="#fff" font-size="115" font-family="Prompt-SemiBold, Prompt" font-weight="600"><tspan x="0" y="0">!</tspan></text>
  </g>
</svg>
