<?xml version="1.0" encoding="utf-8"?>
<svg id="master-artboard" viewBox="0 0 471 106" version="1.1" xmlns="http://www.w3.org/2000/svg" x="0px" y="0px" style="enable-background:new 0 0 1400 980;" width="471px" height="106px"><rect id="ee-background" x="0" y="0" width="471" height="106" style="fill: white; fill-opacity: 0; pointer-events: none;" transform="matrix(1, 0, 0, 1, 5, 0)"/><defs><style id="ee-google-fonts">@import url(https://fonts.googleapis.com/css?family=Roboto:100,100italic,300,300italic,400,400italic,500,500italic,700,700italic,900,900italic);</style><filter id="Rectangle_40" x="0" y="0" width="549.943" height="733.171" filterUnits="userSpaceOnUse">
      <feOffset dx="3.738" dy="3.738" input="SourceAlpha"/>
      <feGaussianBlur stdDeviation="9.344" result="blur"/>
      <feFlood flood-color="#6d6e70" flood-opacity="0.451"/>
      <feComposite operator="in" in2="blur"/>
      <feComposite in="SourceGraphic"/>
    </filter><clipPath id="clip-path">
      <path d="M 52.007999 0 H 418.841 A 52.007999 52.007999 0 0 1 470.848999 52.007999 V 54.576 A 52.007999 52.007999 0 0 1 418.841 106.584 H 52.007999 A 52.007999 52.007999 0 0 1 0 54.576 V 52.007999 A 52.007999 52.007999 0 0 1 52.007999 0 Z" id="SVGID" transform="translate(146.232 778.326)" fill="none"/>
    </clipPath><linearGradient id="linear-gradient" y1="0.5" x2="1" y2="0.5" gradientUnits="objectBoundingBox">
      <stop offset="0" stop-color="#b82455"/>
      <stop offset="0.062" stop-color="#b82757"/>
      <stop offset="0.119" stop-color="#b8325f"/>
      <stop offset="0.174" stop-color="#b9456c"/>
      <stop offset="0.227" stop-color="#bb5f7f"/>
      <stop offset="0.256" stop-color="#bc718c"/>
      <stop offset="0.533" stop-color="#fdd9c7"/>
      <stop offset="0.777" stop-color="#bc718c"/>
      <stop offset="1" stop-color="#b82455"/>
    </linearGradient><linearGradient id="linear-gradient-2" x1="0.5" y1="1" x2="0.5" gradientUnits="objectBoundingBox">
      <stop offset="0" stop-color="#f45461"/>
      <stop offset="0.356" stop-color="#f16283"/>
      <stop offset="0.555" stop-color="#f37a87"/>
      <stop offset="1" stop-color="#fbbd97"/>
    </linearGradient><linearGradient id="linear-gradient-3" x1="0.265" y1="0.588" x2="1.248" y2="0.936" gradientUnits="objectBoundingBox">
      <stop offset="0" stop-color="#fff"/>
      <stop offset="1" stop-color="#c3e7f0"/>
    </linearGradient><clipPath id="path-1">
      <path d="M 52.007999 0 H 418.841 A 52.007999 52.007999 0 0 1 470.848999 52.007999 V 54.576 A 52.007999 52.007999 0 0 1 418.841 106.584 H 52.007999 A 52.007999 52.007999 0 0 1 0 54.576 V 52.007999 A 52.007999 52.007999 0 0 1 52.007999 0 Z" id="path-2" transform="translate(146.232 778.326)" fill="none"/>
    </clipPath><linearGradient id="gradient-1" y1="0.5" x2="1" y2="0.5" gradientUnits="objectBoundingBox">
      <stop offset="0" stop-color="#b82455"/>
      <stop offset="0.062" stop-color="#b82757"/>
      <stop offset="0.119" stop-color="#b8325f"/>
      <stop offset="0.174" stop-color="#b9456c"/>
      <stop offset="0.227" stop-color="#bb5f7f"/>
      <stop offset="0.256" stop-color="#bc718c"/>
      <stop offset="0.533" stop-color="#fdd9c7"/>
      <stop offset="0.777" stop-color="#bc718c"/>
      <stop offset="1" stop-color="#b82455"/>
    </linearGradient></defs>























































































































<g transform="matrix(0.9530922770500183, 0, 0, 0.8740277886390686, 0.5669136047363281, 4.95501708984375)"><rect id="rect-1" x="0" y="0" width="494.1809997558594" height="110.40806579589844" style="fill: white; fill-opacity: 0; pointer-events: none;" transform="matrix(1, 0, 0, 1, 0, 3)"/><g transform="matrix(1.0491687059402466, 0, 0, 1.0491687059402466, -0.00000286102294921875, -1.3957290649414062)"><g id="bt_cancel" transform="translate(-146.232 -778)">
    <g id="g-1" data-name="Group 69" transform="translate(0 -0.326)">
      <g id="g-2" data-name="Group 68" clip-path="url(#clip-path)">
        <path d="M 52.007999 0 H 418.841 A 52.007999 52.007999 0 0 1 470.848999 52.007999 V 54.576 A 52.007999 52.007999 0 0 1 418.841 106.584 H 52.007999 A 52.007999 52.007999 0 0 1 0 54.576 V 52.007999 A 52.007999 52.007999 0 0 1 52.007999 0 Z" id="path-3" data-name="Rectangle 41" transform="translate(146.232 778.326)" fill="url(#linear-gradient)"/>
        <path d="M 52.007999 0 H 418.841 A 52.007999 52.007999 0 0 1 470.848999 52.007999 V 54.576 A 52.007999 52.007999 0 0 1 418.841 106.584 H 52.007999 A 52.007999 52.007999 0 0 1 0 54.576 V 52.007999 A 52.007999 52.007999 0 0 1 52.007999 0 Z" id="path-4" data-name="Rectangle 42" transform="translate(146.232 787.336)" fill="#f04e6b"/>
      </g>
    </g>
    <foreignObject class="multi-line-input__container" transform="translate(316.233 851.222)" y="-40" height="49" width="136"><div xmlns="http://www.w3.org/1999/xhtml" class="multi-line-input" contenteditable="true" style="font-size: 45.276px; white-space: pre; fill: rgb(255, 255, 255); font-family: Prompt-SemiBold, Prompt; font-weight: 600; color: rgb(255, 255, 255); display: inline-block;"></div></foreignObject>
  </g></g></g></svg>