<?xml version="1.0" encoding="utf-8"?>
<svg id="master-artboard" viewBox="0 0 280 280" version="1.1" xmlns="http://www.w3.org/2000/svg" x="0px" y="0px" style="enable-background:new 0 0 1400 980;" width="280px" height="280px"><rect id="ee-background" x="0" y="0" width="280" height="280" style="fill: white; fill-opacity: 0; pointer-events: none;"/><defs><style id="ee-google-fonts">@import url(https://fonts.googleapis.com/css?family=Asul:400,700);</style><style id="style-1">@import url(https://fonts.googleapis.com/css?family=Fjalla+One:400|Roboto:100,100italic,300,300italic,400,400italic,500,500italic,700,700italic,900,900italic);</style></defs>

































































































<g transform="matrix(1, 0, 0, 1, 0.000014357985492097214, 0)"><rect id="rect-1" x="0" y="0" width="280" height="280" style="fill: white; fill-opacity: 0; pointer-events: none;"/><g transform="matrix(0.5468749403953552, 0, 0, 0.5472341179847717, 0.05730355158448219, 1.3836820125579834)"><g>
</g><g>
</g><g>
</g><g>
</g><g>
</g><g>
</g><g>
</g><g>
</g><g>
</g><g>
</g><g>
</g><g>
</g><g>
</g><g>
</g><g>
</g><path d="M 192.69525146484375 888.0654296875 L 183.14524841308594 888.0654296875 L 183.14524841308594 870.9354248046875 L 192.69525146484375 870.9354248046875 L 192.69525146484375 872.7054443359375 L 185.13525390625 872.7054443359375 L 185.13525390625 878.2254028320312 L 192.23524475097656 878.2254028320312 L 192.23524475097656 879.9754028320312 L 185.13525390625 879.9754028320312 L 185.13525390625 886.285400390625 L 192.69525146484375 886.285400390625 L 192.69525146484375 888.0654296875 ZM 204.97134399414062 888.0654296875 L 204.97134399414062 879.7554321289062 C 204.97134399414062 878.708740234375 204.7346649169922 877.9287719726562 204.26133728027344 877.4154052734375 C 203.78134155273438 876.8954467773438 203.03466796875 876.6354370117188 202.02133178710938 876.6354370117188 C 200.67466735839844 876.6354370117188 199.69134521484375 876.998779296875 199.0713348388672 877.7254028320312 C 198.44467163085938 878.4520874023438 198.13133239746094 879.652099609375 198.13133239746094 881.325439453125 L 198.13133239746094 888.0654296875 L 196.18133544921875 888.0654296875 L 196.18133544921875 875.2254028320312 L 197.76133728027344 875.2254028320312 L 198.0813446044922 876.9754028320312 L 198.1713409423828 876.9754028320312 C 198.5713348388672 876.3421020507812 199.13133239746094 875.8521118164062 199.85133361816406 875.5054321289062 C 200.5713348388672 875.1587524414062 201.371337890625 874.9854125976562 202.2513427734375 874.9854125976562 C 203.79800415039062 874.9854125976562 204.9646759033203 875.3587646484375 205.7513427734375 876.1054077148438 C 206.53134155273438 876.8521118164062 206.9213409423828 878.04541015625 206.9213409423828 879.6854248046875 L 206.9213409423828 888.0654296875 L 204.97134399414062 888.0654296875 ZM 215.04905700683594 886.6954345703125 C 215.39572143554688 886.6954345703125 215.7290496826172 886.6687622070312 216.04905700683594 886.6154174804688 C 216.36904907226562 886.5687866210938 216.6223907470703 886.5154418945312 216.80905151367188 886.4554443359375 L 216.80905151367188 887.9454345703125 C 216.59571838378906 888.0521240234375 216.2857208251953 888.1354370117188 215.87904357910156 888.1954345703125 C 215.46571350097656 888.2620849609375 215.09571838378906 888.29541015625 214.76904296875 888.29541015625 C 212.28237915039062 888.29541015625 211.03904724121094 886.98876953125 211.03904724121094 884.3754272460938 L 211.03904724121094 876.7354125976562 L 209.1990509033203 876.7354125976562 L 209.1990509033203 875.79541015625 L 211.03904724121094 874.9854125976562 L 211.8590545654297 872.2454223632812 L 212.98904418945312 872.2454223632812 L 212.98904418945312 875.2254028320312 L 216.71905517578125 875.2254028320312 L 216.71905517578125 876.7354125976562 L 212.98904418945312 876.7354125976562 L 212.98904418945312 884.29541015625 C 212.98904418945312 885.0687866210938 213.17237854003906 885.662109375 213.53904724121094 886.075439453125 C 213.9057159423828 886.48876953125 214.4090576171875 886.6954345703125 215.04905700683594 886.6954345703125 ZM 224.79432678222656 888.29541015625 C 222.89431762695312 888.29541015625 221.39431762695312 887.71875 220.29432678222656 886.5654296875 C 219.20098876953125 885.412109375 218.65432739257812 883.805419921875 218.65432739257812 881.7454223632812 C 218.65432739257812 879.6787719726562 219.16432189941406 878.035400390625 220.184326171875 876.8154296875 C 221.20431518554688 875.595458984375 222.57098388671875 874.9854125976562 224.28431701660156 874.9854125976562 C 225.8976593017578 874.9854125976562 227.17098999023438 875.5154418945312 228.1043243408203 876.575439453125 C 229.04432678222656 877.6354370117188 229.5143280029297 879.0321044921875 229.5143280029297 880.7654418945312 L 229.5143280029297 881.9954223632812 L 220.66432189941406 881.9954223632812 C 220.70431518554688 883.5020751953125 221.08766174316406 884.6454467773438 221.81431579589844 885.4254150390625 C 222.53431701660156 886.2120971679688 223.55099487304688 886.6054077148438 224.86431884765625 886.6054077148438 C 226.24432373046875 886.6054077148438 227.61099243164062 886.3154296875 228.96432495117188 885.7354125976562 L 228.96432495117188 887.4654541015625 C 228.27764892578125 887.7654418945312 227.62765502929688 887.978759765625 227.0143280029297 888.1054077148438 C 226.40098571777344 888.2321166992188 225.66098022460938 888.29541015625 224.79432678222656 888.29541015625 M 224.2643280029297 876.6154174804688 C 223.23098754882812 876.6154174804688 222.40765380859375 876.9520874023438 221.79432678222656 877.6254272460938 C 221.1809844970703 878.2987670898438 220.82098388671875 879.228759765625 220.71432495117188 880.4154052734375 L 227.434326171875 880.4154052734375 C 227.434326171875 879.1887817382812 227.15765380859375 878.248779296875 226.6043243408203 877.595458984375 C 226.05764770507812 876.9420776367188 225.27764892578125 876.6154174804688 224.2643280029297 876.6154174804688 ZM 238.67750549316406 874.9854125976562 C 239.25083923339844 874.9854125976562 239.76417541503906 875.0321044921875 240.21751403808594 875.1254272460938 L 239.947509765625 876.9354248046875 C 239.41416931152344 876.8154296875 238.9441680908203 876.7554321289062 238.53750610351562 876.7554321289062 C 237.4975128173828 876.7554321289062 236.61083984375 877.1787719726562 235.87750244140625 878.0254516601562 C 235.13751220703125 878.8654174804688 234.7675018310547 879.9154052734375 234.7675018310547 881.1754150390625 L 234.7675018310547 888.0654296875 L 232.8175048828125 888.0654296875 L 232.8175048828125 875.2254028320312 L 234.42750549316406 875.2254028320312 L 234.6475067138672 877.6054077148438 L 234.7375030517578 877.6054077148438 C 235.21751403808594 876.7654418945312 235.79417419433594 876.1187744140625 236.46751403808594 875.6654052734375 C 237.13417053222656 875.2120971679688 237.87083435058594 874.9854125976562 238.67750549316406 874.9854125976562 ZM 246.79483032226562 875.2254028320312 L 248.88482666015625 875.2254028320312 L 251.69482421875 882.54541015625 C 252.3148193359375 884.21875 252.6981658935547 885.4254150390625 252.84483337402344 886.1654052734375 L 252.93482971191406 886.1654052734375 C 253.04148864746094 885.7654418945312 253.25482177734375 885.08544921875 253.5748291015625 884.1254272460938 C 253.9014892578125 883.1587524414062 254.96148681640625 880.1920776367188 256.75482177734375 875.2254028320312 L 258.8448181152344 875.2254028320312 L 253.3248291015625 889.845458984375 C 252.7781524658203 891.2921142578125 252.13815307617188 892.3187866210938 251.4048309326172 892.9254150390625 C 250.67816162109375 893.5321044921875 249.78482055664062 893.83544921875 248.72482299804688 893.83544921875 C 248.1248321533203 893.83544921875 247.5381622314453 893.7687377929688 246.96482849121094 893.6354370117188 L 246.96482849121094 892.075439453125 C 247.39149475097656 892.1687622070312 247.87149047851562 892.2154541015625 248.4048309326172 892.2154541015625 C 249.7381591796875 892.2154541015625 250.69149780273438 891.4654541015625 251.26483154296875 889.9654541015625 L 251.97482299804688 888.1354370117188 L 246.79483032226562 875.2254028320312 ZM 272.0080871582031 881.6354370117188 C 272.0080871582031 883.728759765625 271.4814147949219 885.3621215820312 270.4281005859375 886.535400390625 C 269.36810302734375 887.708740234375 267.91143798828125 888.29541015625 266.05810546875 888.29541015625 C 264.9047546386719 888.29541015625 263.884765625 888.0287475585938 262.99810791015625 887.4954223632812 C 262.1047668457031 886.9554443359375 261.4147644042969 886.1820678710938 260.9281005859375 885.1754150390625 C 260.4480895996094 884.162109375 260.2080993652344 882.9821166992188 260.2080993652344 881.6354370117188 C 260.2080993652344 879.5421142578125 260.7314147949219 877.9087524414062 261.7781066894531 876.7354125976562 C 262.82476806640625 875.5687866210938 264.2781066894531 874.9854125976562 266.1380920410156 874.9854125976562 C 267.9314270019531 874.9854125976562 269.35809326171875 875.5820922851562 270.4180908203125 876.7754516601562 C 271.47808837890625 877.9754028320312 272.0080871582031 879.595458984375 272.0080871582031 881.6354370117188 M 262.21807861328125 881.6354370117188 C 262.21807861328125 883.2754516601562 262.548095703125 884.5254516601562 263.2080993652344 885.3854370117188 C 263.8614196777344 886.2454223632812 264.82476806640625 886.6754150390625 266.09808349609375 886.6754150390625 C 267.3714294433594 886.6754150390625 268.3381042480469 886.2454223632812 268.99810791015625 885.3854370117188 C 269.6580810546875 884.5321044921875 269.98809814453125 883.2821044921875 269.98809814453125 881.6354370117188 C 269.98809814453125 880.0020751953125 269.6580810546875 878.7620849609375 268.99810791015625 877.9154052734375 C 268.3381042480469 877.0620727539062 267.36474609375 876.6354370117188 266.0780944824219 876.6354370117188 C 264.80474853515625 876.6354370117188 263.8447570800781 877.055419921875 263.1980895996094 877.8954467773438 C 262.5447692871094 878.728759765625 262.21807861328125 879.9754028320312 262.21807861328125 881.6354370117188 ZM 277.23162841796875 875.2254028320312 L 277.23162841796875 883.555419921875 C 277.23162841796875 884.6021118164062 277.47161865234375 885.382080078125 277.95159912109375 885.8954467773438 C 278.4249572753906 886.4154052734375 279.16827392578125 886.6754150390625 280.1816101074219 886.6754150390625 C 281.5282897949219 886.6754150390625 282.5116271972656 886.305419921875 283.1316223144531 885.5654296875 C 283.7516174316406 884.8320922851562 284.0616149902344 883.6354370117188 284.0616149902344 881.9754028320312 L 284.0616149902344 875.2254028320312 L 286.0116271972656 875.2254028320312 L 286.0116271972656 888.0654296875 L 284.401611328125 888.0654296875 L 284.1216125488281 886.345458984375 L 284.0216064453125 886.345458984375 C 283.6216125488281 886.978759765625 283.0682678222656 887.4620971679688 282.3616027832031 887.79541015625 C 281.6549377441406 888.1287841796875 280.8482666015625 888.29541015625 279.9416198730469 888.29541015625 C 278.37493896484375 888.29541015625 277.2049560546875 887.9254150390625 276.4316101074219 887.1854248046875 C 275.651611328125 886.4454345703125 275.2616271972656 885.2587890625 275.2616271972656 883.6254272460938 L 275.2616271972656 875.2254028320312 L 277.23162841796875 875.2254028320312 ZM 295.9793395996094 874.9854125976562 C 296.55267333984375 874.9854125976562 297.06597900390625 875.0321044921875 297.5193176269531 875.1254272460938 L 297.24932861328125 876.9354248046875 C 296.71600341796875 876.8154296875 296.2460021972656 876.7554321289062 295.8393249511719 876.7554321289062 C 294.79931640625 876.7554321289062 293.91265869140625 877.1787719726562 293.1793212890625 878.0254516601562 C 292.4393310546875 878.8654174804688 292.0693359375 879.9154052734375 292.0693359375 881.1754150390625 L 292.0693359375 888.0654296875 L 290.11932373046875 888.0654296875 L 290.11932373046875 875.2254028320312 L 291.7293395996094 875.2254028320312 L 291.9493408203125 877.6054077148438 L 292.0393371582031 877.6054077148438 C 292.5193176269531 876.7654418945312 293.09600830078125 876.1187744140625 293.7693176269531 875.6654052734375 C 294.4360046386719 875.2120971679688 295.17266845703125 874.9854125976562 295.9793395996094 874.9854125976562 ZM 310.2866516113281 886.6954345703125 C 310.6333312988281 886.6954345703125 310.9666748046875 886.6687622070312 311.2866516113281 886.6154174804688 C 311.6066589355469 886.5687866210938 311.8599853515625 886.5154418945312 312.0466613769531 886.4554443359375 L 312.0466613769531 887.9454345703125 C 311.83331298828125 888.0521240234375 311.5233154296875 888.1354370117188 311.1166687011719 888.1954345703125 C 310.7033386230469 888.2620849609375 310.33331298828125 888.29541015625 310.00665283203125 888.29541015625 C 307.5199890136719 888.29541015625 306.27667236328125 886.98876953125 306.27667236328125 884.3754272460938 L 306.27667236328125 876.7354125976562 L 304.4366455078125 876.7354125976562 L 304.4366455078125 875.79541015625 L 306.27667236328125 874.9854125976562 L 307.0966491699219 872.2454223632812 L 308.2266540527344 872.2454223632812 L 308.2266540527344 875.2254028320312 L 311.9566650390625 875.2254028320312 L 311.9566650390625 876.7354125976562 L 308.2266540527344 876.7354125976562 L 308.2266540527344 884.29541015625 C 308.2266540527344 885.0687866210938 308.4100036621094 885.662109375 308.77667236328125 886.075439453125 C 309.1433410644531 886.48876953125 309.64666748046875 886.6954345703125 310.2866516113281 886.6954345703125 ZM 320.03192138671875 888.29541015625 C 318.1319274902344 888.29541015625 316.6319274902344 887.71875 315.53192138671875 886.5654296875 C 314.4385986328125 885.412109375 313.8919372558594 883.805419921875 313.8919372558594 881.7454223632812 C 313.8919372558594 879.6787719726562 314.40191650390625 878.035400390625 315.42193603515625 876.8154296875 C 316.4419250488281 875.595458984375 317.80859375 874.9854125976562 319.5219421386719 874.9854125976562 C 321.13525390625 874.9854125976562 322.4085998535156 875.5154418945312 323.3419189453125 876.575439453125 C 324.28192138671875 877.6354370117188 324.7519226074219 879.0321044921875 324.7519226074219 880.7654418945312 L 324.7519226074219 881.9954223632812 L 315.90191650390625 881.9954223632812 C 315.9419250488281 883.5020751953125 316.32525634765625 884.6454467773438 317.05194091796875 885.4254150390625 C 317.7719421386719 886.2120971679688 318.7886047363281 886.6054077148438 320.1019287109375 886.6054077148438 C 321.48193359375 886.6054077148438 322.8486022949219 886.3154296875 324.2019348144531 885.7354125976562 L 324.2019348144531 887.4654541015625 C 323.5152587890625 887.7654418945312 322.8652648925781 887.978759765625 322.2519226074219 888.1054077148438 C 321.63861083984375 888.2321166992188 320.8985900878906 888.29541015625 320.03192138671875 888.29541015625 M 319.5019226074219 876.6154174804688 C 318.4685974121094 876.6154174804688 317.645263671875 876.9520874023438 317.03192138671875 877.6254272460938 C 316.4186096191406 878.2987670898438 316.05859375 879.228759765625 315.9519348144531 880.4154052734375 L 322.67193603515625 880.4154052734375 C 322.67193603515625 879.1887817382812 322.395263671875 878.248779296875 321.8419189453125 877.595458984375 C 321.2952575683594 876.9420776367188 320.5152587890625 876.6154174804688 319.5019226074219 876.6154174804688 ZM 331.1551208496094 881.4954223632812 L 326.68511962890625 875.2254028320312 L 328.9051208496094 875.2254028320312 L 332.2851257324219 880.1454467773438 L 335.6651306152344 875.2254028320312 L 337.8551025390625 875.2254028320312 L 333.3851318359375 881.4954223632812 L 338.0851135253906 888.0654296875 L 335.8851318359375 888.0654296875 L 332.2851257324219 882.8654174804688 L 328.6551208496094 888.0654296875 L 326.4551086425781 888.0654296875 L 331.1551208496094 881.4954223632812 ZM 344.7684020996094 886.6954345703125 C 345.1150817871094 886.6954345703125 345.44842529296875 886.6687622070312 345.7684020996094 886.6154174804688 C 346.0884094238281 886.5687866210938 346.34173583984375 886.5154418945312 346.5284118652344 886.4554443359375 L 346.5284118652344 887.9454345703125 C 346.3150634765625 888.0521240234375 346.00506591796875 888.1354370117188 345.5984191894531 888.1954345703125 C 345.1850891113281 888.2620849609375 344.8150634765625 888.29541015625 344.4884033203125 888.29541015625 C 342.0017395019531 888.29541015625 340.7584228515625 886.98876953125 340.7584228515625 884.3754272460938 L 340.7584228515625 876.7354125976562 L 338.91839599609375 876.7354125976562 L 338.91839599609375 875.79541015625 L 340.7584228515625 874.9854125976562 L 341.5783996582031 872.2454223632812 L 342.7084045410156 872.2454223632812 L 342.7084045410156 875.2254028320312 L 346.43841552734375 875.2254028320312 L 346.43841552734375 876.7354125976562 L 342.7084045410156 876.7354125976562 L 342.7084045410156 884.29541015625 C 342.7084045410156 885.0687866210938 342.8917541503906 885.662109375 343.2584228515625 886.075439453125 C 343.6250915527344 886.48876953125 344.12841796875 886.6954345703125 344.7684020996094 886.6954345703125 ZM 364.1026306152344 888.0654296875 L 364.1026306152344 879.7554321289062 C 364.1026306152344 878.708740234375 363.865966796875 877.9287719726562 363.39263916015625 877.4154052734375 C 362.9126281738281 876.8954467773438 362.16595458984375 876.6354370117188 361.1526184082031 876.6354370117188 C 359.7992858886719 876.6354370117188 358.8126220703125 877.0054321289062 358.192626953125 877.7454223632812 C 357.5726318359375 878.478759765625 357.26263427734375 879.6820678710938 357.26263427734375 881.3554077148438 L 357.26263427734375 888.0654296875 L 355.3126220703125 888.0654296875 L 355.3126220703125 869.83544921875 L 357.26263427734375 869.83544921875 L 357.26263427734375 875.3554077148438 C 357.26263427734375 876.0154418945312 357.2292785644531 876.5654296875 357.1626281738281 877.0054321289062 L 357.2826232910156 877.0054321289062 C 357.6692810058594 876.3854370117188 358.2159423828125 875.8987426757812 358.9226379394531 875.54541015625 C 359.6293029785156 875.1920776367188 360.4359436035156 875.0154418945312 361.3426208496094 875.0154418945312 C 362.9093017578125 875.0154418945312 364.0859680175781 875.3854370117188 364.87261962890625 876.1254272460938 C 365.6593017578125 876.8720703125 366.0526123046875 878.0587768554688 366.0526123046875 879.6854248046875 L 366.0526123046875 888.0654296875 L 364.1026306152344 888.0654296875 ZM 375.4603271484375 888.29541015625 C 373.5603332519531 888.29541015625 372.0603332519531 887.71875 370.9603271484375 886.5654296875 C 369.86700439453125 885.412109375 369.3203430175781 883.805419921875 369.3203430175781 881.7454223632812 C 369.3203430175781 879.6787719726562 369.830322265625 878.035400390625 370.850341796875 876.8154296875 C 371.8703308105469 875.595458984375 373.23699951171875 874.9854125976562 374.9503479003906 874.9854125976562 C 376.56365966796875 874.9854125976562 377.8370056152344 875.5154418945312 378.77032470703125 876.575439453125 C 379.7103271484375 877.6354370117188 380.1803283691406 879.0321044921875 380.1803283691406 880.7654418945312 L 380.1803283691406 881.9954223632812 L 371.330322265625 881.9954223632812 C 371.3703308105469 883.5020751953125 371.753662109375 884.6454467773438 372.4803466796875 885.4254150390625 C 373.2003479003906 886.2120971679688 374.2170104980469 886.6054077148438 375.53033447265625 886.6054077148438 C 376.91033935546875 886.6054077148438 378.2770080566406 886.3154296875 379.6303405761719 885.7354125976562 L 379.6303405761719 887.4654541015625 C 378.94366455078125 887.7654418945312 378.2936706542969 887.978759765625 377.6803283691406 888.1054077148438 C 377.0670166015625 888.2321166992188 376.3269958496094 888.29541015625 375.4603271484375 888.29541015625 M 374.9303283691406 876.6154174804688 C 373.8970031738281 876.6154174804688 373.07366943359375 876.9520874023438 372.4603271484375 877.6254272460938 C 371.8470153808594 878.2987670898438 371.48699951171875 879.228759765625 371.3803405761719 880.4154052734375 L 378.100341796875 880.4154052734375 C 378.100341796875 879.1887817382812 377.82366943359375 878.248779296875 377.27032470703125 877.595458984375 C 376.7236633300781 876.9420776367188 375.94366455078125 876.6154174804688 374.9303283691406 876.6154174804688 ZM 389.3435363769531 874.9854125976562 C 389.9168701171875 874.9854125976562 390.43017578125 875.0321044921875 390.8835144042969 875.1254272460938 L 390.613525390625 876.9354248046875 C 390.0802001953125 876.8154296875 389.6101989746094 876.7554321289062 389.2035217285156 876.7554321289062 C 388.16351318359375 876.7554321289062 387.27685546875 877.1787719726562 386.54351806640625 878.0254516601562 C 385.80352783203125 878.8654174804688 385.43353271484375 879.9154052734375 385.43353271484375 881.1754150390625 L 385.43353271484375 888.0654296875 L 383.4835205078125 888.0654296875 L 383.4835205078125 875.2254028320312 L 385.0935363769531 875.2254028320312 L 385.31353759765625 877.6054077148438 L 385.4035339355469 877.6054077148438 C 385.8835144042969 876.7654418945312 386.460205078125 876.1187744140625 387.1335144042969 875.6654052734375 C 387.8002014160156 875.2120971679688 388.536865234375 874.9854125976562 389.3435363769531 874.9854125976562 ZM 398.7018737792969 888.29541015625 C 396.8018798828125 888.29541015625 395.3018798828125 887.71875 394.2018737792969 886.5654296875 C 393.1085510253906 885.412109375 392.5618896484375 883.805419921875 392.5618896484375 881.7454223632812 C 392.5618896484375 879.6787719726562 393.0718688964844 878.035400390625 394.0918884277344 876.8154296875 C 395.11187744140625 875.595458984375 396.4785461425781 874.9854125976562 398.19189453125 874.9854125976562 C 399.8052062988281 874.9854125976562 401.07855224609375 875.5154418945312 402.0118713378906 876.575439453125 C 402.9518737792969 877.6354370117188 403.421875 879.0321044921875 403.421875 880.7654418945312 L 403.421875 881.9954223632812 L 394.5718688964844 881.9954223632812 C 394.61187744140625 883.5020751953125 394.9952087402344 884.6454467773438 395.7218933105469 885.4254150390625 C 396.44189453125 886.2120971679688 397.45855712890625 886.6054077148438 398.7718811035156 886.6054077148438 C 400.1518859863281 886.6054077148438 401.5185546875 886.3154296875 402.87188720703125 885.7354125976562 L 402.87188720703125 887.4654541015625 C 402.1852111816406 887.7654418945312 401.53521728515625 887.978759765625 400.921875 888.1054077148438 C 400.3085632324219 888.2321166992188 399.56854248046875 888.29541015625 398.7018737792969 888.29541015625 M 398.171875 876.6154174804688 C 397.1385498046875 876.6154174804688 396.3152160644531 876.9520874023438 395.7018737792969 877.6254272460938 C 395.08856201171875 878.2987670898438 394.7285461425781 879.228759765625 394.62188720703125 880.4154052734375 L 401.3418884277344 880.4154052734375 C 401.3418884277344 879.1887817382812 401.0652160644531 878.248779296875 400.5118713378906 877.595458984375 C 399.9652099609375 876.9420776367188 399.1852111816406 876.6154174804688 398.171875 876.6154174804688 Z" transform="matrix(1, 0, 0, 1, 0, 0)" style="fill: rgb(51, 51, 51); white-space: pre; color: rgb(51, 51, 51);"/></g></g><g transform="matrix(1.0000001089913504, 0, 0, 1.0000001089913504, 0.000011623928003245965, 0)"><rect id="rect-2" x="0" y="0" width="280" height="280" style="fill: white; fill-opacity: 0; pointer-events: none;"/><g transform="matrix(0.5468749403953552, 0, 0, 0.5472341179847717, 0.05730355158448219, 1.3836820125579834)"><path d="M 512 256 A 256 255.832001 0 0 1 256 511.832001 A 256 255.832001 0 0 1 0 256 A 256 255.832001 0 0 1 256 0.167999 A 256 255.832001 0 0 1 512 256 Z" style="fill: rgb(240, 78, 107);" transform="matrix(1, 0, 0, 1, 0, -1.827371443291165)"/><g>
</g><g>
</g><g>
</g><g>
</g><g>
</g><g>
</g><g>
</g><g>
</g><g>
</g><g>
</g><g>
</g><g>
</g><g>
</g><g>
</g><g>
</g></g></g><g transform="matrix(2.048036813735962, 0, 0, 2.048036813735962, -922.083984375, -1239.864501953125)"><path d="M 562.5999755859375 646.9000244140625 L 545.5999755859375 629.9000244140625 L 518.7000122070312 656.7000122070312 L 491.8999938964844 629.9000244140625 L 474.8999938964844 646.9000244140625 L 501.70001220703125 673.7999877929688 L 474.8999938964844 700.5999755859375 L 491.8999938964844 717.5999755859375 L 518.7000122070312 690.7999877929688 L 545.5999755859375 717.5999755859375 L 562.5999755859375 700.5999755859375 L 535.7999877929688 673.7999877929688 Z" class="st0" style="fill: rgb(236, 237, 238);" transform="matrix(1, 0, 0, 1, 0, 0)"/></g></svg>