<?xml version="1.0" encoding="utf-8"?>
<svg id="master-artboard" viewBox="0 0 87 87" version="1.1" xmlns="http://www.w3.org/2000/svg" x="0px" y="0px" style="enable-background:new 0 0 336 235.2;" width="87px" height="87px"><rect id="ee-background" x="0" y="0" width="87" height="87" style="fill: white; fill-opacity: 0; pointer-events: none;"/><defs><style id="ee-google-fonts">@import url(https://fonts.googleapis.com/css?family=Audiowide:400);</style></defs>





















































































































































<g transform="matrix(0.9994600954439067, 0, 0, 0.9994600954439067, 0, 0.00000762939453125)"><g id="bt_wifi_open" transform="translate(-363.06 -257.204)">
    <path id="Path_1238" data-name="Path 1238" d="M43.523,0A43.523,43.523,0,1,1,0,43.523,43.523,43.523,0,0,1,43.523,0Z" transform="translate(363.059 257.204)" fill="#4a70b4" style="fill: rgb(252, 181, 96);"/>
    
  </g></g><g transform="matrix(0.1164690852165222, 0, 0, 0.1164690852165222, 16.2448616027832, 16.891716003417965)"><g>
	<g>
		<path d="M431.168,230.762c-23.552-75.776-98.304-127.488-187.904-129.024V13.162c0-4.096-3.584-7.68-7.68-7.68&#10;&#9;&#9;&#9;c-1.536,0-3.072,0.512-4.608,1.536L3.136,171.882c-3.584,2.56-4.096,7.168-1.536,10.752c0.512,0.512,1.024,1.024,1.536,1.536&#10;&#9;&#9;&#9;l227.84,163.84c3.584,2.56,8.192,1.536,10.752-1.536c1.024-1.536,1.536-3.072,1.536-4.608v-88.064&#10;&#9;&#9;&#9;c55.296,0,101.888,26.112,118.272,65.536c13.824,33.792,2.56,70.144-30.208,100.352c-3.072,3.072-3.584,7.68-0.512,10.752&#10;&#9;&#9;&#9;c1.536,1.536,3.584,2.56,5.632,2.56h6.144c1.536,0,3.072-0.512,4.096-1.536C421.952,381.802,454.208,304.49,431.168,230.762z" style="fill: rgb(235, 237, 228);"/>
	</g>
</g><g>
</g><g>
</g><g>
</g><g>
</g><g>
</g><g>
</g><g>
</g><g>
</g><g>
</g><g>
</g><g>
</g><g>
</g><g>
</g><g>
</g><g>
</g></g></svg>