<svg xmlns="http://www.w3.org/2000/svg" xmlns:xlink="http://www.w3.org/1999/xlink" width="78.949" height="78.949" viewBox="0 0 78.949 78.949">
  <defs>
    <clipPath id="clip-path">
      <circle id="Ellipse_93" data-name="Ellipse 93" cx="39.475" cy="39.475" r="39.475" fill="none"/>
    </clipPath>
  </defs>
  <g id="bt_en_a" transform="translate(78.949 78.949) rotate(180)">
    <g id="Group_767" data-name="Group 767">
      <g id="Group_766" data-name="Group 766" clip-path="url(#clip-path)">
        <g id="Group_765" data-name="Group 765" transform="translate(-20.199 -1.911)">
          <g id="Group_759" data-name="Group 759" transform="translate(0 0)">
            <rect id="Rectangle_397" data-name="Rectangle 397" width="135.745" height="82.772" fill="#2d3081"/>
          </g>
          <g id="Group_760" data-name="Group 760">
            <path id="Path_1225" data-name="Path 1225" d="M252.5-150.014h-1.424v5.96l42.267,24.4L296.212-118l2.867,1.655,11.575,6.681,1.609.927.351.205,1.265.728.344.2,1.609.934,4.721,2.722,1.616.934.344.2,1.265.728.344.2,1.609.934.927.53,2.006,1.159,2.867,1.655,52.6,30.367h2.7V-77.433L351.874-97.61l-2.867-1.655-2.867-1.655-10.807-6.238-1.609-.927-.344-.205-1.265-.728-.344-.2-1.616-.934-4.721-2.722-1.609-.934-.344-.2-1.265-.728-.351-.2-1.609-.934-9.019-5.2-1.655-.96-1.655-.954-46.816-27.03H252.5Z" transform="translate(-251.078 150.014)" fill="#e34554"/>
            <path id="Path_1226" data-name="Path 1226" d="M317.4-107.681l-1.61-.927-.344-.205-1.562,1.013.344.2,1.609.934,4.721,2.721,1.562-1.006Zm0,0-1.61-.927-.344-.205-1.562,1.013.344.2,1.609.934,4.721,2.721,1.562-1.006Zm0,0-1.61-.927-.344-.205-1.562,1.013.344.2,1.609.934,4.721,2.721,1.562-1.006ZM334.837-97.61l-2.867-1.655L329.1-100.92l-1.809-1.046-1.609-.927-.344-.2-1.265-.735-.344-.2-1.616-.927-4.72-2.728-1.61-.927-.344-.205-1.265-.729-.351-.2-1.608-.927-9.821-5.675L299.53-118l-2.867-1.656-45.585-26.321v3.828l38.962,22.494L292.907-118l2.868,1.655,13.323,7.694,1.6.927.351.2,1.265.729.344.2,1.609.934,4.721,2.728,1.615.927.344.2,1.266.734.344.2,1.609.926,2.489,1.437,1.656.954,1.655.959,50.842,29.355h6.012v-.351Zm20.349,0-2.867-1.655-2.867-1.656L336.9-108.165l-1.609-.934-.344-.2-1.265-.729-.344-.2-1.616-.934L327-113.886l-1.609-.927-.344-.2-1.265-.729-.351-.205-1.609-.927-10.582-6.112-1.656-.954-1.655-.959-43.512-25.117h-6.621l50.133,28.943,1.655.954,1.656.961,7.463,4.3,1.6.927.351.205,1.265.729.344.2,1.609.927,4.721,2.728,1.616.927.344.2,1.265.734.344.2,1.609.926,9.058,5.232,2.867,1.656,2.867,1.655,38.26,22.09V-79.34ZM317.4-107.681l-1.61-.927-.344-.205-1.562,1.013.344.2,1.609.934,4.721,2.721,1.562-1.006Zm0,0-1.61-.927-.344-.205-1.562,1.013.344.2,1.609.934,4.721,2.721,1.562-1.006Z" transform="translate(-251.078 150.014)" fill="#fff"/>
          </g>
          <g id="Group_761" data-name="Group 761">
            <path id="Path_1227" data-name="Path 1227" d="M252.5-150.014h-1.424v8.694L288.6-119.653,291.471-118l2.867,1.655,14.078,8.131h.007l1.6.927.351.2,1.265.728.344.2,1.609.934,4.721,2.722,1.616.934.344.2,1.265.728.344.205,1.609.927,3.165,1.828,1.655.954,1.655.954,49.418,28.533h7.436v-7.449L347.133-97.61l-2.867-1.655L341.4-100.92l-8.3-4.794-1.609-.927-.344-.2-1.265-.735-.344-.2-1.616-.927-4.721-2.728-1.609-.927-.344-.2-1.265-.735-.351-.2-1.6-.927-6.787-3.92-1.655-.954-1.655-.954-51.557-29.771H252.5Z" transform="translate(-251.078 150.014)" fill="#e34554"/>
            <path id="Path_1228" data-name="Path 1228" d="M350.444-97.61l-2.867-1.655-2.867-1.656-10.052-5.8-1.609-.933-.344-.2-1.265-.728-.344-.2-1.616-.934-4.721-2.721-1.609-.934-.344-.2-1.265-.729-.351-.2-1.6-.934-8.35-4.814-1.656-.961-1.655-.953-48.252-27.858h-6.622l52.59,30.361L308.509-118l2.728,1.576,5.225,3.013,1.6.927.351.205,1.265.728.344.2,1.609.934,4.721,2.721,1.615.934.345.2,1.264.729.344.2,1.609.934,6.556,3.781,2.867,1.656,2.868,1.655,43,24.825v-3.821Zm-20.349,0-1.781-1.033-1.656-.954-1.6-.92-1.609-.933-.344-.2-1.265-.728-.344-.2-1.616-.934-4.721-2.728-1.609-.927-.344-.2-1.265-.729-.351-.205-1.6-.927-12.33-7.118-5.734-3.311-40.843-23.58v3.821L285.3-119.653l5.734,3.311L306.86-107.2l1.6.927.351.2,1.265.734.344.2,1.609.927,4.721,2.728,1.616.927.344.2,1.265.735.344.2,1.609.927,4.728,2.728,1.656.961,1.655.954,46.1,26.619h6.621Z" transform="translate(-251.078 150.014)" fill="#fff"/>
          </g>
          <g id="Group_762" data-name="Group 762">
            <path id="Path_1229" data-name="Path 1229" d="M386.824-150.014v5.238l-38.9,25.123L345.365-118l-2.569,1.655-9.462,6.119-1.563,1.007-.676.437-.887.569-.675.437-1.563,1.013-4.238,2.735-1.563,1.013-.675.437-.887.569-.675.437-1.563,1.007-7.132,4.609-1.655,1.066-1.655,1.073L266.785-67.242H251.078v-1.967l43.968-28.4,5.125-3.311,8.29-5.357,1.563-1.006.675-.437.887-.576.675-.437,1.563-1.007,4.238-2.741,1.563-1.007.675-.437.887-.569.676-.437,1.563-1.013,3.232-2.086,1.655-1.066,1.655-1.073,46.2-29.844Z" transform="translate(-251.078 150.014)" fill="#e34554"/>
            <path id="Path_1230" data-name="Path 1230" d="M344.868-119.653l-5.125,3.311-8.025,5.185-1.563,1.006-.675.437-.887.576-.675.438-1.562,1.006-4.239,2.741-1.562,1.006-.675.437-.887.576-.676.431-1.562,1.013-5.516,3.562-1.656,1.073-1.655,1.065L263.739-67.242h6.1l38.089-24.606,1.655-1.066,1.656-1.072,8.741-5.642,1.562-1.013.676-.431.887-.576.675-.437,1.562-1.006,4.238-2.741,1.563-1.007.675-.437.887-.576.675-.437,1.563-1.006,10.906-7.046,5.125-3.311,35.85-23.163v-3.939Zm28.256-30.361L329.97-122.136l-1.655,1.072L326.659-120l-4.841,3.126-1.562,1.006-.67.437-.887.576-.675.437-1.562,1.007-4.244,2.741-1.563,1.006-.669.437-.887.576-.675.437h-.007L306.86-107.2l-9.734,6.284L292-97.61,251.078-71.176v3.934h.007L298.1-97.61l5.126-3.311,6.853-4.424,1.563-1.013.675-.437.887-.569.675-.437,1.562-1.013,4.239-2.736,1.562-1.006.675-.437.887-.576.676-.437,1.562-1.006,2.059-1.332,5.125-3.311,47-30.361Z" transform="translate(-251.078 150.014)" fill="#fff"/>
          </g>
          <g id="Group_763" data-name="Group 763">
            <path id="Path_1231" data-name="Path 1231" d="M386.756-150.014v7.628l-35.194,22.732-5.125,3.311L335.219-109.1l-1.563,1.013-.675.43-.887.576-.675.437-1.563,1.006-4.238,2.741-1.563,1.007-.676.437-.887.576-.676.437-1.563,1.006-9.085,5.867-1.655,1.073-1.655,1.066L270.425-67.242H251.673L298.687-97.61l5.125-3.311,6.542-4.225,1.563-1.013.676-.437.887-.57.675-.437,1.563-1.006,4.238-2.741,1.563-1.006.675-.437.887-.576.675-.437,1.563-1.007,2.364-1.53,5.125-3.311,47-30.361Z" transform="translate(-251.01 150.014)" fill="#e34554"/>
            <path id="Path_1232" data-name="Path 1232" d="M320.024-111.349l-4.239,2.741,1.61.927,4.238-2.735Zm0,0-4.239,2.741,1.61.927,4.238-2.735Zm28.552-8.3-5.125,3.311-9.774,6.317-1.563,1.006-.675.438-.887.569-.675.437-1.562,1.013-4.239,2.735-1.562,1.013-.675.438-.888.569-.675.437-1.562,1.006-7.476,4.834-1.656,1.066-1.655,1.072-40.486,26.15h6.105l34.38-22.21,1.655-1.072,1.656-1.066L321.931-98.5l1.562-1.006.676-.438.887-.569.675-.437,1.562-1.013,4.238-2.735,1.563-1.013.675-.438.887-.569.675-.437,1.563-1.006,12.654-8.178,5.125-3.311,32.148-20.765v-3.94Zm-28.552,8.3-4.239,2.741,1.61.927,4.238-2.735Zm0,0-4.239,2.741,1.61.927,4.238-2.735Zm56.807-38.665L329.97-119.739l-1.655,1.065-1.656,1.073-2.881,1.861-1.562,1.006-.676.437-.887.576-.675.431-1.562,1.013-4.239,2.735-1.562,1.013-.675.437-.887.569-.675.438-1.563,1.006-7.979,5.158-5.126,3.311L251.078-68.779v1.537h3.715L301.807-97.61l5.126-3.311,5.1-3.3,1.563-1.007.675-.437.887-.576.675-.43,1.563-1.013,4.238-2.735,1.562-1.014.675-.437.887-.569.676-.437L327-113.886l3.808-2.457,5.125-3.311,47-30.361Z" transform="translate(-251.078 150.014)" fill="#fff"/>
          </g>
          <g id="Group_764" data-name="Group 764">
            <path id="Path_1233" data-name="Path 1233" d="M386.824-118v18.733H328.314v32.023H309.581V-99.265h-58.5V-118h58.5v-32.016h18.733V-118Z" transform="translate(-251.078 150.014)" fill="#e34554"/>
            <path id="Path_1234" data-name="Path 1234" d="M326.659-100.92v33.678h3.311V-97.61h56.854v-3.311Zm3.311-18.733v-30.361h-3.311v33.671h60.164v-3.311Zm-22.043-30.361v30.361H251.078v3.311h60.159v-33.671ZM251.078-100.92v3.311h56.848v30.367h3.311V-100.92Z" transform="translate(-251.078 150.014)" fill="#fff"/>
          </g>
        </g>
      </g>
    </g>
  </g>
</svg>
