<svg xmlns="http://www.w3.org/2000/svg" xmlns:xlink="http://www.w3.org/1999/xlink" width="78.949" height="78.949" viewBox="0 0 78.949 78.949">
  <defs>
    <clipPath id="clip-path">
      <circle id="Ellipse_94" data-name="Ellipse 94" cx="39.475" cy="39.475" r="39.475" fill="none"/>
    </clipPath>
  </defs>
  <g id="bt_th_a" transform="translate(78.949 78.949) rotate(180)">
    <g id="Group_770" data-name="Group 770">
      <g id="Group_769" data-name="Group 769" clip-path="url(#clip-path)">
        <g id="Group_768" data-name="Group 768" transform="translate(-24.3 -1.583)">
          <rect id="Rectangle_398" data-name="Rectangle 398" width="135.386" height="82.772" fill="#fff"/>
          <rect id="Rectangle_399" data-name="Rectangle 399" width="135.386" height="32.457" transform="translate(0 26.213)" fill="#0059a7"/>
          <rect id="Rectangle_400" data-name="Rectangle 400" width="135.386" height="11.646" transform="translate(0 71.126)" fill="#ed193f"/>
          <rect id="Rectangle_401" data-name="Rectangle 401" width="135.386" height="11.646" fill="#ed193f"/>
        </g>
      </g>
    </g>
  </g>
</svg>
