<svg xmlns="http://www.w3.org/2000/svg" width="87.047" height="87.047" viewBox="0 0 87.047 87.047">
  <g id="bt_wifi_open" transform="translate(-363.06 -257.204)">
    <path id="Path_1238" data-name="Path 1238" d="M43.523,0A43.523,43.523,0,1,1,0,43.523,43.523,43.523,0,0,1,43.523,0Z" transform="translate(363.059 257.204)" fill="#4a70b4"/>
    <g id="Group_774" data-name="Group 774">
      <path id="Path_1236" data-name="Path 1236" d="M379.543,295.335h0a5.8,5.8,0,0,0,7.316,2.437,49.658,49.658,0,0,1,39.447,0,5.8,5.8,0,0,0,7.316-2.437h0a5.806,5.806,0,0,0-2.677-8.229,61.244,61.244,0,0,0-48.724,0A5.807,5.807,0,0,0,379.543,295.335Z" fill="#fff"/>
      <path id="Path_1237" data-name="Path 1237" d="M389.358,308.227h0a3.748,3.748,0,0,0,4.717,1.571,32.065,32.065,0,0,1,25.015,0,3.749,3.749,0,0,0,4.718-1.571h0a3.737,3.737,0,0,0-1.718-5.3,39.525,39.525,0,0,0-31.014,0A3.736,3.736,0,0,0,389.358,308.227Z" fill="#fff"/>
      <circle id="Ellipse_96" data-name="Ellipse 96" cx="6.83" cy="6.83" r="6.83" transform="translate(399.753 313.743)" fill="#fff"/>
    </g>
  </g>
</svg>
