<svg xmlns="http://www.w3.org/2000/svg" width="264" height="90" viewBox="0 0 264 90">
  <g id="bt_grap_week1" transform="translate(-740 -745)">
    <rect id="Rectangle_407" data-name="Rectangle 407" width="264" height="90" rx="22" transform="translate(740 745)" fill="#29bcbd"/>
    <text id="text_name_ex" transform="translate(804 805)" fill="#fff" font-size="45" font-family="Prompt-Medium, Prompt" font-weight="500"><tspan x="0" y="0">สัปดาห์</tspan></text>
  </g>
</svg>
