<?xml version="1.0" encoding="utf-8"?>
<!-- Generator: Adobe Illustrator 24.2.0, SVG Export Plug-In . SVG Version: 6.00 Build 0)  -->
<svg version="1.1" id="Layer_1" xmlns="http://www.w3.org/2000/svg" xmlns:xlink="http://www.w3.org/1999/xlink" x="0px" y="0px"
	 viewBox="0 0 83 83" style="enable-background:new 0 0 83 83;" xml:space="preserve">
<style type="text/css">
	.st0{fill:#0F6D6E;}
	.st1{fill:none;stroke:#FFFFFF;stroke-width:6.0031;stroke-linecap:round;stroke-miterlimit:4.0021;}
	.st2{fill:none;stroke:#FFFFFF;stroke-width:6.0039;stroke-linecap:round;stroke-miterlimit:4.0026;}
</style>
<circle id="Ellipse_98" class="st0" cx="41.5" cy="41.5" r="41.5"/>
<g id="Group_801" transform="translate(321 -262)">
	<g id="Group_730" transform="matrix(0.995, -0.105, 0.105, 0.995, 15855.09, -2874.837)">
		<path id="Path_563" class="st1" d="M-16365.6,1480.6l-11.3-14.5"/>
		<path id="Path_564" class="st2" d="M-16376.9,1465.8l14.3-11.5"/>
	</g>
</g>
</svg>
