<svg xmlns="http://www.w3.org/2000/svg" width="482" height="469" viewBox="0 0 482 469">
  <g id="bt_Weigh_1b" transform="translate(-215 -293)">
    <rect id="Rectangle_178" data-name="Rectangle 178" width="482" height="469" rx="57" transform="translate(215 293)" fill="#29bcbd"/>
    <path id="Path_1170" data-name="Path 1170" d="M4485.611-1382.443c-62.805,1.768-36.053-2.65-63.291,0s-15.378,1.6-34.784,2.748-30.281,9.579-8.564,14.477,106.087-2.5,140.314,0,55.462-6.227,29.469-9.6S4548.417-1384.211,4485.611-1382.443Z" transform="translate(-4019.465 2033.658)" fill="#e4edee"/>
    <g id="Group_617" data-name="Group 617" transform="translate(388.396 363.24)">
      <g id="Layer_3" data-name="Layer 3" transform="translate(0 284.564)">
        <rect id="Rectangle_346" data-name="Rectangle 346" width="119.457" height="11.469" rx="5.734" fill="#fff"/>
      </g>
      <path id="Path_1166" data-name="Path 1166" d="M680.105-92.775c-.17-.195-.367-.372-.555-.555.184.078.379.141.553.231.063-.419-4.964-21.478-7.565-32.953a17.056,17.056,0,0,0-5.53-8.891,7.422,7.422,0,0,0-1.388-.882l-.049-.047a.068.068,0,0,1-.049-.022c-5.951-5.031-18.035-8.385-18.106-8.4l0,0-2.808-1.708-.553-5.882c6.426-5.582,3.338-15.328,1.317-20.354-3.3-8.2-10.29-10.8-19.107-10.223-7.917.517-13.142,5.364-10.494,7.032l.029-.013a14.082,14.082,0,0,0-3.759,5.922,15.86,15.86,0,0,0-.835,4.232,19.256,19.256,0,0,0-.034,2.452c.022.394.049.817.094,1.231,0,.029.013.045.009.058l0,.011c.072.6.2,1.24.313,1.87-.81.681-1.164,2.367-.786,4.223a5.522,5.522,0,0,0,1.773,3.267l-.269,2.355a1.894,1.894,0,0,0,1.934,2.107L616-147.7c.19.665.643,2.595,1,4.111.253,1.113.452,1.986.452,1.986a13.442,13.442,0,0,0,.978,2.391c.038.067.081.132.119.2l-.88.622-2.353,1.681h-.025a.744.744,0,0,0-.271.168c-4.473,3.119-6.372,8.542-5.4,15.395,0,.141.014,9.032-.231,13.539-.007.307-.036.625-.047.949,0,0-.085.638-.184,1.7a65.914,65.914,0,0,0,.269,15c-5.291,10.239-5.8,24.03-12.86,38.892l-3.193,2.414a8.847,8.847,0,0,0-2.62,2.642,8.776,8.776,0,0,0-.788,3.293c-.233,2.183-.016,2.129-.246,4.31a3.387,3.387,0,0,0,.027,1.292,2.582,2.582,0,0,0,.893,1.305c-.018.092-.029.186-.052.278a1.807,1.807,0,0,0-.085.705.971.971,0,0,0,.533.672,1.832,1.832,0,0,0,.864.168c.029,0,.058,0,.09-.007a4.507,4.507,0,0,1-.148.685,1.5,1.5,0,0,0-.112.564,1.056,1.056,0,0,0,.486.721,2.6,2.6,0,0,0,.748.385,1.046,1.046,0,0,0,.7,0,1.112,1.112,0,0,0,.367,1.41,1.441,1.441,0,0,0,2.346-.752q.642-2.64,1.285-5.282a8.836,8.836,0,0,1,1.034-2.812,8.777,8.777,0,0,1,1.247-1.411c1.084-1.061,2.243-1.8,3.325-2.859.374,1.16-.217,2.087-.851,3.128a10.309,10.309,0,0,0-1.641,3.233,2.9,2.9,0,0,0,.4,2.1.941.941,0,0,0,1.6-.067,20.019,20.019,0,0,1,3-4.052,6.981,6.981,0,0,0,1.177-1.419,12.747,12.747,0,0,0,.71-2.284c.224-.708.591-1.37.766-2.091a16.427,16.427,0,0,0,.4-3.038c1.3-1.657,3.076-3.849,5.02-6.493a7.74,7.74,0,0,0,2.125,3.249l-8.66,62-5.172,85.617c-.663.181-1.287.352-1.9.533h-.011c-.437.121-.887.253-1.312.387h-.011c-.625.181-1.227.374-1.8.555-.461.157-.909.289-1.334.423-.613.217-1.191.41-1.746.6-5.674,2.035-8.83,3.983-8.748,5.9l.125,2.79c5.68,2.34,15.026,2.821,27.418.967.437-.063.887-.137,1.334-.2l.065.934c.414.034.853.065,1.267.11a29.76,29.76,0,0,0,4.789.123,9.728,9.728,0,0,0,3.459-.851l.081-2.187v-.107l-.11-2.27v-.058c.284.224.571.481.844.739.137-.652,2.288-11.591,3.488-19.924.349-2.4.676-4.923,1-7.5,2.485-19.279,3.69-42.844,2.738-61.759a6.026,6.026,0,0,1,.257-2.212c.544-1.72,1.679-5.394,3.09-10.214l.369,9.421,9.722,68.276,2.107,14.721.486.175c-.425.107-.851.217-1.263.338-.649.181-1.287.352-1.9.533h-.011c-.437.121-.887.255-1.31.387-.627.181-1.241.374-1.818.555-.461.157-.9.291-1.334.423-.614.217-1.191.41-1.746.6-5.673,2.037-8.83,3.985-8.748,5.9l.029.652.1,2.138c5.68,2.34,15.025,2.823,27.418.967.448-.063.884-.137,1.332-.2l.072.927c.419.036.849.072,1.269.116,2.942.246,5.947.381,8.242-.73l.083-2.192h0v-.1l-.069-1.464c.416.257.833.515,1.247.784.159-6.553,1.919-19.194.914-32.041-.764-9.847-2.064-20.692-3.8-31.4-1.655-10.371-3.719-20.587-6.074-29.617a5.962,5.962,0,0,1-.2-2.223c.39-3.949,1.664-17.7,2.414-32.4.049.018.09.054.141.069a1.065,1.065,0,0,0,.869-.031,1.6,1.6,0,0,0,.389-.423,4.307,4.307,0,0,1,.466-.524l.047.076a1.858,1.858,0,0,0,.645.6.972.972,0,0,0,.857.034,1.779,1.779,0,0,0,.519-.484c.06-.072.13-.137.195-.2a2.577,2.577,0,0,0,1.581-.049,3.469,3.469,0,0,0,1.059-.737c1.625-1.473,1.711-1.267,3.336-2.74a8.792,8.792,0,0,0,2.2-2.579,8.758,8.758,0,0,0,.591-3.672q.064-3.714.128-7.427a6.381,6.381,0,0,0-.437-2.438l1.375-.009C677.931-56.967,680.143-84.9,680.105-92.775ZM665.059-33.293a8.834,8.834,0,0,1-.405,1.838,8.8,8.8,0,0,1-1.661,2.494l-.056.067c.025-.607.049-1.218.074-1.82q.057-1.874.1-3.719c.092-.235.181-.47.278-.7.468-1.124.871-2.149,2.024-2.53C665.189-36.165,665.279-34.793,665.059-33.293Zm-1.876-8.875c-.007-1.2-.025-2.358-.049-3.5.1,1.075.2,2.107.309,3.081h.029C663.367-42.452,663.275-42.309,663.183-42.168Z" transform="translate(-560.649 182.547)" fill="#fff"/>
    </g>
  </g>
</svg>
