<?xml version="1.0" encoding="utf-8"?>
<svg id="master-artboard" viewBox="0 0 318 435" version="1.1" xmlns="http://www.w3.org/2000/svg" x="0px" y="0px" style="enable-background:new 0 0 1400 980;" width="318px" height="435px"><defs><style id="ee-google-fonts">@import url(https://fonts.googleapis.com/css?family=Rubik:300,300italic,400,400italic,500,500italic,700,700italic,900,900italic);</style><filter id="Rectangle_178" x="0" y="0" width="408" height="525" filterUnits="userSpaceOnUse">
      <feOffset dy="3" input="SourceAlpha"/>
      <feGaussianBlur stdDeviation="15" result="blur"/>
      <feFlood flood-color="#0f6d6e" flood-opacity="0.2"/>
      <feComposite operator="in" in2="blur"/>
      <feComposite in="SourceGraphic"/>
    </filter><filter id="Rectangle_179" x="0" y="0" width="408" height="525" filterUnits="userSpaceOnUse">
      <feOffset dy="3" input="SourceAlpha"/>
      <feGaussianBlur stdDeviation="15" result="blur"/>
      <feFlood flood-color="#0f6d6e" flood-opacity="0.2"/>
      <feComposite operator="in" in2="blur"/>
      <feComposite in="SourceGraphic"/>
    </filter></defs><rect id="ee-background" x="0" y="0" width="318" height="435" style="fill: white; fill-opacity: 0; pointer-events: none;"/>








































<g transform="matrix(1, 0, 0, 1, -44.64155578613281, -41.408878326416016)"><g id="bt_more_hh_2" transform="translate(-376 -318)">
    <g transform="matrix(1, 0, 0, 1, 376, 318)" filter="url(#Rectangle_179)">
      <path d="M 57 0 H 261 A 57 57 0 0 1 318 57 V 378 A 57 57 0 0 1 261 435 H 57 A 57 57 0 0 1 0 378 V 57 A 57 57 0 0 1 57 0 Z" id="Rectangle_179-2" data-name="Rectangle 179" transform="translate(45 42)" fill="#fff"/>
    </g>
    
    <g id="Group_352" data-name="Group 352" transform="translate(180.133 676.614)">
      <g id="Group_350" data-name="Group 350">
        <path id="Path_818" data-name="Path 818" d="M343.054-190.616c4.142-2.278,7.541-2.278,11.89-.85,7.2,2.326,17.854-3.871,10.977-11.5,6.489.478,8.9-7.865,3.84-12.331a19.193,19.193,0,0,1-12.183-11.317c-9.734.106-9.6,11.874-4.4,17.18C343.054-209.744,336.8-198.208,343.054-190.616Z" fill="#0f6d6e"/>
        <path id="Path_819" data-name="Path 819" d="M384.471-165.492c-5.778-5.757-12.708-2.953-10.871,5.167-9.208,4.328-8.922,14.338.627,15.73,1.222-4.657,5.013-7.61,9.6-8.529.207,1.12.356,2.241.51,3.33-8.985,1.784-9.272,12.23-1.869,15.459-.473,1.036-.983,2.092-1.529,3.128a11.416,11.416,0,0,1-7.063-10.01c-12.012-1.524-13.951-15.082-4.1-20.977a9.029,9.029,0,0,1,4.031-8.189c-1.992-10.3-11.179-9.325-17.652-6.543,2.565-4.907,2.225-11.975-5.857-12.145-9.819-.2-13.048,10.276-12.336,18.417.611,8.375,3.994,14.168,11.89,16.988-4.016,10.258,1.831,18.805,12.584,16.118-2.618,10.605,3.887,16.192,13.621,12.469,11.912,13.914,29.256-3.9,17.058-19.192,5.932-5.491,8.173-14.716,2.5-20.759-3.09-3.266-7.663-3.16-11.141-.462Z" fill="#0f6d6e"/>
        <path id="Path_820" data-name="Path 820" d="M370.232-193.808a6.75,6.75,0,0,0,9.211,2.5,6.74,6.74,0,0,0,1.1-.788,11.6,11.6,0,0,1,5.183-11.264c.643.951,1.291,1.885,1.917,2.836a8.152,8.152,0,0,0-3.755,7.934,8.27,8.27,0,0,0,4.689,6.845c-.425,1.051-.882,2.092-1.344,3.107a11.171,11.171,0,0,1-5.757-5.98,9.949,9.949,0,0,1-13.42-2.443,13.3,13.3,0,0,1-8.566,3.516,9.474,9.474,0,0,1,1.258,5.672c7.881-1.524,14.386,2.145,16.224,10.143a9.3,9.3,0,0,1,7.865,1.869,12.325,12.325,0,0,1,10.3.271c5.316-7.695,3.378-17.987-3.553-24.073,8.152-6.452,9.532-17,1.816-25.48,5.029-6.574,6.357-19.76-3.022-26.2-8.492-5.757-15.188.988-19.028,7.509-7.95-3.431-14.392,4.944-9.24,12.756,5.841,8.938,20.148,10.281,20.743-.08a12.912,12.912,0,0,1-8.751-4.553c.818-.712,1.636-1.423,2.432-2.14,4.2,4.689,11.72,4.535,12.862-1.583,1.1.292,2.2.6,3.324.871a8.971,8.971,0,0,1-6.452,7.068c0,7.015-5.029,11.2-11.858,11,2.448,4.726,1.668,11.317-3.346,13.712a8.7,8.7,0,0,1-.834,6.967Z" fill="#0f6d6e"/>
      </g>
      <g id="Group_351" data-name="Group 351">
        <path id="Path_821" data-name="Path 821" d="M408.335-247.29c-9.017,4.163.032,13.951,4.689,18.741-10.467,4.96-8.444,15.847,1.243,21.524-7.732,5.146-11.178,17.174-2.039,23a12.931,12.931,0,0,1,6.9-1.683,12,12,0,0,1,9.426-12.555,13.5,13.5,0,0,1,2.04-10.462,12.012,12.012,0,0,1-7.61-4.912,9.7,9.7,0,0,1-8.428-.085c.51-.982,1-1.97,1.529-2.99,4.062,2.209,10.414-1.97,9.511-6.468,1.142-.154,2.241-.308,3.351-.462a8.728,8.728,0,0,1-3.16,8.226c5.21,6.76,17.089,3.585,12.618-8.072,13-6.42-.3-19.182-7.657-14.3-2.008-8.566-14.339-13.3-22.411-9.5Z" fill="#29bcbd"/>
        <path id="Path_822" data-name="Path 822" d="M453.135-209.708c5.13-5.178,2.82-17.307-6.388-17.137a11.021,11.021,0,0,1-4.18,5.093,10.056,10.056,0,0,1-6.523,12.637q-.479.151-.97.257c-6.235,6.373-4.365,14.238,4.88,16.516-1.19,12.91,11.667,16.712,16.749,4.434,13.112-.223,12.91-20.865-3.569-21.8Z" fill="#29bcbd"/>
        <path id="Path_823" data-name="Path 823" d="M413.789-154.977c-9.5,2.719-10.77,16.192-2.852,20.658-1.906,4.9-1.854,9.548,2.581,12.437,4.758,3.123,9.564.372,13.457-3.346,4,1.784,7.859,2.225,11.837-.781,4.472-3.383,4.18-7.206,3.569-11.758,9.634,3.516,18.481-6.829,14.152-16.208,8.189-2.873,11.821-8.7,12.756-17.073.51-5.114-.494-12.214-4.774-15.629a10.632,10.632,0,0,1-5.571,2.055c-2.278,4.742-6.628,7.966-11.959,7.355a13.437,13.437,0,0,0,.78,9.193,11.813,11.813,0,0,1,10.977,1.158c-.648.929-1.259,1.885-1.938,2.82-6.511-4.349-13.08.759-12.06,9.017-1.126.17-2.247.356-3.367.526-.473-4.2.271-8.646,3.516-11.635a17.078,17.078,0,0,1-1.189-11.943,12.314,12.314,0,0,1-7.286-11.688,12.108,12.108,0,0,1-6.622-5.231,8.737,8.737,0,0,0-7.238,9.973c9.564,3.245,11.518,14.439,5.586,22.251,6.744,4.758,6.033,15.528.494,21.508,2.156,2.581,2.379,6.049,1.158,9.293-1.041-.308-2.077-.627-3.16-.967,2.427-6.5-3.606-9.516-9.129-7.1-.42-1.02-.812-2.039-1.2-3.075a11.337,11.337,0,0,1,9.729-.17c6.272-5.709,3.723-16.733-3.446-18.316,12.485-11.226,1.258-24.715-8.853-19.3-9.936,5.316-8.1,20.881.053,25.974Z" fill="#29bcbd"/>
      </g>
    </g>
  </g></g></svg>