<?xml version="1.0" encoding="utf-8"?>
<svg id="master-artboard" viewBox="0 0 318 435" version="1.1" xmlns="http://www.w3.org/2000/svg" x="0px" y="0px" style="enable-background:new 0 0 1400 980;" width="318px" height="435px"><defs><style id="ee-google-fonts">@import url(https://fonts.googleapis.com/css?family=Rubik:300,300italic,400,400italic,500,500italic,700,700italic,900,900italic);</style><filter id="Rectangle_178" x="0" y="0" width="408" height="525" filterUnits="userSpaceOnUse">
      <feOffset dy="3" input="SourceAlpha"/>
      <feGaussianBlur stdDeviation="15" result="blur"/>
      <feFlood flood-color="#0f6d6e" flood-opacity="0.2"/>
      <feComposite operator="in" in2="blur"/>
      <feComposite in="SourceGraphic"/>
    </filter></defs><rect id="ee-background" x="0" y="0" width="318" height="435" style="fill: white; fill-opacity: 0; pointer-events: none;"/>








































<g transform="matrix(1, 0, 0, 1, -44.45293045043945, -41.14571762084961)"><g id="bt_more_hh_1" transform="translate(-26 -318)">
    <g transform="matrix(1, 0, 0, 1, 26, 318)" filter="url(#Rectangle_178)">
      <path d="M 57 0 H 261 A 57 57 0 0 1 318 57 V 378 A 57 57 0 0 1 261 435 H 57 A 57 57 0 0 1 0 378 V 57 A 57 57 0 0 1 57 0 Z" id="Rectangle_178-2" data-name="Rectangle 178" transform="translate(45 42)" fill="#fff"/>
    </g>
    <g id="Group_346" data-name="Group 346" transform="translate(142 432.128)">
      <g id="Group_345" data-name="Group 345" transform="translate(0 0)">
        <g id="Group_344" data-name="Group 344">
          <path id="Path_804" data-name="Path 804" d="M530.173-61.35H510.63V-84.495H462.273V-61.35h-19.34A19.674,19.674,0,0,0,423.2-41.83V3.263a19.691,19.691,0,0,0,19.733,19.571h87.24A19.625,19.625,0,0,0,549.679,3.263V-41.83a19.608,19.608,0,0,0-19.506-19.52ZM471.367-75.59h30.344v14.24H471.367Zm60.5,62.047H517.458V.859H506.089v-14.4H491.673v-11.4h14.416V-39.356h11.369V-24.94H531.87Z" transform="translate(-423.2 84.495)" fill="#0f6d6e" fill-rule="evenodd"/>
        </g>
      </g>
      <path id="Path_805" data-name="Path 805" d="M478.8-1.266c-.929.143-2.2.3-3.629.439a55.843,55.843,0,0,0,4.475-7.647L491.824-.342V-13.07c8.738-7.042,14.347-16.52,14.347-28.471,0-18.785-17.061-34-39.383-34a34.664,34.664,0,0,0-11.323,1.979A56.867,56.867,0,0,0,446-77.049a42.568,42.568,0,0,1,20.787-5.678c25.744,0,46.507,18.3,46.507,40.76,0,13.043-4.975,24.047-14.291,32.031V10.426Z" transform="translate(-340.582 90.901)" fill="#29bcbd" fill-rule="evenodd"/>
    </g>
    
  </g></g></svg>