<?xml version="1.0" encoding="utf-8"?>
<svg id="master-artboard" viewBox="0 0 551 107" xmlns="http://www.w3.org/2000/svg" width="551px" height="107px" version="1.1" style="shape-rendering:geometricPrecision; text-rendering:geometricPrecision; image-rendering:optimizeQuality; fill-rule:evenodd; clip-rule:evenodd"><defs><clipPath id="clip-path">
      <path d="M 52.007999 0 H 499.153011 A 52.007999 52.007999 0 0 1 551.161011 52.007999 V 54.576 A 52.007999 52.007999 0 0 1 499.153011 106.584 H 52.007999 A 52.007999 52.007999 0 0 1 0 54.576 V 52.007999 A 52.007999 52.007999 0 0 1 52.007999 0 Z" id="Rectangle_85" data-name="Rectangle 85" fill="none"/>
    </clipPath><linearGradient id="linear-gradient" y1="0.5" x2="1" y2="0.5" gradientUnits="objectBoundingBox">
      <stop offset="0" stop-color="#00958e"/>
      <stop offset="0.07" stop-color="#039690"/>
      <stop offset="0.135" stop-color="#0e9c99"/>
      <stop offset="0.198" stop-color="#21a6a8"/>
      <stop offset="0.256" stop-color="#3ab3bc"/>
      <stop offset="0.533" stop-color="#cee8d7"/>
      <stop offset="0.808" stop-color="#3ab3bc"/>
      <stop offset="1" stop-color="#00958e"/>
    </linearGradient></defs><rect id="ee-background" x="0" y="0" width="551" height="107" style="fill: white; fill-opacity: 0; pointer-events: none;"/>
 
 <metadata id="CorelCorpID_0Corel-Layer"/>
<g transform="matrix(0.9997077584266663, 0, 0, 0.9256615042686462, 0.000011777778126997873, -0.33829665184020996)"><g id="bt_sum_next" transform="translate(-1251.847 -778.326)">
    <g id="Group_127" data-name="Group 127" transform="translate(-41)">
      <g id="Group_126" data-name="Group 126" transform="translate(1292.847 778.326)" clip-path="url(#clip-path)">
        <path d="M 52.007999 0 H 499.153011 A 52.007999 52.007999 0 0 1 551.161011 52.007999 V 54.576 A 52.007999 52.007999 0 0 1 499.153011 106.584 H 52.007999 A 52.007999 52.007999 0 0 1 0 54.576 V 52.007999 A 52.007999 52.007999 0 0 1 52.007999 0 Z" id="Rectangle_83" data-name="Rectangle 83" fill="url(#linear-gradient)"/>
        <path d="M 52.007999 0 H 499.153011 A 52.007999 52.007999 0 0 1 551.161011 52.007999 V 54.576 A 52.007999 52.007999 0 0 1 499.153011 106.584 H 52.007999 A 52.007999 52.007999 0 0 1 0 54.576 V 52.007999 A 52.007999 52.007999 0 0 1 52.007999 0 Z" id="Rectangle_84" data-name="Rectangle 84" transform="translate(0 9.009)" fill="#00b68c"/>
      </g>
    </g>
    
  </g></g></svg>