<?xml version="1.0" encoding="utf-8"?>
<svg id="master-artboard" viewBox="0 0 88 88" version="1.1" xmlns="http://www.w3.org/2000/svg" x="0px" y="0px" style="enable-background:new 0 0 336 235.2;" width="88px" height="88px"><rect id="ee-background" x="0" y="0" width="88" height="88" style="fill: white; fill-opacity: 0; pointer-events: none;" transform="matrix(1, 0, 0, 1, -2, 0)"/><defs><style id="ee-google-fonts">@import url(https://fonts.googleapis.com/css?family=Audiowide:400);</style><clipPath id="clip-path"><path d="M 63.779999 559.190002 H 430.610008 A 52.009998 52.009998 0 0 1 482.620007 611.200001 V 613.760006 A 52.009998 52.009998 0 0 1 430.610008 665.770004 H 63.779999 A 52.009998 52.009998 0 0 1 11.77 613.760006 V 611.200001 A 52.009998 52.009998 0 0 1 63.779999 559.190002 Z" class="cls-1" style="fill: none;"/></clipPath><linearGradient id="linear-gradient" x1="11.77" y1="612.48" x2="482.62" y2="612.48" gradientUnits="userSpaceOnUse"><stop offset="0" stop-color="#00958e"/><stop offset="0.07" stop-color="#049791"/><stop offset="0.14" stop-color="#0f9d9a"/><stop offset="0.2" stop-color="#21a6a9"/><stop offset="0.26" stop-color="#3ab3bc"/><stop offset="0.53" stop-color="#cee8d7"/><stop offset="0.81" stop-color="#3ab3bc"/><stop offset="1" stop-color="#00958e"/></linearGradient><linearGradient id="linear-gradient-2" x1="247.2" y1="530.84" x2="247.2" y2="23.83" gradientUnits="userSpaceOnUse"><stop offset="0.14" stop-color="#129193"/><stop offset="0.35" stop-color="#2b9d8e"/><stop offset="0.8" stop-color="#69ba80"/><stop offset="1" stop-color="#87c879"/></linearGradient><clipPath id="clip-path-2"><path d="M 65.700001 23.83 H 428.700008 A 45.66 45.66 0 0 1 474.360008 69.49 V 485.18001 A 45.66 45.66 0 0 1 428.700008 530.84001 H 65.700001 A 45.66 45.66 0 0 1 20.040001 485.18001 V 69.49 A 45.66 45.66 0 0 1 65.700001 23.83 Z" class="cls-1" style="fill: none;"/></clipPath><linearGradient id="linear-gradient-3" x1="43.3" y1="273.02" x2="450.58" y2="273.02" gradientUnits="userSpaceOnUse"><stop offset="0" stop-color="#bad2ba"/><stop offset="0.69" stop-color="#8bc4b9"/><stop offset="1" stop-color="#60b5a5"/></linearGradient><clipPath id="clip-path-3"><path d="M 450.580002 273.019989 A 203.639999 203.639999 0 0 1 246.940002 476.659988 A 203.639999 203.639999 0 0 1 43.300003 273.019989 A 203.639999 203.639999 0 0 1 246.940002 69.37999 A 203.639999 203.639999 0 0 1 450.580002 273.019989 Z" class="cls-1" style="fill: none;"/></clipPath></defs>





















































































































































<g transform="matrix(1.3333332850891948, 0, 0, 1.3333333730697632, 0.000009175216291623656, 0)"><g id="icon_check_1" transform="translate(-4789 -985)">
    <path d="M 66 33 A 33 33 0 0 1 33 66 A 33 33 0 0 1 0 33 A 33 33 0 0 1 33 0 A 33 33 0 0 1 66 33 Z" id="Ellipse_58" data-name="Ellipse 58" transform="translate(4789 985)" fill="#29bcbd"/>
    <g id="icon_Ecg2" transform="translate(4802.586 1003.113)">
      <path id="Path_793" data-name="Path 793" d="M561.364,248.482l1.507-4.912a.594.594,0,0,1,1.136,0l2.319,7.6,1.544-5.847a.6.6,0,0,1,.607-.44.592.592,0,0,1,.555.506l1.348,9.175,2.039-17.94A.594.594,0,0,1,573,236.1h.012a.592.592,0,0,1,.586.5l2.123,13.617,2.188-5.373a.594.594,0,0,1,.55-.37h.006a.6.6,0,0,1,.549.38l1.957,5.078,1.018-2.723a.6.6,0,0,1,.536-.385l4.427-.154a10.63,10.63,0,0,0,.464-3.011c0-6.335-2.836-10.04-7.469-11.694-7.683-2.743-13.4,7.172-13.4,7.172s-5.483-9.41-12.952-6.809c-4.264,1.486-6.641,5.389-6.641,11.332a11.815,11.815,0,0,0,1.144,4.82Z" transform="translate(-546.952 -231.488)" fill="#fff"/>
      <path id="Path_794" data-name="Path 794" d="M584.486,256.537l-1.426,3.817a.594.594,0,0,1-.553.385h0a.591.591,0,0,1-.553-.379l-1.983-5.14-2.429,5.967a.594.594,0,0,1-1.138-.134l-1.772-11.373-2.057,18.091a.6.6,0,0,1-.581.528h-.01a.594.594,0,0,1-.587-.508l-1.588-10.818-1.336,5.061a.594.594,0,0,1-1.142.021l-2.363-7.743-1.064,3.475a.6.6,0,0,1-.568.419H550.209c4.89,9.029,18.5,16.995,18.5,16.995s15.468-9.046,19.352-18.788Z" transform="translate(-548.48 -240.025)" fill="#fff"/>
    </g>
  </g></g></svg>