<?xml version="1.0" encoding="utf-8"?>
<svg id="master-artboard" viewBox="0 0 88 88" version="1.1" xmlns="http://www.w3.org/2000/svg" x="0px" y="0px" style="enable-background:new 0 0 336 235.2;" width="88px" height="88px"><rect id="ee-background" x="0" y="0" width="88" height="88" style="fill: white; fill-opacity: 0; pointer-events: none;" transform="matrix(1, 0, 0, 1, -2, 0)"/><defs><style id="ee-google-fonts">@import url(https://fonts.googleapis.com/css?family=Audiowide:400);</style><clipPath id="clip-path"><path d="M 63.779999 559.190002 H 430.610008 A 52.009998 52.009998 0 0 1 482.620007 611.200001 V 613.760006 A 52.009998 52.009998 0 0 1 430.610008 665.770004 H 63.779999 A 52.009998 52.009998 0 0 1 11.77 613.760006 V 611.200001 A 52.009998 52.009998 0 0 1 63.779999 559.190002 Z" class="cls-1" style="fill: none;"/></clipPath><linearGradient id="linear-gradient" x1="11.77" y1="612.48" x2="482.62" y2="612.48" gradientUnits="userSpaceOnUse"><stop offset="0" stop-color="#00958e"/><stop offset="0.07" stop-color="#049791"/><stop offset="0.14" stop-color="#0f9d9a"/><stop offset="0.2" stop-color="#21a6a9"/><stop offset="0.26" stop-color="#3ab3bc"/><stop offset="0.53" stop-color="#cee8d7"/><stop offset="0.81" stop-color="#3ab3bc"/><stop offset="1" stop-color="#00958e"/></linearGradient><linearGradient id="linear-gradient-2" x1="247.2" y1="530.84" x2="247.2" y2="23.83" gradientUnits="userSpaceOnUse"><stop offset="0.14" stop-color="#129193"/><stop offset="0.35" stop-color="#2b9d8e"/><stop offset="0.8" stop-color="#69ba80"/><stop offset="1" stop-color="#87c879"/></linearGradient><clipPath id="clip-path-2"><path d="M 65.700001 23.83 H 428.700008 A 45.66 45.66 0 0 1 474.360008 69.49 V 485.18001 A 45.66 45.66 0 0 1 428.700008 530.84001 H 65.700001 A 45.66 45.66 0 0 1 20.040001 485.18001 V 69.49 A 45.66 45.66 0 0 1 65.700001 23.83 Z" class="cls-1" style="fill: none;"/></clipPath><linearGradient id="linear-gradient-3" x1="43.3" y1="273.02" x2="450.58" y2="273.02" gradientUnits="userSpaceOnUse"><stop offset="0" stop-color="#bad2ba"/><stop offset="0.69" stop-color="#8bc4b9"/><stop offset="1" stop-color="#60b5a5"/></linearGradient><clipPath id="clip-path-3"><path d="M 450.580002 273.019989 A 203.639999 203.639999 0 0 1 246.940002 476.659988 A 203.639999 203.639999 0 0 1 43.300003 273.019989 A 203.639999 203.639999 0 0 1 246.940002 69.37999 A 203.639999 203.639999 0 0 1 450.580002 273.019989 Z" class="cls-1" style="fill: none;"/></clipPath></defs>





















































































































































<g transform="matrix(1.3333333333333333, 0, 0, 1.3333333333333333, 0, 0)"><g id="icon_check_2" transform="translate(-4789 -1096)">
    <path d="M 66 33 A 33 33 0 0 1 33 66 A 33 33 0 0 1 0 33 A 33 33 0 0 1 33 0 A 33 33 0 0 1 66 33 Z" id="Ellipse_59" data-name="Ellipse 59" transform="translate(4789 1096)" fill="#29bcbd"/>
    <g id="icon_nibp2" transform="translate(4801.518 1108.087)">
      <path id="Path_782" data-name="Path 782" d="M765.892,226.613H748.951a5.332,5.332,0,0,0-5.326,5.326v16.942a5.332,5.332,0,0,0,5.326,5.326h16.942a5.332,5.332,0,0,0,5.326-5.326V231.939A5.332,5.332,0,0,0,765.892,226.613Zm2.528,22.268a2.529,2.529,0,0,1-2.528,2.529H748.951a2.529,2.529,0,0,1-2.529-2.529V231.939a2.528,2.528,0,0,1,2.529-2.528h16.942a2.528,2.528,0,0,1,2.528,2.528Z" transform="translate(-743.625 -226.613)" fill="#fff"/>
      <path id="Path_783" data-name="Path 783" d="M763.953,263.576a1.011,1.011,0,0,1-1.01-1.011v-1.012a1.011,1.011,0,0,1,1.01-1.011h2.8v3.034Z" transform="translate(-751.165 -239.856)" fill="#fff"/>
      <path id="Path_784" data-name="Path 784" d="M772.827,263.576h-2.8v-3.034h2.8a1.011,1.011,0,0,1,1.01,1.011v1.012A1.01,1.01,0,0,1,772.827,263.576Z" transform="translate(-753.93 -239.856)" fill="#fff"/>
      <g id="Group_310" data-name="Group 310" transform="translate(4.947 4.946)">
        <path id="Path_785" data-name="Path 785" d="M773.542,254.455a.525.525,0,0,0-.438.282c.06.457.252.6.453.6s.362-.143.362-.472C773.919,254.568,773.76,254.455,773.542,254.455Z" transform="translate(-760.078 -242.426)" fill="#fff"/>
        <path id="Path_786" data-name="Path 786" d="M777.424,252.658c-.222,0-.4.178-.4.97s.177.994.4.994.4-.205.4-.994S777.651,252.658,777.424,252.658Z" transform="translate(-761.608 -241.725)" fill="#fff"/>
        <path id="Path_787" data-name="Path 787" d="M773.469,248.006a.347.347,0,0,0,.39-.363c0-.254-.249-.348-.613-.5a.633.633,0,0,0-.222.455A.411.411,0,0,0,773.469,248.006Z" transform="translate(-760.047 -239.571)" fill="#fff"/>
        <path id="Path_788" data-name="Path 788" d="M777.424,245.246c-.222,0-.4.181-.4.97s.177.993.4.993.4-.2.4-.993S777.651,245.246,777.424,245.246Z" transform="translate(-761.608 -238.831)" fill="#fff"/>
        <path id="Path_789" data-name="Path 789" d="M773.715,245.954a.644.644,0,0,0,.179-.422.341.341,0,0,0-.352-.374.307.307,0,0,0-.325.332C773.216,245.727,773.417,245.841,773.715,245.954Z" transform="translate(-760.122 -238.797)" fill="#fff"/>
        <path id="Path_790" data-name="Path 790" d="M767.4,234.725H753.773a1.889,1.889,0,0,0-2.034,1.7v11.393a1.89,1.89,0,0,0,2.034,1.7H767.4a1.891,1.891,0,0,0,2.035-1.7V236.425A1.89,1.89,0,0,0,767.4,234.725Zm-3.157,6.693a.823.823,0,0,1,.926-.8.772.772,0,0,1,.5,1.428v.014a.832.832,0,0,1,.5.756c0,.457-.411.8-1.024.8-.582,0-1.008-.324-1.008-.793a.791.791,0,0,1,.491-.709v-.02A.83.83,0,0,1,764.247,241.418Zm-.538-2.367h-1.844v-.544h.63v-1.669h-.543v-.415a1.937,1.937,0,0,0,.721-.265h.49v2.349h.544Zm1.255-2.425a.744.744,0,0,0-.512.3l-.364-.357a1.221,1.221,0,0,1,.968-.462.886.886,0,0,1,.958.918,2.653,2.653,0,0,1-.924,1.5,4.355,4.355,0,0,1,.484-.038h.58v.567h-2.035v-.386c.736-.7,1.257-1.193,1.257-1.6A.388.388,0,0,0,764.964,236.627Zm.266,11.513c-.558,0-1.091-.42-1.091-1.435,0-1.078.558-1.564,1.169-1.564a1.147,1.147,0,0,1,.841.344l-.35.4a.663.663,0,0,0-.451-.2c-.32,0-.573.225-.6.9a.808.808,0,0,1,1.438.585A.929.929,0,0,1,765.229,248.14Zm2.325,0c-.619,0-1.033-.529-1.033-1.511s.413-1.487,1.033-1.487,1.036.505,1.036,1.487S768.175,248.14,767.554,248.14Zm0-4.517c-.619,0-1.033-.528-1.033-1.513s.413-1.489,1.033-1.489,1.036.507,1.036,1.489S768.175,243.623,767.554,243.623Zm0-4.518c-.619,0-1.033-.53-1.033-1.512s.413-1.488,1.033-1.488,1.036.507,1.036,1.488S768.175,239.1,767.554,239.1Z" transform="translate(-751.739 -234.725)" fill="#fff"/>
        <path id="Path_791" data-name="Path 791" d="M777.424,237.836c-.222,0-.4.177-.4.971s.177.994.4.994.4-.2.4-.994S777.651,237.836,777.424,237.836Z" transform="translate(-761.608 -235.939)" fill="#fff"/>
      </g>
      <g id="Group_311" data-name="Group 311" transform="translate(3.504 7.377)">
        <path d="M 0 0 H 0.968 V 1.559 H 0 V 0 Z" id="Rectangle_162" data-name="Rectangle 162" fill="#fff"/>
        <path d="M 0 0 H 0.968 V 1.559 H 0 V 0 Z" id="Rectangle_163" data-name="Rectangle 163" transform="translate(0 2.57)" fill="#fff"/>
        <path d="M 0 0 H 0.968 V 1.559 H 0 V 0 Z" id="Rectangle_164" data-name="Rectangle 164" transform="translate(0 5.142)" fill="#fff"/>
      </g>
      <g id="Group_312" data-name="Group 312" transform="translate(12.655 27.593)">
        <path id="Path_792" data-name="Path 792" d="M773.328,299.114a4.43,4.43,0,0,1,3.467-1.3h7.772A5.5,5.5,0,0,0,790.01,294c-.61-.132-1.218-.269-1.83-.4a3.655,3.655,0,0,1-3.612,2.347H776.8c-2.794,0-5.044,1.342-5.5,3.16Z" transform="translate(-767.079 -280.355)" fill="#fff"/>
        <path d="M 0 0 H 1.864 V 14.413 H 0 V 0 Z" id="Rectangle_165" data-name="Rectangle 165" transform="translate(0.467 4.346)" fill="#fff"/>
        <path d="M 0 0 H 2.797 V 2.6 H 0 V 0 Z" id="Rectangle_166" data-name="Rectangle 166" transform="translate(20.751 9.925)" fill="#fff"/>
        <path d="M 0 0 H 2.796 V 3.692 H 0 V 0 Z" id="Rectangle_167" data-name="Rectangle 167" fill="#fff"/>
      </g>
      <path d="M 0 0 H 11.857 V 15.098 H 0 V 0 Z" id="Rectangle_168" data-name="Rectangle 168" transform="translate(29.558 23.721)" fill="#fff"/>
      <path d="M 0 0 H 0.93 V 13.357 H 0 V 0 Z" id="Rectangle_169" data-name="Rectangle 169" transform="translate(41.647 24.796)" fill="#fff"/>
    </g>
  </g></g></svg>