<?xml version="1.0" encoding="utf-8"?>
<svg id="master-artboard" viewBox="0 0 471 106" xmlns="http://www.w3.org/2000/svg" width="471px" height="106px" version="1.1" style="shape-rendering:geometricPrecision; text-rendering:geometricPrecision; image-rendering:optimizeQuality; fill-rule:evenodd; clip-rule:evenodd"><defs><filter id="Rectangle_176" x="0" y="0" width="515.85" height="151.584" filterUnits="userSpaceOnUse">
      <feOffset dy="8" input="SourceAlpha"/>
      <feGaussianBlur stdDeviation="7.5" result="blur"/>
      <feFlood flood-color="#415b5c" flood-opacity="0.651"/>
      <feComposite operator="in" in2="blur"/>
      <feComposite in="SourceGraphic"/>
    </filter><clipPath id="clip-path">
      <path d="M 52.007999 0 H 418.841 A 52.007999 52.007999 0 0 1 470.848999 52.007999 V 54.576 A 52.007999 52.007999 0 0 1 418.841 106.584 H 52.007999 A 52.007999 52.007999 0 0 1 0 54.576 V 52.007999 A 52.007999 52.007999 0 0 1 52.007999 0 Z" id="SVGID" transform="translate(719.54 778.326)" fill="none"/>
    </clipPath><linearGradient id="linear-gradient" y1="0.5" x2="1" y2="0.5" gradientUnits="objectBoundingBox">
      <stop offset="0" stop-color="#f18347"/>
      <stop offset="0.076" stop-color="#f08649"/>
      <stop offset="0.145" stop-color="#ee9150"/>
      <stop offset="0.213" stop-color="#eca45b"/>
      <stop offset="0.278" stop-color="#e8be6b"/>
      <stop offset="0.296" stop-color="#e7c771"/>
      <stop offset="0.533" stop-color="#f0e38b"/>
      <stop offset="0.717" stop-color="#e7c771"/>
      <stop offset="1" stop-color="#f18347"/>
    </linearGradient></defs><rect id="ee-background" x="0" y="0" width="471" height="106" style="fill: white; fill-opacity: 0; pointer-events: none;"/>
 
 <metadata id="CorelCorpID_0Corel-Layer"/>
<g transform="matrix(2.7139673669845283, 0, 0, 2.7139673669845283, -0.0000059773269640572835, 284.30298579510196)"><g id="bt_back_org" transform="translate(-697.039 -763.5)">
    <g transform="matrix(1, 0, 0, 1, 697.04, 763.5)" filter="url(#Rectangle_176)">
      <path d="M 52.007999 0 H 418.841 A 52.007999 52.007999 0 0 1 470.848999 52.007999 V 54.576 A 52.007999 52.007999 0 0 1 418.841 106.584 H 52.007999 A 52.007999 52.007999 0 0 1 0 54.576 V 52.007999 A 52.007999 52.007999 0 0 1 52.007999 0 Z" id="Rectangle_176-2" data-name="Rectangle 176" transform="translate(22.5 14.5)" fill="#f9fafb"/>
    </g>
    <g id="Group_83" data-name="Group 83" transform="matrix(0.36858198046684265, 0, 0, 0.3378826975822449, 431.68419913748727, 397.1886596679688)">
      <g id="Group_82" data-name="Group 82" clip-path="url(#clip-path)">
        <path d="M 52.007999 0 H 418.841 A 52.007999 52.007999 0 0 1 470.848999 52.007999 V 54.576 A 52.007999 52.007999 0 0 1 418.841 106.584 H 52.007999 A 52.007999 52.007999 0 0 1 0 54.576 V 52.007999 A 52.007999 52.007999 0 0 1 52.007999 0 Z" id="Rectangle_46" data-name="Rectangle 46" transform="translate(719.54 778.326)" fill="url(#linear-gradient)"/>
        <path d="M 52.007999 0 H 418.841 A 52.007999 52.007999 0 0 1 470.848999 52.007999 V 54.576 A 52.007999 52.007999 0 0 1 418.841 106.584 H 52.007999 A 52.007999 52.007999 0 0 1 0 54.576 V 52.007999 A 52.007999 52.007999 0 0 1 52.007999 0 Z" id="Rectangle_47" data-name="Rectangle 47" transform="translate(719.54 787.336)" fill="#fcb560"/>
      </g>
    </g>
    
  </g></g></svg>